<!--This work is licensed under a Creative Commons Attribution-ShareAlike 4.0 International License (CC BY-SA) with Design Exception 1.0-->
<eagle version="7.1.0">
<drawing>
<settings>
<setting alwaysvectorfont="no"/>
<setting verticaltext="up"/>
</settings>
<grid distance="0.1" unitdist="inch" unit="inch" style="lines" multiple="1" display="no" altdistance="0.01" altunitdist="inch" altunit="inch"/>
<layers>
<layer number="1" name="Top" color="4" fill="1" visible="yes" active="yes"/>
<layer number="16" name="Bottom" color="1" fill="1" visible="yes" active="yes"/>
<layer number="17" name="Pads" color="2" fill="1" visible="yes" active="yes"/>
<layer number="18" name="Vias" color="2" fill="1" visible="yes" active="yes"/>
<layer number="19" name="Unrouted" color="6" fill="1" visible="yes" active="yes"/>
<layer number="20" name="Dimension" color="15" fill="1" visible="yes" active="yes"/>
<layer number="21" name="tPlace" color="7" fill="1" visible="yes" active="yes"/>
<layer number="22" name="bPlace" color="7" fill="1" visible="yes" active="yes"/>
<layer number="23" name="tOrigins" color="15" fill="1" visible="yes" active="yes"/>
<layer number="24" name="bOrigins" color="15" fill="1" visible="yes" active="yes"/>
<layer number="25" name="tNames" color="7" fill="1" visible="yes" active="yes"/>
<layer number="26" name="bNames" color="7" fill="1" visible="yes" active="yes"/>
<layer number="27" name="tValues" color="7" fill="1" visible="yes" active="yes"/>
<layer number="28" name="bValues" color="7" fill="1" visible="yes" active="yes"/>
<layer number="29" name="tStop" color="7" fill="3" visible="yes" active="yes"/>
<layer number="30" name="bStop" color="7" fill="6" visible="no" active="yes"/>
<layer number="31" name="tCream" color="7" fill="4" visible="yes" active="yes"/>
<layer number="32" name="bCream" color="7" fill="5" visible="no" active="yes"/>
<layer number="33" name="tFinish" color="6" fill="3" visible="no" active="yes"/>
<layer number="34" name="bFinish" color="6" fill="6" visible="no" active="yes"/>
<layer number="35" name="tGlue" color="7" fill="4" visible="no" active="yes"/>
<layer number="36" name="bGlue" color="7" fill="5" visible="no" active="yes"/>
<layer number="37" name="tTest" color="7" fill="1" visible="no" active="yes"/>
<layer number="38" name="bTest" color="7" fill="1" visible="no" active="yes"/>
<layer number="39" name="tKeepout" color="4" fill="11" visible="yes" active="yes"/>
<layer number="40" name="bKeepout" color="1" fill="11" visible="yes" active="yes"/>
<layer number="41" name="tRestrict" color="4" fill="10" visible="yes" active="yes"/>
<layer number="42" name="bRestrict" color="1" fill="10" visible="yes" active="yes"/>
<layer number="43" name="vRestrict" color="2" fill="10" visible="yes" active="yes"/>
<layer number="44" name="Drills" color="7" fill="1" visible="no" active="yes"/>
<layer number="45" name="Holes" color="7" fill="1" visible="no" active="yes"/>
<layer number="46" name="Milling" color="3" fill="1" visible="no" active="yes"/>
<layer number="47" name="Measures" color="7" fill="1" visible="no" active="yes"/>
<layer number="48" name="Document" color="7" fill="1" visible="yes" active="yes"/>
<layer number="49" name="Reference" color="7" fill="1" visible="yes" active="yes"/>
<layer number="51" name="tDocu" color="7" fill="1" visible="yes" active="yes"/>
<layer number="52" name="bDocu" color="7" fill="1" visible="yes" active="yes"/>
<layer number="90" name="Modules" color="5" fill="1" visible="yes" active="yes"/>
<layer number="91" name="Nets" color="2" fill="1" visible="yes" active="yes"/>
<layer number="92" name="Busses" color="1" fill="1" visible="yes" active="yes"/>
<layer number="93" name="Pins" color="2" fill="1" visible="yes" active="yes"/>
<layer number="94" name="Symbols" color="4" fill="1" visible="yes" active="yes"/>
<layer number="95" name="Names" color="7" fill="1" visible="yes" active="yes"/>
<layer number="96" name="Values" color="7" fill="1" visible="yes" active="yes"/>
<layer number="97" name="Info" color="7" fill="1" visible="yes" active="yes"/>
<layer number="98" name="Guide" color="6" fill="1" visible="yes" active="yes"/>
</layers>
<library>
<packages>
<package name="DEBUG">
<wire x1="-1.7018" y1="3.175" x2="1.7018" y2="3.175" width="0.127" layer="21"/>
<wire x1="1.7018" y1="3.175" x2="1.7018" y2="-3.175" width="0.127" layer="21"/>
<wire x1="1.7018" y1="-3.175" x2="-1.7018" y2="-3.175" width="0.127" layer="21"/>
<wire x1="-1.7018" y1="-3.175" x2="-1.7018" y2="3.175" width="0.127" layer="21"/>
<text x="-3.17626" y="3.81151" size="1.2705" layer="21">&gt;NAME</text>
<rectangle x1="-0.953489" y1="2.22481" x2="-0.3175" y2="2.8575" layer="21"/>
<smd name="5" x="-2.1209" y="0" dx="1.8542" dy="0.7366" layer="1"/>
<smd name="3" x="-2.1209" y="1.27" dx="1.8542" dy="0.7366" layer="1"/>
<smd name="1" x="-2.1209" y="2.54" dx="1.8542" dy="0.7366" layer="1"/>
<smd name="7" x="-2.1209" y="-1.27" dx="1.8542" dy="0.7366" layer="1"/>
<smd name="9" x="-2.1209" y="-2.54" dx="1.8542" dy="0.7366" layer="1"/>
<smd name="10" x="2.1209" y="-2.54" dx="1.8542" dy="0.7366" layer="1"/>
<smd name="8" x="2.1209" y="-1.27" dx="1.8542" dy="0.7366" layer="1"/>
<smd name="6" x="2.1209" y="0" dx="1.8542" dy="0.7366" layer="1"/>
<smd name="4" x="2.1209" y="1.27" dx="1.8542" dy="0.7366" layer="1"/>
<smd name="2" x="2.1209" y="2.54" dx="1.8542" dy="0.7366" layer="1"/>
</package>
</packages>
<symbols>
<symbol name="DEBUG">
<wire x1="-10.16" y1="12.7" x2="10.16" y2="12.7" width="0.254" layer="94"/>
<wire x1="10.16" y1="12.7" x2="10.16" y2="-15.24" width="0.254" layer="94"/>
<wire x1="10.16" y1="-15.24" x2="-10.16" y2="-15.24" width="0.254" layer="94"/>
<wire x1="-10.16" y1="-15.24" x2="-10.16" y2="12.7" width="0.254" layer="94"/>
<text x="-10.1678" y="13.9807" size="1.77936" layer="95">&gt;NAME</text>
<text x="10.1773" y="-16.5382" size="1.78103" layer="96" rot="R180">&gt;VALUE</text>
<pin name="VCC" x="-15.24" y="10.16" length="middle"/>
<pin name="GND" x="-15.24" y="5.08" length="middle"/>
<pin name="GND2" x="-15.24" y="0" length="middle"/>
<pin name="KEY" x="-15.24" y="-5.08" length="middle"/>
<pin name="GNDDETECT" x="-15.24" y="-10.16" length="middle"/>
<pin name="NRESET" x="15.24" y="-12.7" length="middle" rot="R180"/>
<pin name="TDI" x="15.24" y="-7.62" length="middle" rot="R180"/>
<pin name="TDO" x="15.24" y="-2.54" length="middle" rot="R180"/>
<pin name="TCK" x="15.24" y="2.54" length="middle" rot="R180"/>
<pin name="TMS" x="15.24" y="7.62" length="middle" rot="R180"/>
</symbol>
</symbols>
<devicesets>
<deviceset name="GRPB052VWQS-RC">
<description>CONN HEADER 0.050" 10PS DL SMD AU&lt;br&gt;
&lt;br&gt;
reviewed: YES&lt;br&gt;
tested: YES&lt;br&gt;</description>
<gates>
<gate name="G$1" symbol="DEBUG" x="0" y="0"/>
</gates>
<devices>
<device name="" package="DEBUG">
<connects>
<connect gate="G$1" pin="GND" pad="3"/>
<connect gate="G$1" pin="GND2" pad="5"/>
<connect gate="G$1" pin="GNDDETECT" pad="9"/>
<connect gate="G$1" pin="KEY" pad="7"/>
<connect gate="G$1" pin="NRESET" pad="10"/>
<connect gate="G$1" pin="TCK" pad="4"/>
<connect gate="G$1" pin="TDI" pad="8"/>
<connect gate="G$1" pin="TDO" pad="6"/>
<connect gate="G$1" pin="TMS" pad="2"/>
<connect gate="G$1" pin="VCC" pad="1"/>
</connects>
<technologies>
<technology name="">
<attribute name="MF" value="Sullins"/>
<attribute name="MP" value="GRPB052VWQS-RC"/>
<attribute name="Price" value="0.79 USD"/>
<attribute name="Availability" value="Good"/>
<attribute name="Package" value="None"/>
<attribute name="Description" value="GRPB Series Dual Row 10 Position 1.27 mm Pitch Surface Mount Header"/>
</technology>
</technologies>
</device>
</devices>
</deviceset>
</devicesets>
</library>
</drawing>
</eagle>
