<?xml version="1.0" encoding="utf-8"?>
<!DOCTYPE eagle SYSTEM "eagle.dtd">
<eagle version="6.5.0">
<drawing>
<settings>
<setting alwaysvectorfont="no"/>
<setting verticaltext="up"/>
</settings>
<grid distance="1" unitdist="mic" unit="mic" style="lines" multiple="1" display="no" altdistance="0.01" altunitdist="inch" altunit="inch"/>
<layers>
<layer number="1" name="Top" color="4" fill="1" visible="yes" active="yes"/>
<layer number="16" name="Bottom" color="1" fill="1" visible="yes" active="yes"/>
<layer number="17" name="Pads" color="2" fill="1" visible="yes" active="yes"/>
<layer number="18" name="Vias" color="2" fill="1" visible="yes" active="yes"/>
<layer number="19" name="Unrouted" color="6" fill="1" visible="yes" active="yes"/>
<layer number="20" name="Dimension" color="15" fill="1" visible="yes" active="yes"/>
<layer number="21" name="tPlace" color="7" fill="1" visible="yes" active="yes"/>
<layer number="22" name="bPlace" color="7" fill="1" visible="yes" active="yes"/>
<layer number="23" name="tOrigins" color="15" fill="1" visible="yes" active="yes"/>
<layer number="24" name="bOrigins" color="15" fill="1" visible="yes" active="yes"/>
<layer number="25" name="tNames" color="7" fill="1" visible="yes" active="yes"/>
<layer number="26" name="bNames" color="7" fill="1" visible="yes" active="yes"/>
<layer number="27" name="tValues" color="7" fill="1" visible="yes" active="yes"/>
<layer number="28" name="bValues" color="7" fill="1" visible="yes" active="yes"/>
<layer number="29" name="tStop" color="7" fill="3" visible="no" active="yes"/>
<layer number="30" name="bStop" color="7" fill="6" visible="no" active="yes"/>
<layer number="31" name="tCream" color="7" fill="4" visible="no" active="yes"/>
<layer number="32" name="bCream" color="7" fill="5" visible="no" active="yes"/>
<layer number="33" name="tFinish" color="6" fill="3" visible="no" active="yes"/>
<layer number="34" name="bFinish" color="6" fill="6" visible="no" active="yes"/>
<layer number="35" name="tGlue" color="7" fill="4" visible="no" active="yes"/>
<layer number="36" name="bGlue" color="7" fill="5" visible="no" active="yes"/>
<layer number="37" name="tTest" color="7" fill="1" visible="no" active="yes"/>
<layer number="38" name="bTest" color="7" fill="1" visible="no" active="yes"/>
<layer number="39" name="tKeepout" color="4" fill="11" visible="yes" active="yes"/>
<layer number="40" name="bKeepout" color="1" fill="11" visible="yes" active="yes"/>
<layer number="41" name="tRestrict" color="4" fill="10" visible="yes" active="yes"/>
<layer number="42" name="bRestrict" color="1" fill="10" visible="yes" active="yes"/>
<layer number="43" name="vRestrict" color="2" fill="10" visible="yes" active="yes"/>
<layer number="44" name="Drills" color="7" fill="1" visible="no" active="yes"/>
<layer number="45" name="Holes" color="7" fill="1" visible="no" active="yes"/>
<layer number="46" name="Milling" color="3" fill="1" visible="no" active="yes"/>
<layer number="47" name="Measures" color="7" fill="1" visible="no" active="yes"/>
<layer number="48" name="Document" color="7" fill="1" visible="yes" active="yes"/>
<layer number="49" name="Reference" color="7" fill="1" visible="yes" active="yes"/>
<layer number="50" name="dxf" color="7" fill="1" visible="yes" active="yes"/>
<layer number="51" name="tDocu" color="7" fill="1" visible="yes" active="yes"/>
<layer number="52" name="bDocu" color="7" fill="1" visible="yes" active="yes"/>
<layer number="53" name="tGND_GNDA" color="7" fill="1" visible="yes" active="yes"/>
<layer number="54" name="bGND_GNDA" color="7" fill="1" visible="yes" active="yes"/>
<layer number="56" name="wert" color="7" fill="1" visible="yes" active="yes"/>
<layer number="91" name="Nets" color="2" fill="1" visible="yes" active="yes"/>
<layer number="92" name="Busses" color="1" fill="1" visible="yes" active="yes"/>
<layer number="93" name="Pins" color="2" fill="1" visible="yes" active="yes"/>
<layer number="94" name="Symbols" color="4" fill="1" visible="yes" active="yes"/>
<layer number="95" name="Names" color="7" fill="1" visible="yes" active="yes"/>
<layer number="96" name="Values" color="7" fill="1" visible="yes" active="yes"/>
<layer number="97" name="Info" color="7" fill="1" visible="yes" active="yes"/>
<layer number="98" name="Guide" color="6" fill="1" visible="yes" active="yes"/>
<layer number="100" name="Parts" color="7" fill="1" visible="yes" active="yes"/>
<layer number="101" name="Patch_Top" color="7" fill="1" visible="yes" active="yes"/>
<layer number="102" name="Mittellin" color="7" fill="1" visible="yes" active="yes"/>
<layer number="103" name="Stiffner" color="7" fill="1" visible="yes" active="yes"/>
<layer number="104" name="Name" color="7" fill="1" visible="yes" active="yes"/>
<layer number="105" name="Beschreib" color="7" fill="1" visible="yes" active="yes"/>
<layer number="106" name="BGA-Top" color="7" fill="1" visible="yes" active="yes"/>
<layer number="107" name="BD-Top" color="7" fill="1" visible="yes" active="yes"/>
<layer number="108" name="tBridges" color="7" fill="1" visible="yes" active="yes"/>
<layer number="109" name="tBPL" color="7" fill="1" visible="yes" active="yes"/>
<layer number="110" name="bBPL" color="7" fill="1" visible="yes" active="yes"/>
<layer number="111" name="MPL" color="7" fill="1" visible="yes" active="yes"/>
<layer number="112" name="tSilk" color="7" fill="1" visible="yes" active="yes"/>
<layer number="116" name="Patch_BOT" color="7" fill="1" visible="yes" active="yes"/>
<layer number="121" name="sName" color="7" fill="1" visible="yes" active="yes"/>
<layer number="122" name="_bPlace" color="7" fill="1" visible="yes" active="yes"/>
<layer number="123" name="tTestmark" color="7" fill="1" visible="yes" active="yes"/>
<layer number="124" name="bTestmark" color="7" fill="1" visible="yes" active="yes"/>
<layer number="125" name="_tNames" color="7" fill="1" visible="yes" active="yes"/>
<layer number="126" name="_bNames" color="7" fill="1" visible="yes" active="yes"/>
<layer number="127" name="_tValues" color="7" fill="1" visible="yes" active="yes"/>
<layer number="128" name="_bValues" color="7" fill="1" visible="yes" active="yes"/>
<layer number="131" name="tAdjust" color="7" fill="1" visible="yes" active="yes"/>
<layer number="132" name="bAdjust" color="7" fill="1" visible="yes" active="yes"/>
<layer number="144" name="Drill_legend" color="7" fill="1" visible="yes" active="yes"/>
<layer number="151" name="HeatSink" color="7" fill="1" visible="yes" active="yes"/>
<layer number="152" name="_bDocu" color="7" fill="1" visible="yes" active="yes"/>
<layer number="199" name="Contour" color="7" fill="1" visible="yes" active="yes"/>
<layer number="200" name="200bmp" color="7" fill="1" visible="yes" active="yes"/>
<layer number="201" name="201bmp" color="7" fill="1" visible="yes" active="yes"/>
<layer number="202" name="202bmp" color="7" fill="1" visible="yes" active="yes"/>
<layer number="203" name="203bmp" color="7" fill="1" visible="yes" active="yes"/>
<layer number="204" name="204bmp" color="7" fill="1" visible="yes" active="yes"/>
<layer number="205" name="205bmp" color="7" fill="1" visible="yes" active="yes"/>
<layer number="206" name="206bmp" color="7" fill="1" visible="yes" active="yes"/>
<layer number="207" name="207bmp" color="7" fill="1" visible="yes" active="yes"/>
<layer number="208" name="208bmp" color="7" fill="1" visible="yes" active="yes"/>
<layer number="209" name="209bmp" color="7" fill="1" visible="yes" active="yes"/>
<layer number="210" name="210bmp" color="7" fill="1" visible="yes" active="yes"/>
<layer number="211" name="211bmp" color="7" fill="1" visible="yes" active="yes"/>
<layer number="212" name="212bmp" color="7" fill="1" visible="yes" active="yes"/>
<layer number="213" name="213bmp" color="7" fill="1" visible="yes" active="yes"/>
<layer number="214" name="214bmp" color="7" fill="1" visible="yes" active="yes"/>
<layer number="215" name="215bmp" color="7" fill="1" visible="yes" active="yes"/>
<layer number="216" name="216bmp" color="7" fill="1" visible="yes" active="yes"/>
<layer number="217" name="217bmp" color="7" fill="1" visible="yes" active="yes"/>
<layer number="218" name="218bmp" color="7" fill="1" visible="yes" active="yes"/>
<layer number="219" name="219bmp" color="7" fill="1" visible="yes" active="yes"/>
<layer number="220" name="220bmp" color="7" fill="1" visible="yes" active="yes"/>
<layer number="221" name="221bmp" color="7" fill="1" visible="yes" active="yes"/>
<layer number="222" name="222bmp" color="7" fill="1" visible="yes" active="yes"/>
<layer number="223" name="223bmp" color="7" fill="1" visible="yes" active="yes"/>
<layer number="224" name="224bmp" color="7" fill="1" visible="yes" active="yes"/>
<layer number="248" name="Housing" color="7" fill="1" visible="yes" active="yes"/>
<layer number="249" name="Edge" color="7" fill="1" visible="yes" active="yes"/>
<layer number="250" name="Descript" color="7" fill="1" visible="yes" active="yes"/>
<layer number="251" name="SMDround" color="7" fill="1" visible="yes" active="yes"/>
<layer number="254" name="cooling" color="7" fill="1" visible="yes" active="yes"/>
</layers>
<library>
<packages>
<package name="0402">
<description>&lt;b&gt;CAPACITOR&lt;/b&gt;&lt;p&gt;
chip</description>
<wire x1="-0.245" y1="0.224" x2="0.245" y2="0.224" width="0.2032" layer="51"/>
<wire x1="0.245" y1="-0.224" x2="-0.245" y2="-0.224" width="0.2032" layer="51"/>
<wire x1="-1.346" y1="0.483" x2="1.346" y2="0.483" width="0.0508" layer="39"/>
<wire x1="1.346" y1="0.483" x2="1.346" y2="-0.483" width="0.0508" layer="39"/>
<wire x1="1.346" y1="-0.483" x2="-1.346" y2="-0.483" width="0.0508" layer="39"/>
<wire x1="-1.346" y1="-0.483" x2="-1.346" y2="0.483" width="0.0508" layer="39"/>
<wire x1="-1.27" y1="-0.635" x2="-1.27" y2="0.635" width="0.2032" layer="21"/>
<wire x1="-1.27" y1="0.635" x2="1.27" y2="0.635" width="0.2032" layer="21"/>
<wire x1="1.27" y1="0.635" x2="1.27" y2="-0.635" width="0.2032" layer="21"/>
<wire x1="1.27" y1="-0.635" x2="-1.27" y2="-0.635" width="0.2032" layer="21"/>
<rectangle x1="-0.554" y1="-0.3048" x2="-0.254" y2="0.2951" layer="51"/>
<rectangle x1="0.2588" y1="-0.3048" x2="0.5588" y2="0.2951" layer="51"/>
<rectangle x1="-0.1999" y1="-0.3" x2="0.1999" y2="0.3" layer="35"/>
<smd name="1" x="-0.65" y="0" dx="0.7" dy="0.9" layer="1"/>
<smd name="2" x="0.65" y="0" dx="0.7" dy="0.9" layer="1"/>
<text x="1.397" y="-0.1905" size="0.8128" layer="25" ratio="18">&gt;NAME</text>
<text x="1.397" y="-0.635" size="0.4064" layer="27" ratio="10">&gt;VALUE</text>
</package>
<package name="0603">
<description>0603 (1608 Metric)</description>
<wire x1="-1.473" y1="0.729" x2="1.473" y2="0.729" width="0.0508" layer="39"/>
<wire x1="1.473" y1="0.729" x2="1.473" y2="-0.729" width="0.0508" layer="39"/>
<wire x1="1.473" y1="-0.729" x2="-1.473" y2="-0.729" width="0.0508" layer="39"/>
<wire x1="-1.473" y1="-0.729" x2="-1.473" y2="0.729" width="0.0508" layer="39"/>
<wire x1="-0.356" y1="0.432" x2="0.356" y2="0.432" width="0.1016" layer="51"/>
<wire x1="-0.356" y1="-0.419" x2="0.356" y2="-0.419" width="0.1016" layer="51"/>
<wire x1="-1.6" y1="0.7" x2="1.6" y2="0.7" width="0.2032" layer="21"/>
<wire x1="1.6" y1="0.7" x2="1.6" y2="-0.7" width="0.2032" layer="21"/>
<wire x1="1.6" y1="-0.7" x2="-1.6" y2="-0.7" width="0.2032" layer="21"/>
<wire x1="-1.6" y1="-0.7" x2="-1.6" y2="0.7" width="0.2032" layer="21"/>
<rectangle x1="-0.8382" y1="-0.4699" x2="-0.3381" y2="0.4801" layer="51"/>
<rectangle x1="0.3302" y1="-0.4699" x2="0.8303" y2="0.4801" layer="51"/>
<rectangle x1="-0.1999" y1="-0.3" x2="0.1999" y2="0.3" layer="35"/>
<smd name="1" x="-0.85" y="0" dx="1.1" dy="1" layer="1"/>
<smd name="2" x="0.85" y="0" dx="1.1" dy="1" layer="1"/>
<text x="1.778" y="-0.127" size="0.8128" layer="25" font="vector" ratio="18">&gt;NAME</text>
<text x="1.778" y="-0.762" size="0.4064" layer="27" font="vector" ratio="10">&gt;VALUE</text>
</package>
<package name="0603-MINI">
<description>0603-Mini
&lt;p&gt;Mini footprint for dense boards&lt;/p&gt;</description>
<wire x1="-1.346" y1="0.583" x2="1.346" y2="0.583" width="0.0508" layer="39"/>
<wire x1="1.346" y1="0.583" x2="1.346" y2="-0.583" width="0.0508" layer="39"/>
<wire x1="1.346" y1="-0.583" x2="-1.346" y2="-0.583" width="0.0508" layer="39"/>
<wire x1="-1.346" y1="-0.583" x2="-1.346" y2="0.583" width="0.0508" layer="39"/>
<wire x1="-1.37" y1="-0.635" x2="-1.37" y2="0.635" width="0.2032" layer="21"/>
<wire x1="-1.37" y1="0.635" x2="1.37" y2="0.635" width="0.2032" layer="21"/>
<wire x1="1.37" y1="0.635" x2="1.37" y2="-0.635" width="0.2032" layer="21"/>
<wire x1="1.37" y1="-0.635" x2="-1.37" y2="-0.635" width="0.2032" layer="21"/>
<wire x1="-0.356" y1="0.432" x2="0.356" y2="0.432" width="0.1016" layer="51"/>
<wire x1="-0.356" y1="-0.419" x2="0.356" y2="-0.419" width="0.1016" layer="51"/>
<rectangle x1="-0.8382" y1="-0.4699" x2="-0.3381" y2="0.4801" layer="51"/>
<rectangle x1="0.3302" y1="-0.4699" x2="0.8303" y2="0.4801" layer="51"/>
<smd name="1" x="-0.75" y="0" dx="0.9" dy="0.9" layer="1"/>
<smd name="2" x="0.75" y="0" dx="0.9" dy="0.9" layer="1"/>
<text x="1.524" y="-0.0635" size="0.8128" layer="25" ratio="18">&gt;NAME</text>
<text x="1.524" y="-0.635" size="0.4064" layer="27" ratio="10">&gt;VALUE</text>
</package>
<package name="0805">
<description>0805 (2012 Metric)</description>
<wire x1="-1.873" y1="0.883" x2="1.873" y2="0.883" width="0.0508" layer="39"/>
<wire x1="1.873" y1="-0.883" x2="-1.873" y2="-0.883" width="0.0508" layer="39"/>
<wire x1="-1.873" y1="-0.883" x2="-1.873" y2="0.883" width="0.0508" layer="39"/>
<wire x1="-0.381" y1="0.66" x2="0.381" y2="0.66" width="0.1016" layer="51"/>
<wire x1="-0.356" y1="-0.66" x2="0.381" y2="-0.66" width="0.1016" layer="51"/>
<wire x1="1.873" y1="0.883" x2="1.873" y2="-0.883" width="0.0508" layer="39"/>
<wire x1="1.8" y1="0.9" x2="1.8" y2="-0.9" width="0.2032" layer="21"/>
<wire x1="1.8" y1="-0.9" x2="-1.8" y2="-0.9" width="0.2032" layer="21"/>
<wire x1="-1.8" y1="-0.9" x2="-1.8" y2="0.9" width="0.2032" layer="21"/>
<wire x1="-1.8" y1="0.9" x2="1.8" y2="0.9" width="0.2032" layer="21"/>
<rectangle x1="-1.0922" y1="-0.7239" x2="-0.3421" y2="0.7262" layer="51"/>
<rectangle x1="0.3556" y1="-0.7239" x2="1.1057" y2="0.7262" layer="51"/>
<rectangle x1="-0.1001" y1="-0.4001" x2="0.1001" y2="0.4001" layer="35"/>
<smd name="1" x="-0.95" y="0" dx="1.3" dy="1.5" layer="1"/>
<smd name="2" x="0.95" y="0" dx="1.3" dy="1.5" layer="1"/>
<text x="2.032" y="-0.127" size="0.8128" layer="25" ratio="18">&gt;NAME</text>
<text x="2.032" y="-0.762" size="0.4064" layer="27" ratio="10">&gt;VALUE</text>
</package>
<package name="0805_NOTHERMALS">
<wire x1="-1.873" y1="0.883" x2="1.873" y2="0.883" width="0.0508" layer="39"/>
<wire x1="1.873" y1="-0.883" x2="-1.873" y2="-0.883" width="0.0508" layer="39"/>
<wire x1="-1.873" y1="-0.883" x2="-1.873" y2="0.883" width="0.0508" layer="39"/>
<wire x1="-0.381" y1="0.66" x2="0.381" y2="0.66" width="0.1016" layer="51"/>
<wire x1="-0.356" y1="-0.66" x2="0.381" y2="-0.66" width="0.1016" layer="51"/>
<wire x1="1.873" y1="0.883" x2="1.873" y2="-0.883" width="0.0508" layer="39"/>
<wire x1="1.8" y1="0.9" x2="1.8" y2="-0.9" width="0.2032" layer="21"/>
<wire x1="1.8" y1="-0.9" x2="-1.8" y2="-0.9" width="0.2032" layer="21"/>
<wire x1="-1.8" y1="-0.9" x2="-1.8" y2="0.9" width="0.2032" layer="21"/>
<wire x1="-1.8" y1="0.9" x2="1.8" y2="0.9" width="0.2032" layer="21"/>
<rectangle x1="-1.0922" y1="-0.7239" x2="-0.3421" y2="0.7262" layer="51"/>
<rectangle x1="0.3556" y1="-0.7239" x2="1.1057" y2="0.7262" layer="51"/>
<smd name="1" x="-0.95" y="0" dx="1.3" dy="1.5" layer="1" thermals="no"/>
<smd name="2" x="0.95" y="0" dx="1.3" dy="1.5" layer="1" thermals="no"/>
<text x="2.032" y="-0.127" size="0.8128" layer="25" ratio="18">&gt;NAME</text>
<text x="2.032" y="-0.762" size="0.4064" layer="27" ratio="10">&gt;VALUE</text>
</package>
<package name="1206">
<description>1206 (3216 Metric)</description>
<wire x1="-2.473" y1="0.983" x2="2.473" y2="0.983" width="0.0508" layer="39"/>
<wire x1="2.473" y1="-0.983" x2="-2.473" y2="-0.983" width="0.0508" layer="39"/>
<wire x1="-2.473" y1="-0.983" x2="-2.473" y2="0.983" width="0.0508" layer="39"/>
<wire x1="2.473" y1="0.983" x2="2.473" y2="-0.983" width="0.0508" layer="39"/>
<wire x1="-0.965" y1="0.787" x2="0.965" y2="0.787" width="0.1016" layer="51"/>
<wire x1="-0.965" y1="-0.787" x2="0.965" y2="-0.787" width="0.1016" layer="51"/>
<wire x1="-2.4" y1="1" x2="2.4" y2="1" width="0.2032" layer="21"/>
<wire x1="2.4" y1="1" x2="2.4" y2="-1" width="0.2032" layer="21"/>
<wire x1="2.4" y1="-1" x2="-2.4" y2="-1" width="0.2032" layer="21"/>
<wire x1="-2.4" y1="-1" x2="-2.4" y2="1" width="0.2032" layer="21"/>
<rectangle x1="-1.7018" y1="-0.8509" x2="-0.9517" y2="0.8491" layer="51"/>
<rectangle x1="0.9517" y1="-0.8491" x2="1.7018" y2="0.8509" layer="51"/>
<rectangle x1="-0.1999" y1="-0.4001" x2="0.1999" y2="0.4001" layer="35"/>
<smd name="1" x="-1.4" y="0" dx="1.6" dy="1.8" layer="1"/>
<smd name="2" x="1.4" y="0" dx="1.6" dy="1.8" layer="1"/>
<text x="2.54" y="-0.127" size="0.8128" layer="25" ratio="18">&gt;NAME</text>
<text x="2.54" y="-0.635" size="0.4064" layer="27" ratio="10">&gt;VALUE</text>
</package>
<package name="2012">
<wire x1="-1.662" y1="1.245" x2="1.662" y2="1.245" width="0.2032" layer="51"/>
<wire x1="-1.637" y1="-1.245" x2="1.687" y2="-1.245" width="0.2032" layer="51"/>
<wire x1="-3.473" y1="1.483" x2="3.473" y2="1.483" width="0.0508" layer="39"/>
<wire x1="3.473" y1="1.483" x2="3.473" y2="-1.483" width="0.0508" layer="39"/>
<wire x1="3.473" y1="-1.483" x2="-3.473" y2="-1.483" width="0.0508" layer="39"/>
<wire x1="-3.473" y1="-1.483" x2="-3.473" y2="1.483" width="0.0508" layer="39"/>
<wire x1="-3.302" y1="1.524" x2="3.302" y2="1.524" width="0.2032" layer="21"/>
<wire x1="3.302" y1="1.524" x2="3.302" y2="-1.524" width="0.2032" layer="21"/>
<wire x1="3.302" y1="-1.524" x2="-3.302" y2="-1.524" width="0.2032" layer="21"/>
<wire x1="-3.302" y1="-1.524" x2="-3.302" y2="1.524" width="0.2032" layer="21"/>
<rectangle x1="-2.4892" y1="-1.3208" x2="-1.6393" y2="1.3292" layer="51"/>
<rectangle x1="1.651" y1="-1.3208" x2="2.5009" y2="1.3292" layer="51"/>
<smd name="1" x="-2.2" y="0" dx="1.8" dy="2.7" layer="1"/>
<smd name="2" x="2.2" y="0" dx="1.8" dy="2.7" layer="1"/>
<text x="-2.54" y="1.8415" size="0.8128" layer="25" ratio="18">&gt;NAME</text>
<text x="-2.667" y="-2.159" size="0.4064" layer="27" ratio="10">&gt;VALUE</text>
</package>
<package name="2512">
<description>&lt;b&gt;RESISTOR 2512 (Metric 6432)&lt;/b&gt;</description>
<wire x1="-2.362" y1="1.473" x2="2.387" y2="1.473" width="0.2032" layer="51"/>
<wire x1="-2.362" y1="-1.473" x2="2.387" y2="-1.473" width="0.2032" layer="51"/>
<wire x1="-3.973" y1="1.983" x2="3.973" y2="1.983" width="0.0508" layer="39"/>
<wire x1="3.973" y1="1.983" x2="3.973" y2="-1.983" width="0.0508" layer="39"/>
<wire x1="3.973" y1="-1.983" x2="-3.973" y2="-1.983" width="0.0508" layer="39"/>
<wire x1="-3.973" y1="-1.983" x2="-3.973" y2="1.983" width="0.0508" layer="39"/>
<rectangle x1="-3.2004" y1="-1.5494" x2="-2.3505" y2="1.5507" layer="51"/>
<rectangle x1="2.3622" y1="-1.5494" x2="3.2121" y2="1.5507" layer="51"/>
<rectangle x1="-0.5001" y1="-1" x2="0.5001" y2="1" layer="35"/>
<smd name="1" x="-2.8" y="0" dx="1.8" dy="3.2" layer="1"/>
<smd name="2" x="2.8" y="0" dx="1.8" dy="3.2" layer="1"/>
<text x="-3.683" y="1.905" size="0.8128" layer="25" ratio="18">&gt;NAME</text>
<text x="-3.556" y="-2.286" size="0.4064" layer="27" ratio="10">&gt;VALUE</text>
</package>
<package name="CHIPLED_0603">
<description>&lt;b&gt;CHIPLED 0603&lt;/b&gt;</description>
<circle x="-0.35" y="0.625" radius="0.075" width="0.0508" layer="51"/>
<wire x1="-0.3" y1="0.8" x2="0.3" y2="0.8" width="0.1016" layer="51" curve="170.055574"/>
<wire x1="-0.275" y1="-0.825" x2="0.275" y2="-0.825" width="0.0508" layer="51" curve="-180"/>
<wire x1="-0.4" y1="0.375" x2="-0.4" y2="-0.35" width="0.1016" layer="51"/>
<wire x1="0.4" y1="0.35" x2="0.4" y2="-0.35" width="0.1016" layer="51"/>
<wire x1="-0.65" y1="-1.4" x2="-0.65" y2="1.4" width="0.2032" layer="21"/>
<wire x1="0.65" y1="1.4" x2="0.65" y2="-1.4" width="0.2032" layer="21"/>
<wire x1="-0.65" y1="1.4" x2="0.65" y2="1.4" width="0.2032" layer="21"/>
<wire x1="-0.65" y1="-1.4" x2="0.65" y2="-1.4" width="0.2032" layer="21"/>
<wire x1="-0.4" y1="0.2" x2="0" y2="0.2" width="0.2032" layer="21"/>
<wire x1="0" y1="0.2" x2="0.4" y2="0.2" width="0.2032" layer="21"/>
<wire x1="0" y1="0.2" x2="-0.4" y2="-0.2" width="0.2032" layer="21"/>
<wire x1="-0.4" y1="-0.2" x2="0.4" y2="-0.2" width="0.2032" layer="21"/>
<wire x1="0.4" y1="-0.2" x2="0" y2="0.2" width="0.2032" layer="21"/>
<rectangle x1="-0.45" y1="0.7" x2="-0.25" y2="0.85" layer="51"/>
<rectangle x1="-0.275" y1="0.55" x2="-0.225" y2="0.6" layer="51"/>
<rectangle x1="-0.45" y1="0.35" x2="-0.4" y2="0.725" layer="51"/>
<rectangle x1="0.25" y1="0.55" x2="0.45" y2="0.85" layer="51"/>
<rectangle x1="-0.45" y1="0.35" x2="0.45" y2="0.575" layer="51"/>
<rectangle x1="-0.45" y1="-0.85" x2="-0.25" y2="-0.35" layer="51"/>
<rectangle x1="0.25" y1="-0.85" x2="0.45" y2="-0.35" layer="51"/>
<rectangle x1="-0.275" y1="-0.575" x2="0.275" y2="-0.35" layer="51"/>
<rectangle x1="-0.275" y1="-0.65" x2="-0.175" y2="-0.55" layer="51"/>
<rectangle x1="0.175" y1="-0.65" x2="0.275" y2="-0.55" layer="51"/>
<smd name="A" x="0" y="-0.75" dx="0.8" dy="0.8" layer="1"/>
<smd name="C" x="0" y="0.75" dx="0.8" dy="0.8" layer="1"/>
<text x="-0.762" y="-1.27" size="0.8128" layer="25" ratio="18" rot="R90">&gt;NAME</text>
<text x="1.27" y="-1.27" size="0.4064" layer="27" ratio="10" rot="R90">&gt;VALUE</text>
</package>
<package name="CHIPLED_0603_NOOUTLINE">
<circle x="-0.35" y="0.625" radius="0.075" width="0.0508" layer="51"/>
<wire x1="-0.3" y1="0.8" x2="0.3" y2="0.8" width="0.1016" layer="51" curve="170.055574"/>
<wire x1="-0.275" y1="-0.825" x2="0.275" y2="-0.825" width="0.0508" layer="51" curve="-180"/>
<wire x1="-0.4" y1="0.375" x2="-0.4" y2="-0.35" width="0.1016" layer="51"/>
<wire x1="0.4" y1="0.35" x2="0.4" y2="-0.35" width="0.1016" layer="51"/>
<rectangle x1="-0.45" y1="0.7" x2="-0.25" y2="0.85" layer="51"/>
<rectangle x1="-0.275" y1="0.55" x2="-0.225" y2="0.6" layer="51"/>
<rectangle x1="-0.45" y1="0.35" x2="-0.4" y2="0.725" layer="51"/>
<rectangle x1="0.25" y1="0.55" x2="0.45" y2="0.85" layer="51"/>
<rectangle x1="-0.45" y1="0.35" x2="0.45" y2="0.575" layer="51"/>
<rectangle x1="-0.45" y1="-0.85" x2="-0.25" y2="-0.35" layer="51"/>
<rectangle x1="0.25" y1="-0.85" x2="0.45" y2="-0.35" layer="51"/>
<rectangle x1="-0.275" y1="-0.575" x2="0.275" y2="-0.35" layer="51"/>
<rectangle x1="-0.275" y1="-0.65" x2="-0.175" y2="-0.55" layer="51"/>
<rectangle x1="0.175" y1="-0.65" x2="0.275" y2="-0.55" layer="51"/>
<rectangle x1="-0.381" y1="0.1397" x2="0.381" y2="0.2667" layer="21"/>
<smd name="A" x="0" y="-0.75" dx="0.8" dy="0.8" layer="1"/>
<smd name="C" x="0" y="0.75" dx="0.8" dy="0.8" layer="1"/>
<text x="-0.762" y="-1.27" size="0.8128" layer="25" ratio="18" rot="R90">&gt;NAME</text>
<text x="1.27" y="-1.27" size="0.4064" layer="27" ratio="10" rot="R90">&gt;VALUE</text>
<polygon width="0.1524" layer="21">
<vertex x="0" y="0.1397"/>
<vertex x="-0.254" y="-0.1778"/>
<vertex x="0.254" y="-0.1778"/>
</polygon>
</package>
<package name="CHIPLED_0805">
<description>&lt;b&gt;CHIPLED 0805&lt;/b&gt;</description>
<circle x="-0.45" y="0.85" radius="0.103" width="0.0762" layer="51"/>
<wire x1="-0.35" y1="0.925" x2="0.35" y2="0.925" width="0.1016" layer="51" curve="162.394521"/>
<wire x1="-0.35" y1="-0.925" x2="0.35" y2="-0.925" width="0.1016" layer="51" curve="-162.394521"/>
<wire x1="0.575" y1="0.525" x2="0.575" y2="-0.525" width="0.1016" layer="51"/>
<wire x1="-0.575" y1="-0.5" x2="-0.575" y2="0.925" width="0.1016" layer="51"/>
<wire x1="-0.4" y1="0.2" x2="0" y2="0.2" width="0.2032" layer="21"/>
<wire x1="0" y1="0.2" x2="0.4" y2="0.2" width="0.2032" layer="21"/>
<wire x1="0" y1="0.2" x2="-0.4" y2="-0.2" width="0.2032" layer="21"/>
<wire x1="-0.4" y1="-0.2" x2="0.4" y2="-0.2" width="0.2032" layer="21"/>
<wire x1="0.4" y1="-0.2" x2="0" y2="0.2" width="0.2032" layer="21"/>
<wire x1="0.85" y1="-1.9" x2="-0.85" y2="-1.9" width="0.2032" layer="21"/>
<wire x1="-0.85" y1="-1.9" x2="-0.85" y2="1.9" width="0.2032" layer="21"/>
<wire x1="-0.85" y1="1.9" x2="0.85" y2="1.9" width="0.2032" layer="21"/>
<wire x1="0.85" y1="1.9" x2="0.85" y2="-1.9" width="0.2032" layer="21"/>
<rectangle x1="0.3" y1="0.5" x2="0.625" y2="1" layer="51"/>
<rectangle x1="-0.325" y1="0.5" x2="-0.175" y2="0.75" layer="51"/>
<rectangle x1="0.175" y1="0.5" x2="0.325" y2="0.75" layer="51"/>
<rectangle x1="-0.2" y1="0.5" x2="0.2" y2="0.675" layer="51"/>
<rectangle x1="0.3" y1="-1" x2="0.625" y2="-0.5" layer="51"/>
<rectangle x1="-0.625" y1="-1" x2="-0.3" y2="-0.5" layer="51"/>
<rectangle x1="0.175" y1="-0.75" x2="0.325" y2="-0.5" layer="51"/>
<rectangle x1="-0.325" y1="-0.75" x2="-0.175" y2="-0.5" layer="51"/>
<rectangle x1="-0.2" y1="-0.675" x2="0.2" y2="-0.5" layer="51"/>
<rectangle x1="-0.6" y1="0.5" x2="-0.3" y2="0.762" layer="51"/>
<rectangle x1="-0.625" y1="0.925" x2="-0.3" y2="1" layer="51"/>
<smd name="A" x="0" y="-1.05" dx="1.2" dy="1.2" layer="1"/>
<smd name="C" x="0" y="1.05" dx="1.2" dy="1.2" layer="1"/>
<text x="-1.016" y="-1.778" size="0.8128" layer="25" ratio="18" rot="R90">&gt;NAME</text>
<text x="1.397" y="-1.778" size="0.4064" layer="27" ratio="10" rot="R90">&gt;VALUE</text>
<text x="-0.1" y="-1.4" size="0.254" layer="51">A</text>
<text x="-0.1" y="1.2" size="0.254" layer="51">C</text>
</package>
<package name="CHIPLED_0805_NOOUTLINE">
<circle x="-0.45" y="0.85" radius="0.103" width="0.0762" layer="51"/>
<wire x1="-0.35" y1="0.925" x2="0.35" y2="0.925" width="0.1016" layer="51" curve="162.394521"/>
<wire x1="-0.35" y1="-0.925" x2="0.35" y2="-0.925" width="0.1016" layer="51" curve="-162.394521"/>
<wire x1="0.575" y1="0.525" x2="0.575" y2="-0.525" width="0.1016" layer="51"/>
<wire x1="-0.575" y1="-0.5" x2="-0.575" y2="0.925" width="0.1016" layer="51"/>
<rectangle x1="0.3" y1="0.5" x2="0.625" y2="1" layer="51"/>
<rectangle x1="-0.325" y1="0.5" x2="-0.175" y2="0.75" layer="51"/>
<rectangle x1="0.175" y1="0.5" x2="0.325" y2="0.75" layer="51"/>
<rectangle x1="-0.2" y1="0.5" x2="0.2" y2="0.675" layer="51"/>
<rectangle x1="0.3" y1="-1" x2="0.625" y2="-0.5" layer="51"/>
<rectangle x1="-0.625" y1="-1" x2="-0.3" y2="-0.5" layer="51"/>
<rectangle x1="0.175" y1="-0.75" x2="0.325" y2="-0.5" layer="51"/>
<rectangle x1="-0.325" y1="-0.75" x2="-0.175" y2="-0.5" layer="51"/>
<rectangle x1="-0.2" y1="-0.675" x2="0.2" y2="-0.5" layer="51"/>
<rectangle x1="-0.6" y1="0.5" x2="-0.3" y2="0.762" layer="51"/>
<rectangle x1="-0.625" y1="0.925" x2="-0.3" y2="1" layer="51"/>
<rectangle x1="-0.4445" y1="0.1905" x2="0.4445" y2="0.381" layer="21"/>
<smd name="A" x="0" y="-1.05" dx="1.2" dy="1.2" layer="1"/>
<smd name="C" x="0" y="1.05" dx="1.2" dy="1.2" layer="1"/>
<text x="-1.016" y="-1.778" size="0.8128" layer="25" ratio="18" rot="R90">&gt;NAME</text>
<text x="1.397" y="-1.778" size="0.4064" layer="27" ratio="10" rot="R90">&gt;VALUE</text>
<text x="-0.1" y="-1.4" size="0.254" layer="51">A</text>
<text x="-0.1" y="1.2" size="0.254" layer="51">C</text>
<polygon width="0.1524" layer="21">
<vertex x="0" y="0.254"/>
<vertex x="-0.381" y="-0.254"/>
<vertex x="0.381" y="-0.254"/>
</polygon>
</package>
<package name="CHIPLED_1206">
<description>&lt;b&gt;CHIPLED 1206&lt;/b&gt;</description>
<circle x="-0.55" y="1.425" radius="0.1" width="0.0762" layer="51"/>
<wire x1="-0.4" y1="1.6" x2="0.4" y2="1.6" width="0.1016" layer="51" curve="172.619069"/>
<wire x1="-0.8" y1="-0.95" x2="-0.8" y2="0.95" width="0.1016" layer="51"/>
<wire x1="0.8" y1="0.95" x2="0.8" y2="-0.95" width="0.1016" layer="51"/>
<wire x1="-0.6" y1="0.446" x2="0" y2="0.446" width="0.2032" layer="21"/>
<wire x1="0" y1="0.446" x2="0.6" y2="0.446" width="0.2032" layer="21"/>
<wire x1="0" y1="0.446" x2="-0.6" y2="-0.154" width="0.2032" layer="21"/>
<wire x1="-0.6" y1="-0.154" x2="0.6" y2="-0.154" width="0.2032" layer="21"/>
<wire x1="0.6" y1="-0.154" x2="0" y2="0.446" width="0.2032" layer="21"/>
<wire x1="1" y1="2.4985" x2="-1" y2="2.4985" width="0.2032" layer="21"/>
<wire x1="-1" y1="2.4985" x2="-1" y2="-2.4985" width="0.2032" layer="21"/>
<wire x1="-1" y1="-2.4985" x2="1" y2="-2.4985" width="0.2032" layer="21"/>
<wire x1="1" y1="-2.4985" x2="1" y2="2.4985" width="0.2032" layer="21"/>
<rectangle x1="-0.85" y1="1.525" x2="-0.35" y2="1.65" layer="51"/>
<rectangle x1="-0.85" y1="1.225" x2="-0.625" y2="1.55" layer="51"/>
<rectangle x1="-0.45" y1="1.225" x2="-0.325" y2="1.45" layer="51"/>
<rectangle x1="-0.65" y1="1.225" x2="-0.225" y2="1.35" layer="51"/>
<rectangle x1="0.35" y1="1.3" x2="0.85" y2="1.65" layer="51"/>
<rectangle x1="0.25" y1="1.225" x2="0.85" y2="1.35" layer="51"/>
<rectangle x1="-0.85" y1="0.95" x2="0.85" y2="1.25" layer="51"/>
<rectangle x1="-0.85" y1="-1.65" x2="0.85" y2="-0.95" layer="51"/>
<smd name="A" x="0" y="-1.496" dx="1.5" dy="1.5" layer="1"/>
<smd name="C" x="0" y="1.496" dx="1.5" dy="1.5" layer="1"/>
<text x="-1.27" y="-2.286" size="0.8128" layer="25" ratio="18" rot="R90">&gt;NAME</text>
<text x="1.651" y="-2.286" size="0.4064" layer="27" ratio="10" rot="R90">&gt;VALUE</text>
<text x="-0.1" y="-2.23" size="0.4064" layer="51">A</text>
<text x="-0.1" y="1.86" size="0.4064" layer="51">C</text>
</package>
<package name="RESPACK_4X0603">
<wire x1="-1.6" y1="0.8" x2="1.6" y2="0.8" width="0.2032" layer="51"/>
<wire x1="1.6" y1="0.8" x2="1.6" y2="-0.8" width="0.2032" layer="51"/>
<wire x1="1.6" y1="-0.8" x2="-1.6" y2="-0.8" width="0.2032" layer="51"/>
<wire x1="-1.6" y1="-0.8" x2="-1.6" y2="0.8" width="0.2032" layer="51"/>
<wire x1="-1.9" y1="1.4" x2="1.9" y2="1.4" width="0.127" layer="39"/>
<wire x1="1.9" y1="1.4" x2="1.9" y2="-1.4" width="0.127" layer="39"/>
<wire x1="1.9" y1="-1.4" x2="-1.9" y2="-1.4" width="0.127" layer="39"/>
<wire x1="-1.9" y1="-1.4" x2="-1.9" y2="1.4" width="0.127" layer="39"/>
<wire x1="-1.9" y1="1.4" x2="1.9" y2="1.4" width="0.2032" layer="21"/>
<wire x1="1.9" y1="1.4" x2="1.9" y2="-1.4" width="0.2032" layer="21"/>
<wire x1="1.9" y1="-1.4" x2="-1.9" y2="-1.4" width="0.2032" layer="21"/>
<wire x1="-1.9" y1="-1.4" x2="-1.9" y2="1.4" width="0.2032" layer="21"/>
<rectangle x1="-1.55" y1="-0.5" x2="1.55" y2="0.5" layer="51"/>
<smd name="1" x="-1.3" y="-0.75" dx="0.65" dy="0.8" layer="1"/>
<smd name="2" x="-0.4" y="-0.75" dx="0.5" dy="0.8" layer="1"/>
<smd name="3" x="0.4" y="-0.75" dx="0.5" dy="0.8" layer="1"/>
<smd name="4" x="1.3" y="-0.75" dx="0.65" dy="0.8" layer="1"/>
<smd name="5" x="1.3" y="0.75" dx="0.65" dy="0.8" layer="1"/>
<smd name="6" x="0.4" y="0.75" dx="0.5" dy="0.8" layer="1"/>
<smd name="7" x="-0.4" y="0.75" dx="0.5" dy="0.8" layer="1"/>
<smd name="8" x="-1.3" y="0.75" dx="0.65" dy="0.8" layer="1"/>
<text x="-1.6" y="1.6" size="0.8128" layer="25" ratio="18">&gt;NAME</text>
<text x="-1.6" y="-2.4" size="0.4064" layer="25" ratio="10">&gt;VALUE</text>
</package>
<package name="SOT23-R">
<description>&lt;b&gt;SOT23&lt;/b&gt; - Reflow soldering</description>
<wire x1="1.5724" y1="0.6604" x2="1.5724" y2="-0.6604" width="0.1524" layer="51"/>
<wire x1="1.5724" y1="-0.6604" x2="-1.5724" y2="-0.6604" width="0.1524" layer="51"/>
<wire x1="-1.5724" y1="-0.6604" x2="-1.5724" y2="0.6604" width="0.1524" layer="51"/>
<wire x1="-1.5724" y1="0.6604" x2="1.5724" y2="0.6604" width="0.2032" layer="51"/>
<wire x1="-1.5724" y1="-0.6524" x2="-1.5724" y2="0.6604" width="0.2032" layer="21"/>
<wire x1="-1.5724" y1="0.6604" x2="-0.5636" y2="0.6604" width="0.2032" layer="21"/>
<wire x1="1.5724" y1="0.6604" x2="1.5724" y2="-0.6524" width="0.2032" layer="21"/>
<wire x1="0.5636" y1="0.6604" x2="1.5724" y2="0.6604" width="0.2032" layer="21"/>
<wire x1="0.3724" y1="-0.6604" x2="-0.3864" y2="-0.6604" width="0.2032" layer="21"/>
<rectangle x1="-0.2286" y1="0.7112" x2="0.2286" y2="1.2954" layer="51"/>
<rectangle x1="0.7112" y1="-1.2954" x2="1.1684" y2="-0.7112" layer="51"/>
<rectangle x1="-1.1684" y1="-1.2954" x2="-0.7112" y2="-0.7112" layer="51"/>
<smd name="1" x="-0.95" y="-1" dx="0.635" dy="1.016" layer="1"/>
<smd name="2" x="0.95" y="-1" dx="0.635" dy="1.016" layer="1"/>
<smd name="3" x="0" y="1" dx="0.635" dy="1.016" layer="1"/>
<text x="1.778" y="-0.127" size="0.8128" layer="25" ratio="18">&gt;NAME</text>
<text x="1.778" y="-0.635" size="0.4064" layer="27" ratio="10">&gt;VALUE</text>
</package>
<package name="SOT23-W">
<description>&lt;b&gt;SOT23&lt;/b&gt; - Wave soldering</description>
<wire x1="1.5724" y1="0.6604" x2="1.5724" y2="-0.6604" width="0.2032" layer="51"/>
<wire x1="1.5724" y1="-0.6604" x2="-1.5724" y2="-0.6604" width="0.1524" layer="51"/>
<wire x1="-1.5724" y1="-0.6604" x2="-1.5724" y2="0.6604" width="0.2032" layer="51"/>
<wire x1="-1.5724" y1="0.6604" x2="1.5724" y2="0.6604" width="0.2032" layer="51"/>
<wire x1="-1.6224" y1="-0.3984" x2="-1.6224" y2="0.6604" width="0.2032" layer="21"/>
<wire x1="1.6224" y1="0.6604" x2="1.6224" y2="-0.3984" width="0.2032" layer="21"/>
<wire x1="0.2454" y1="-0.6604" x2="-0.2594" y2="-0.6604" width="0.2032" layer="21"/>
<rectangle x1="-0.2286" y1="0.7112" x2="0.2286" y2="1.2954" layer="51"/>
<rectangle x1="0.7112" y1="-1.2954" x2="1.1684" y2="-0.7112" layer="51"/>
<rectangle x1="-1.1684" y1="-1.2954" x2="-0.7112" y2="-0.7112" layer="51"/>
<smd name="1" x="-1.1" y="-1.3" dx="1.2" dy="1.4" layer="1"/>
<smd name="2" x="1.1" y="-1.3" dx="1.2" dy="1.4" layer="1"/>
<smd name="3" x="0" y="1.3" dx="2.8" dy="1.4" layer="1"/>
<text x="2.032" y="-0.127" size="0.8128" layer="25" ratio="18">&gt;NAME</text>
<text x="2.032" y="-0.635" size="0.4064" layer="27" ratio="10">&gt;VALUE</text>
</package>
<package name="SOT23-WIDE">
<wire x1="1.5724" y1="0.6604" x2="1.5724" y2="-0.6604" width="0.2032" layer="51"/>
<wire x1="1.5724" y1="-0.6604" x2="-1.5724" y2="-0.6604" width="0.1524" layer="51"/>
<wire x1="-1.5724" y1="-0.6604" x2="-1.5724" y2="0.6604" width="0.2032" layer="51"/>
<wire x1="-1.5724" y1="0.6604" x2="1.5724" y2="0.6604" width="0.2032" layer="51"/>
<wire x1="-1.6724" y1="-0.6524" x2="-1.6724" y2="0.6604" width="0.2032" layer="21"/>
<wire x1="-1.6724" y1="0.6604" x2="-0.7136" y2="0.6604" width="0.2032" layer="21"/>
<wire x1="1.6724" y1="0.6604" x2="1.6724" y2="-0.6524" width="0.2032" layer="21"/>
<wire x1="0.7136" y1="0.6604" x2="1.6724" y2="0.6604" width="0.2032" layer="21"/>
<wire x1="0.2224" y1="-0.6604" x2="-0.2364" y2="-0.6604" width="0.2032" layer="21"/>
<rectangle x1="-0.2286" y1="0.7112" x2="0.2286" y2="1.2954" layer="51"/>
<rectangle x1="0.7112" y1="-1.2954" x2="1.1684" y2="-0.7112" layer="51"/>
<rectangle x1="-1.1684" y1="-1.2954" x2="-0.7112" y2="-0.7112" layer="51"/>
<smd name="1" x="-0.95" y="-1" dx="1" dy="1.27" layer="1"/>
<smd name="2" x="0.95" y="-1" dx="1" dy="1.27" layer="1"/>
<smd name="3" x="0" y="1" dx="1" dy="1.27" layer="1"/>
<text x="1.905" y="0" size="0.8128" layer="25" ratio="18">&gt;NAME</text>
<text x="1.905" y="-0.635" size="0.4064" layer="27" ratio="10">&gt;VALUE</text>
</package>
<package name="TO252">
<description>&lt;b&gt;SMALL OUTLINE TRANSISTOR&lt;/b&gt;&lt;p&gt;
TS-003</description>
<wire x1="3.2766" y1="3.8354" x2="3.277" y2="-2.159" width="0.2032" layer="21"/>
<wire x1="3.277" y1="-2.159" x2="-3.277" y2="-2.159" width="0.2032" layer="21"/>
<wire x1="-3.277" y1="-2.159" x2="-3.2766" y2="3.8354" width="0.2032" layer="21"/>
<wire x1="-3.277" y1="3.835" x2="3.2774" y2="3.8346" width="0.2032" layer="51"/>
<wire x1="-2.5654" y1="3.937" x2="-2.5654" y2="4.6482" width="0.2032" layer="51"/>
<wire x1="-2.5654" y1="4.6482" x2="-2.1082" y2="5.1054" width="0.2032" layer="51"/>
<wire x1="-2.1082" y1="5.1054" x2="2.1082" y2="5.1054" width="0.2032" layer="51"/>
<wire x1="2.1082" y1="5.1054" x2="2.5654" y2="4.6482" width="0.2032" layer="51"/>
<wire x1="2.5654" y1="4.6482" x2="2.5654" y2="3.937" width="0.2032" layer="51"/>
<wire x1="2.5654" y1="3.937" x2="-2.5654" y2="3.937" width="0.2032" layer="51"/>
<rectangle x1="-2.7178" y1="-5.1562" x2="-1.8542" y2="-2.2606" layer="51"/>
<rectangle x1="1.8542" y1="-5.1562" x2="2.7178" y2="-2.2606" layer="51"/>
<rectangle x1="-0.4318" y1="-3.0226" x2="0.4318" y2="-2.2606" layer="21"/>
<smd name="1" x="-2.28" y="-4.8" dx="1" dy="1.6" layer="1"/>
<smd name="2" x="2.28" y="-4.8" dx="1" dy="1.6" layer="1"/>
<smd name="3" x="0" y="2.5" dx="5.4" dy="6.2" layer="1"/>
<text x="-3.81" y="-2.54" size="0.8128" layer="25" ratio="18" rot="R90">&gt;NAME</text>
<text x="5.08" y="-2.54" size="0.4064" layer="27" ratio="10" rot="R90">&gt;VALUE</text>
<polygon width="0.2032" layer="51">
<vertex x="-2.5654" y="3.937"/>
<vertex x="-2.5654" y="4.6482"/>
<vertex x="-2.1082" y="5.1054"/>
<vertex x="2.1082" y="5.1054"/>
<vertex x="2.5654" y="4.6482"/>
<vertex x="2.5654" y="3.937"/>
</polygon>
</package>
<package name="_0402">
<description>&lt;b&gt; 0402&lt;/b&gt;</description>
<wire x1="-0.245" y1="0.174" x2="0.245" y2="0.174" width="0.1016" layer="51"/>
<wire x1="0.245" y1="-0.174" x2="-0.245" y2="-0.174" width="0.1016" layer="51"/>
<wire x1="-1.0573" y1="0.5557" x2="1.0573" y2="0.5557" width="0.2032" layer="21"/>
<wire x1="1.0573" y1="0.5557" x2="1.0573" y2="-0.5556" width="0.2032" layer="21"/>
<wire x1="1.0573" y1="-0.5556" x2="-1.0573" y2="-0.5557" width="0.2032" layer="21"/>
<wire x1="-1.0573" y1="-0.5557" x2="-1.0573" y2="0.5557" width="0.2032" layer="21"/>
<rectangle x1="-0.0794" y1="-0.2381" x2="0.0794" y2="0.2381" layer="35"/>
<rectangle x1="0.25" y1="-0.25" x2="0.5" y2="0.25" layer="51"/>
<rectangle x1="-0.5" y1="-0.25" x2="-0.25" y2="0.25" layer="51"/>
<smd name="1" x="-0.508" y="0" dx="0.6" dy="0.6" layer="1"/>
<smd name="2" x="0.508" y="0" dx="0.6" dy="0.6" layer="1"/>
<text x="-0.9525" y="0.7939" size="0.8128" layer="25" ratio="18">&gt;NAME</text>
<text x="-0.9525" y="-1.3336" size="0.4064" layer="27" ratio="10">&gt;VALUE</text>
</package>
<package name="_0402MP">
<description>&lt;b&gt;0402 MicroPitch&lt;p&gt;</description>
<wire x1="-0.245" y1="0.174" x2="0.245" y2="0.174" width="0.1016" layer="51"/>
<wire x1="0.245" y1="-0.174" x2="-0.245" y2="-0.174" width="0.1016" layer="51"/>
<wire x1="0" y1="0.127" x2="0" y2="-0.127" width="0.2032" layer="21"/>
<rectangle x1="-0.1" y1="-0.2" x2="0.1" y2="0.2" layer="35"/>
<rectangle x1="-0.5" y1="-0.25" x2="-0.254" y2="0.25" layer="51"/>
<rectangle x1="0.2588" y1="-0.25" x2="0.5" y2="0.25" layer="51"/>
<smd name="1" x="-0.508" y="0" dx="0.5" dy="0.5" layer="1"/>
<smd name="2" x="0.508" y="0" dx="0.5" dy="0.5" layer="1"/>
<text x="-0.635" y="0.4763" size="0.6096" layer="25" ratio="18">&gt;NAME</text>
<text x="-0.635" y="-0.7938" size="0.4064" layer="27" ratio="10">&gt;VALUE</text>
</package>
<package name="_0603">
<description>&lt;b&gt;0603&lt;/b&gt;</description>
<wire x1="-0.432" y1="-0.306" x2="0.432" y2="-0.306" width="0.1016" layer="51"/>
<wire x1="0.432" y1="0.306" x2="-0.432" y2="0.306" width="0.1016" layer="51"/>
<wire x1="-1.4605" y1="0.635" x2="1.4605" y2="0.635" width="0.2032" layer="21"/>
<wire x1="1.4605" y1="0.635" x2="1.4605" y2="-0.635" width="0.2032" layer="21"/>
<wire x1="1.4605" y1="-0.635" x2="-1.4605" y2="-0.635" width="0.2032" layer="21"/>
<wire x1="-1.4605" y1="-0.635" x2="-1.4605" y2="0.635" width="0.2032" layer="21"/>
<rectangle x1="0.4318" y1="-0.4" x2="0.8382" y2="0.4" layer="51"/>
<rectangle x1="-0.8382" y1="-0.4" x2="-0.4318" y2="0.4" layer="51"/>
<rectangle x1="-0.1999" y1="-0.4001" x2="0.1999" y2="0.4001" layer="35"/>
<smd name="1" x="-0.762" y="0" dx="0.9" dy="0.8" layer="1"/>
<smd name="2" x="0.762" y="0" dx="0.9" dy="0.8" layer="1"/>
<text x="-1.27" y="0.9525" size="0.8128" layer="25" ratio="18">&gt;NAME</text>
<text x="-1.27" y="-1.4923" size="0.4064" layer="27" ratio="10">&gt;VALUE</text>
</package>
<package name="_0603MP">
<description>&lt;b&gt;0603 MicroPitch&lt;/b&gt;</description>
<wire x1="-0.432" y1="-0.306" x2="0.432" y2="-0.306" width="0.1016" layer="51"/>
<wire x1="0.432" y1="0.306" x2="-0.432" y2="0.306" width="0.1016" layer="51"/>
<wire x1="0" y1="0.254" x2="0" y2="-0.254" width="0.2032" layer="21"/>
<rectangle x1="0.4318" y1="-0.4" x2="0.8" y2="0.4" layer="51"/>
<rectangle x1="-0.8" y1="-0.4" x2="-0.4318" y2="0.4" layer="51"/>
<rectangle x1="-0.1999" y1="-0.25" x2="0.1999" y2="0.25" layer="35"/>
<smd name="1" x="-0.762" y="0" dx="0.8" dy="0.8" layer="1"/>
<smd name="2" x="0.762" y="0" dx="0.8" dy="0.8" layer="1"/>
<text x="-0.9525" y="0.635" size="0.8128" layer="25" ratio="18">&gt;NAME</text>
<text x="-0.9525" y="-0.9525" size="0.4064" layer="27" ratio="10">&gt;VALUE</text>
</package>
<package name="_0805">
<description>&lt;b&gt;0805&lt;/b&gt;</description>
<wire x1="-0.41" y1="0.585" x2="0.41" y2="0.585" width="0.1016" layer="51"/>
<wire x1="-0.41" y1="-0.585" x2="0.41" y2="-0.585" width="0.1016" layer="51"/>
<wire x1="-1.905" y1="0.889" x2="1.905" y2="0.889" width="0.2032" layer="21"/>
<wire x1="1.905" y1="0.889" x2="1.905" y2="-0.889" width="0.2032" layer="21"/>
<wire x1="1.905" y1="-0.889" x2="-1.905" y2="-0.889" width="0.2032" layer="21"/>
<wire x1="-1.905" y1="-0.889" x2="-1.905" y2="0.889" width="0.2032" layer="21"/>
<rectangle x1="0.4064" y1="-0.65" x2="1.0564" y2="0.65" layer="51"/>
<rectangle x1="-1.0668" y1="-0.65" x2="-0.4168" y2="0.65" layer="51"/>
<rectangle x1="-0.1999" y1="-0.5001" x2="0.1999" y2="0.5001" layer="35"/>
<smd name="1" x="-1.016" y="0" dx="1.2" dy="1.3" layer="1"/>
<smd name="2" x="1.016" y="0" dx="1.2" dy="1.3" layer="1"/>
<text x="-1.5875" y="1.27" size="0.8128" layer="25" ratio="18">&gt;NAME</text>
<text x="-1.5874" y="-1.651" size="0.4064" layer="27" ratio="10">&gt;VALUE</text>
</package>
<package name="_0805MP">
<description>&lt;b&gt;0805 MicroPitch&lt;/b&gt;</description>
<wire x1="-0.51" y1="0.535" x2="0.51" y2="0.535" width="0.1016" layer="51"/>
<wire x1="-0.51" y1="-0.535" x2="0.51" y2="-0.535" width="0.1016" layer="51"/>
<wire x1="0" y1="0.508" x2="0" y2="-0.508" width="0.2032" layer="21"/>
<rectangle x1="0.4064" y1="-0.65" x2="1" y2="0.65" layer="51"/>
<rectangle x1="-1" y1="-0.65" x2="-0.4168" y2="0.65" layer="51"/>
<rectangle x1="-0.1999" y1="-0.5001" x2="0.1999" y2="0.5001" layer="35"/>
<smd name="1" x="-1.016" y="0" dx="1.2" dy="1.3" layer="1"/>
<smd name="2" x="1.016" y="0" dx="1.2" dy="1.3" layer="1"/>
<text x="-1.5875" y="0.9525" size="0.8128" layer="25" ratio="18">&gt;NAME</text>
<text x="-1.5875" y="-1.27" size="0.4064" layer="27" ratio="10">&gt;VALUE</text>
</package>
</packages>
<symbols>
<symbol name="2.5V">
<wire x1="-1.27" y1="-1.27" x2="0" y2="0" width="0.254" layer="94"/>
<wire x1="0" y1="0" x2="1.27" y2="-1.27" width="0.254" layer="94"/>
<pin name="2.5V" x="0" y="-2.54" visible="off" length="short" direction="sup" rot="R90"/>
<text x="-1.524" y="1.016" size="1.27" layer="96">&gt;VALUE</text>
</symbol>
<symbol name="5.0V">
<wire x1="-1.27" y1="-1.27" x2="0" y2="0" width="0.254" layer="94"/>
<wire x1="0" y1="0" x2="1.27" y2="-1.27" width="0.254" layer="94"/>
<pin name="5.0V" x="0" y="-2.54" visible="off" length="short" direction="sup" rot="R90"/>
<text x="-1.524" y="1.016" size="1.27" layer="96">&gt;VALUE</text>
</symbol>
<symbol name="CAPACITOR">
<rectangle x1="-1.27" y1="0.508" x2="1.27" y2="1.016" layer="94"/>
<rectangle x1="-1.27" y1="1.524" x2="1.27" y2="2.032" layer="94"/>
<wire x1="0" y1="0.762" x2="0" y2="0" width="0.1524" layer="94"/>
<wire x1="0" y1="2.54" x2="0" y2="1.778" width="0.1524" layer="94"/>
<pin name="P$1" x="0" y="5.08" visible="off" length="short" direction="pas" swaplevel="1" rot="R270"/>
<pin name="P$2" x="0" y="-2.54" visible="off" length="short" direction="pas" swaplevel="1" rot="R90"/>
<text x="2.54" y="2.54" size="1.27" layer="95" font="vector">&gt;NAME</text>
<text x="2.54" y="0" size="1.27" layer="96" font="vector">&gt;VALUE</text>
</symbol>
<symbol name="FRAME_A3">
<wire x1="288.29" y1="3.81" x2="297.18" y2="3.81" width="0.1016" layer="94"/>
<wire x1="297.18" y1="3.81" x2="341.63" y2="3.81" width="0.1016" layer="94"/>
<wire x1="341.63" y1="3.81" x2="383.54" y2="3.81" width="0.1016" layer="94"/>
<wire x1="383.54" y1="3.81" x2="383.54" y2="8.89" width="0.1016" layer="94"/>
<wire x1="383.54" y1="8.89" x2="383.54" y2="13.97" width="0.1016" layer="94"/>
<wire x1="383.54" y1="13.97" x2="383.54" y2="19.05" width="0.1016" layer="94"/>
<wire x1="383.54" y1="19.05" x2="383.54" y2="36.83" width="0.1016" layer="94"/>
<wire x1="297.18" y1="3.81" x2="297.18" y2="8.89" width="0.1016" layer="94"/>
<wire x1="297.18" y1="8.89" x2="297.18" y2="13.97" width="0.1016" layer="94"/>
<wire x1="297.18" y1="13.97" x2="297.18" y2="19.05" width="0.1016" layer="94"/>
<wire x1="297.18" y1="19.05" x2="297.18" y2="36.83" width="0.1016" layer="94"/>
<wire x1="297.18" y1="36.83" x2="383.54" y2="36.83" width="0.1016" layer="94"/>
<wire x1="341.63" y1="13.97" x2="341.63" y2="8.89" width="0.1016" layer="94"/>
<wire x1="341.63" y1="8.89" x2="383.54" y2="8.89" width="0.1016" layer="94"/>
<wire x1="341.63" y1="8.89" x2="297.18" y2="8.89" width="0.1016" layer="94"/>
<wire x1="297.18" y1="13.97" x2="341.63" y2="13.97" width="0.1016" layer="94"/>
<wire x1="341.63" y1="13.97" x2="383.54" y2="13.97" width="0.1016" layer="94"/>
<wire x1="297.18" y1="19.05" x2="383.54" y2="19.05" width="0.1016" layer="94"/>
<wire x1="341.63" y1="8.89" x2="341.63" y2="3.81" width="0.1016" layer="94"/>
<text x="298.45" y="15.24" size="2.54" layer="94" font="vector">&gt;DRAWING_NAME</text>
<text x="298.45" y="10.16" size="2.286" layer="94" font="vector">&gt;LAST_DATE_TIME</text>
<text x="357.505" y="10.16" size="2.54" layer="94" font="vector">&gt;SHEET</text>
<text x="343.916" y="10.033" size="2.54" layer="94" font="vector">Sheet:</text>
<text x="343.916" y="4.953" size="2.54" layer="94" font="vector">www.yelab.org</text>
<text x="298.45" y="5.08" size="2.54" layer="94" font="vector">Drawing:</text>
<frame x1="0" y1="0" x2="387.35" y2="260.35" columns="8" rows="5" layer="94"/>
</symbol>
<symbol name="LED">
<wire x1="-2.54" y1="1.27" x2="-2.54" y2="-1.27" width="0.254" layer="94"/>
<wire x1="-2.54" y1="-1.27" x2="0" y2="0" width="0.254" layer="94"/>
<wire x1="0" y1="0" x2="-2.54" y2="1.27" width="0.254" layer="94"/>
<wire x1="0" y1="1.27" x2="0" y2="0" width="0.254" layer="94"/>
<wire x1="0" y1="0" x2="0" y2="-1.27" width="0.254" layer="94"/>
<wire x1="-0.635" y1="1.27" x2="0.635" y2="2.54" width="0.254" layer="94"/>
<wire x1="-1.905" y1="1.27" x2="-0.635" y2="2.54" width="0.254" layer="94"/>
<wire x1="-0.9525" y1="2.8575" x2="-0.3175" y2="2.2225" width="0.254" layer="94"/>
<wire x1="-0.3175" y1="2.2225" x2="0" y2="3.175" width="0.254" layer="94"/>
<wire x1="0" y1="3.175" x2="-0.9525" y2="2.8575" width="0.254" layer="94"/>
<wire x1="0.3175" y1="2.8575" x2="0.9525" y2="2.2225" width="0.254" layer="94"/>
<wire x1="1.27" y1="3.175" x2="0.3175" y2="2.8575" width="0.254" layer="94"/>
<wire x1="0.9525" y1="2.2225" x2="1.27" y2="3.175" width="0.254" layer="94"/>
<pin name="A" x="-5.08" y="0" visible="off" length="short" direction="pas"/>
<pin name="C" x="2.54" y="0" visible="off" length="short" direction="pas" rot="R180"/>
<text x="-5.08" y="3.175" size="1.27" layer="95">&gt;NAME</text>
<text x="-5.08" y="-2.794" size="1.27" layer="96">&gt;VALUE</text>
</symbol>
<symbol name="MOSFET-N">
<circle x="2.54" y="-2.54" radius="0.3592" width="0" layer="94"/>
<circle x="2.54" y="2.54" radius="0.3592" width="0" layer="94"/>
<wire x1="0.762" y1="0.762" x2="0.762" y2="0" width="0.254" layer="94"/>
<wire x1="0.762" y1="0" x2="0.762" y2="-0.762" width="0.254" layer="94"/>
<wire x1="0.762" y1="3.175" x2="0.762" y2="2.54" width="0.254" layer="94"/>
<wire x1="0.762" y1="2.54" x2="0.762" y2="1.905" width="0.254" layer="94"/>
<wire x1="0.762" y1="0" x2="2.54" y2="0" width="0.1524" layer="94"/>
<wire x1="2.54" y1="0" x2="2.54" y2="-2.54" width="0.1524" layer="94"/>
<wire x1="0.762" y1="-1.905" x2="0.762" y2="-2.54" width="0.254" layer="94"/>
<wire x1="0.762" y1="-2.54" x2="0.762" y2="-3.175" width="0.254" layer="94"/>
<wire x1="0" y1="2.54" x2="0" y2="-2.54" width="0.254" layer="94"/>
<wire x1="2.54" y1="-2.54" x2="0.762" y2="-2.54" width="0.1524" layer="94"/>
<wire x1="3.81" y1="2.54" x2="3.81" y2="0.508" width="0.1524" layer="94"/>
<wire x1="3.81" y1="0.508" x2="3.81" y2="-2.54" width="0.1524" layer="94"/>
<wire x1="2.54" y1="-2.54" x2="3.81" y2="-2.54" width="0.1524" layer="94"/>
<wire x1="0.762" y1="2.54" x2="3.81" y2="2.54" width="0.1524" layer="94"/>
<wire x1="4.572" y1="0.762" x2="4.318" y2="0.508" width="0.1524" layer="94"/>
<wire x1="4.318" y1="0.508" x2="3.81" y2="0.508" width="0.1524" layer="94"/>
<wire x1="3.81" y1="0.508" x2="3.302" y2="0.508" width="0.1524" layer="94"/>
<wire x1="3.302" y1="0.508" x2="3.048" y2="0.254" width="0.1524" layer="94"/>
<pin name="D" x="2.54" y="5.08" visible="pad" length="short" rot="R270"/>
<pin name="G" x="-2.54" y="-2.54" visible="pad" length="short"/>
<pin name="S" x="2.54" y="-5.08" visible="pad" length="short" rot="R90"/>
<text x="5.08" y="0.635" size="1.27" layer="95">&gt;NAME</text>
<text x="5.08" y="-1.27" size="1.27" layer="96">&gt;VALUE</text>
<text x="3.175" y="3.175" size="0.8128" layer="93">D</text>
<text x="3.175" y="-3.81" size="0.8128" layer="93">S</text>
<text x="-1.27" y="-1.905" size="0.8128" layer="93">G</text>
<polygon width="0.1524" layer="94">
<vertex x="3.81" y="0.508"/>
<vertex x="3.302" y="-0.254"/>
<vertex x="4.318" y="-0.254"/>
</polygon>
<polygon width="0.1524" layer="94">
<vertex x="1.016" y="0"/>
<vertex x="2.032" y="0.762"/>
<vertex x="2.032" y="-0.762"/>
</polygon>
</symbol>
<symbol name="MOSFET-P">
<circle x="0" y="2.54" radius="0.3592" width="0" layer="94"/>
<circle x="0" y="-2.54" radius="0.3592" width="0" layer="94"/>
<wire x1="-1.778" y1="-0.762" x2="-1.778" y2="0" width="0.254" layer="94"/>
<wire x1="-1.778" y1="0" x2="-1.778" y2="0.762" width="0.254" layer="94"/>
<wire x1="-1.778" y1="-3.175" x2="-1.778" y2="-2.54" width="0.254" layer="94"/>
<wire x1="-1.778" y1="-2.54" x2="-1.778" y2="-1.905" width="0.254" layer="94"/>
<wire x1="-1.778" y1="0" x2="0" y2="0" width="0.1524" layer="94"/>
<wire x1="0" y1="0" x2="0" y2="2.54" width="0.1524" layer="94"/>
<wire x1="-1.778" y1="1.905" x2="-1.778" y2="2.54" width="0.254" layer="94"/>
<wire x1="-1.778" y1="2.54" x2="-1.778" y2="3.175" width="0.254" layer="94"/>
<wire x1="-2.54" y1="-2.54" x2="-2.54" y2="2.54" width="0.254" layer="94"/>
<wire x1="0" y1="2.54" x2="-1.778" y2="2.54" width="0.1524" layer="94"/>
<wire x1="1.27" y1="-2.54" x2="1.27" y2="0.508" width="0.1524" layer="94"/>
<wire x1="1.27" y1="0.508" x2="1.27" y2="2.54" width="0.1524" layer="94"/>
<wire x1="0" y1="2.54" x2="1.27" y2="2.54" width="0.1524" layer="94"/>
<wire x1="-1.778" y1="-2.54" x2="1.27" y2="-2.54" width="0.1524" layer="94"/>
<wire x1="0.508" y1="0.762" x2="0.762" y2="0.508" width="0.1524" layer="94"/>
<wire x1="0.762" y1="0.508" x2="1.27" y2="0.508" width="0.1524" layer="94"/>
<wire x1="1.27" y1="0.508" x2="1.778" y2="0.508" width="0.1524" layer="94"/>
<wire x1="1.778" y1="0.508" x2="2.032" y2="0.254" width="0.1524" layer="94"/>
<pin name="D" x="0" y="-5.08" visible="off" length="short" direction="pas" rot="R90"/>
<pin name="G" x="-5.08" y="2.54" visible="off" length="short" direction="pas"/>
<pin name="S" x="0" y="5.08" visible="off" length="short" direction="pas" rot="R270"/>
<text x="2.794" y="-1.905" size="1.27" layer="96">&gt;VALUE</text>
<text x="2.794" y="0.381" size="1.27" layer="95">&gt;NAME</text>
<text x="0.635" y="-3.81" size="0.8128" layer="93">D</text>
<text x="0.635" y="3.175" size="0.8128" layer="93">S</text>
<text x="-3.81" y="1.27" size="0.8128" layer="93">G</text>
<polygon width="0.1524" layer="94">
<vertex x="1.27" y="0.508"/>
<vertex x="1.778" y="-0.254"/>
<vertex x="0.762" y="-0.254"/>
</polygon>
<polygon width="0.1524" layer="94">
<vertex x="0" y="0"/>
<vertex x="-1.016" y="0.762"/>
<vertex x="-1.016" y="-0.762"/>
</polygon>
</symbol>
<symbol name="RESISTOR">
<wire x1="-2.54" y1="1.27" x2="2.54" y2="1.27" width="0.254" layer="94"/>
<wire x1="2.54" y1="1.27" x2="2.54" y2="-1.27" width="0.254" layer="94"/>
<wire x1="2.54" y1="-1.27" x2="-2.54" y2="-1.27" width="0.254" layer="94"/>
<wire x1="-2.54" y1="-1.27" x2="-2.54" y2="1.27" width="0.254" layer="94"/>
<pin name="1" x="-5.08" y="0" visible="off" length="short" direction="pas" swaplevel="1"/>
<pin name="2" x="5.08" y="0" visible="off" length="short" direction="pas" swaplevel="1" rot="R180"/>
<text x="-2.54" y="2.032" size="1.27" layer="95" font="vector">&gt;NAME</text>
<text x="-2.54" y="-3.175" size="1.27" layer="96" font="vector">&gt;VALUE</text>
</symbol>
<symbol name="VBAT">
<wire x1="-1.27" y1="-1.27" x2="0" y2="0" width="0.254" layer="94"/>
<wire x1="0" y1="0" x2="1.27" y2="-1.27" width="0.254" layer="94"/>
<pin name="VBAT" x="0" y="-2.54" visible="off" length="short" direction="sup" rot="R90"/>
<text x="-1.524" y="1.016" size="1.27" layer="96">&gt;VALUE</text>
</symbol>
</symbols>
<devicesets>
<deviceset name="2.5V">
<gates>
<gate name="G$1" symbol="2.5V" x="0" y="0"/>
</gates>
<devices>
<device name="">
<technologies>
<technology name=""/>
</technologies>
</device>
</devices>
</deviceset>
<deviceset name="5.0V">
<description>&lt;b&gt;5.0V Supply&lt;/b&gt;</description>
<gates>
<gate name="G$1" symbol="5.0V" x="0" y="0"/>
</gates>
<devices>
<device name="">
<technologies>
<technology name=""/>
</technologies>
</device>
</devices>
</deviceset>
<deviceset name="CAP_CERAMIC" prefix="C" uservalue="yes">
<description>&lt;p&gt;&lt;b&gt;Ceramic Capacitors&lt;/b&gt;&lt;/p&gt;
&lt;b&gt;0402&lt;/b&gt; - 0402 Surface Mount Capacitors
&lt;ul&gt;
&lt;li&gt;16pF 50V 5% [Digikey: 445-4899-2-ND]&lt;/li&gt;
&lt;li&gt;18pF 50V 5% [Digikey: 490-1281-2-ND]&lt;/li&gt;
&lt;li&gt;22pF 50V 5% [Digikey: 490-1283-2-ND]&lt;/li&gt;
&lt;li&gt;68pF 50V 5% [Digikey: 490-1289-2-ND]&lt;/li&gt;
&lt;li&gt;0.1uF 10V 10% [Digikey: 490-1318-2-ND]&lt;/li&gt;
&lt;li&gt;1.0uF 6.3V 10% [Digikey: 490-1320-2-ND]&lt;/li&gt;
&lt;/ul&gt;
&lt;b&gt;0603&lt;/b&gt; - 0603 Surface Mount Capacitors
&lt;ul&gt;
&lt;li&gt;16 pF 50V 5% [Digikey: 445-5051-2-ND]&lt;/li&gt;
&lt;li&gt;22 pF 50V [Digikey: PCC220ACVTR-ND]&lt;/li&gt;
&lt;li&gt;33 pF 50V 5% [Digikey: 490-1415-1-ND]&lt;/li&gt;
&lt;li&gt;56pF 50V 5% [Digikey: 490-1421-1-ND]&lt;/li&gt;
&lt;li&gt;220pF 50V 5% [Digikey: 445-1285-1-ND]&lt;/li&gt;
&lt;li&gt;680 pF 50V &lt;/li&gt;
&lt;li&gt;2200 pF 50V 5% C0G [Digikey: 445-1297-1-ND]&lt;/li&gt;
&lt;li&gt;5600 pF 100V 5% X7R [Digikey: 478-3711-1-ND]&lt;/li&gt;
&lt;li&gt;0.1 µF 25V 10% [Digikey: PCC2277TR-ND]&lt;/li&gt;
&lt;li&gt;0.22 µF 16V 10% X7R [Digikey: 445-1318-1-ND]&lt;/li&gt;
&lt;li&gt;1.0 µF 25V 10% [Digikey: 445-5146-2-ND]&lt;/li&gt;
&lt;/ul&gt;
&lt;b&gt;0603&lt;/b&gt; - RF Specific
&lt;ul&gt;
&lt;li&gt;3pF 250V +/-0.1pF RF [Digikey: 712-1347-1-ND]&lt;/li&gt;
&lt;li&gt;18 pF 250V 5%  [Digikey: 478-3505-1-ND or 712-1322-1-ND]&lt;/li&gt;
&lt;li&gt;56 pF 250V 5% C0G RF [Digikey: 490-4867-1-ND]&lt;/li&gt;
&lt;li&gt;68 pF 250V RF [Digikey: 490-4868-1-ND]&lt;/li&gt;
&lt;/ul&gt;
&lt;b&gt;0805&lt;/b&gt; - 0805 Surface Mount Capacitors
&lt;ul&gt;
&lt;li&gt;220 pF 250V 2% &lt;strong&gt;RF&lt;/strong&gt; Ceramic Capacitor [Digikey: 712-1398-1-ND]&lt;/li&gt;
&lt;li&gt;1000 pF 50V 2% NP0 Ceramic Capacitor [Digikey: 478-3760-1-ND]&lt;/li&gt;
&lt;li&gt;0.1 µF 25V 10% Ceramic Capacitor [Digikey: PCC1828TR-ND]&lt;/li&gt;
&lt;li&gt;1.0 µF 16V 10% Ceramic Capacitor[Digikey: 490-1691-2-ND]&lt;/li&gt;
&lt;li&gt;10.0 µF 10V 10% Ceramic Capacitor[Digikey: 709-1228-1-ND]&lt;/li&gt;
&lt;li&gt;10.0 uF 16V 10% Ceramic Capacitor [Digikey: 478-5165-2-ND]&lt;/li&gt;
&lt;li&gt;47 uF 6.3V 20% Ceramic Capacitor [Digikey: 587-1779-1-ND or 399-5506-1-ND]&lt;/li&gt;
&lt;/ul&gt;
&lt;/ul&gt;&lt;b&gt;1206&lt;/b&gt; - 1206 Surface Mount Capacitors
&lt;ul&gt;
&lt;li&gt;47uF 10V 20% Ceramic Capacitor [Digikey: 490-5528-1-ND or 399-5508-1-ND or 445-6010-1-ND]&lt;/li&gt;
&lt;li&gt;100uF 6.3V -20%, +80% Y5V Ceramic Capacitor (Digikey: 490-4512-1-ND, Mouser: 81-GRM31CF50J107ZE1L)&lt;/li&gt;
&lt;/ul&gt;</description>
<gates>
<gate name="G$1" symbol="CAPACITOR" x="0" y="-2.54"/>
</gates>
<devices>
<device name="0402" package="0402">
<connects>
<connect gate="G$1" pin="P$1" pad="1"/>
<connect gate="G$1" pin="P$2" pad="2"/>
</connects>
<technologies>
<technology name=""/>
</technologies>
</device>
<device name="0603" package="0603">
<connects>
<connect gate="G$1" pin="P$1" pad="1"/>
<connect gate="G$1" pin="P$2" pad="2"/>
</connects>
<technologies>
<technology name=""/>
</technologies>
</device>
<device name="0603MINI" package="0603-MINI">
<connects>
<connect gate="G$1" pin="P$1" pad="1"/>
<connect gate="G$1" pin="P$2" pad="2"/>
</connects>
<technologies>
<technology name=""/>
</technologies>
</device>
<device name="0805" package="0805">
<connects>
<connect gate="G$1" pin="P$1" pad="1"/>
<connect gate="G$1" pin="P$2" pad="2"/>
</connects>
<technologies>
<technology name=""/>
</technologies>
</device>
<device name="0805-NOTHERMALS" package="0805_NOTHERMALS">
<connects>
<connect gate="G$1" pin="P$1" pad="1"/>
<connect gate="G$1" pin="P$2" pad="2"/>
</connects>
<technologies>
<technology name=""/>
</technologies>
</device>
<device name="1206" package="1206">
<connects>
<connect gate="G$1" pin="P$1" pad="1"/>
<connect gate="G$1" pin="P$2" pad="2"/>
</connects>
<technologies>
<technology name=""/>
</technologies>
</device>
<device name="_0402" package="_0402">
<connects>
<connect gate="G$1" pin="P$1" pad="1"/>
<connect gate="G$1" pin="P$2" pad="2"/>
</connects>
<technologies>
<technology name=""/>
</technologies>
</device>
<device name="_0402MP" package="_0402MP">
<connects>
<connect gate="G$1" pin="P$1" pad="1"/>
<connect gate="G$1" pin="P$2" pad="2"/>
</connects>
<technologies>
<technology name=""/>
</technologies>
</device>
<device name="_0603" package="_0603">
<connects>
<connect gate="G$1" pin="P$1" pad="1"/>
<connect gate="G$1" pin="P$2" pad="2"/>
</connects>
<technologies>
<technology name=""/>
</technologies>
</device>
<device name="_0603MP" package="_0603MP">
<connects>
<connect gate="G$1" pin="P$1" pad="1"/>
<connect gate="G$1" pin="P$2" pad="2"/>
</connects>
<technologies>
<technology name=""/>
</technologies>
</device>
<device name="_0805" package="_0805">
<connects>
<connect gate="G$1" pin="P$1" pad="1"/>
<connect gate="G$1" pin="P$2" pad="2"/>
</connects>
<technologies>
<technology name=""/>
</technologies>
</device>
<device name="_0805MP" package="_0805MP">
<connects>
<connect gate="G$1" pin="P$1" pad="1"/>
<connect gate="G$1" pin="P$2" pad="2"/>
</connects>
<technologies>
<technology name=""/>
</technologies>
</device>
</devices>
</deviceset>
<deviceset name="FRAME_A3" prefix="FRAME" uservalue="yes">
<description>&lt;b&gt;FRAME&lt;/b&gt;&lt;p&gt;
DIN A3, landscape with location and doc. field</description>
<gates>
<gate name="G$1" symbol="FRAME_A3" x="0" y="0"/>
</gates>
<devices>
<device name="">
<technologies>
<technology name=""/>
</technologies>
</device>
</devices>
</deviceset>
<deviceset name="LED" prefix="LED" uservalue="yes">
<description>&lt;p&gt;&lt;b&gt;LED&lt;/b&gt;&lt;/p&gt;
&lt;b&gt;0603&lt;/b&gt; - 0603 Surface Mount Package
&lt;hr&gt;
&lt;p&gt;&lt;b&gt;&lt;u&gt;2mA:&lt;/u&gt;&lt;/b&gt;&lt;/p&gt;
&lt;ul&gt;
&lt;li&gt;Green LED - Low Power (3.9mcd, 2ma, 1.7Vf) - Digikey: 475-2709-2-ND&lt;/li&gt;
&lt;li&gt;Orange LED - Low Power (9.8mcd, 2ma, 1.8Vf) - Digikey: 475-1194-2-ND&lt;/li&gt;
&lt;li&gt;Red LED - Low Power (5mcd, 2ma, 1.8Vf) - Digikey: 475-1195-2-ND&lt;/li&gt;
&lt;li&gt;Yellow LED - Low Power (7mcd, 2ma, 1.8Vf) - Digikey: 475-1196-2-ND&lt;/li&gt;
&lt;/ul&gt;
&lt;p&gt;&lt;b&gt;&lt;u&gt;5mA:&lt;/u&gt;&lt;/b&gt;&lt;/p&gt;
&lt;ul&gt;
&lt;li&gt;Blue LED - Low Power (17mcd, 5ma, 2.9Vf) - Digikey: LNJ937W8CRACT-ND&lt;/li&gt;
&lt;/ul&gt;
&lt;b&gt;0805&lt;/b&gt; - 0805 Surface Mount Package
&lt;hr&gt;
&lt;p&gt;&lt;b&gt;&lt;u&gt;2mA:&lt;/u&gt;&lt;/b&gt;&lt;/p&gt;
&lt;ul&gt;
&lt;li&gt;Red LED (8.8mcd, 2mA, 1.8Vf, Clear) - Low Power [Digikey: 475-2510-1-ND]&lt;/li&gt;
&lt;li&gt;Green LED (5mcd, 2mA, 1.8Vf, Clear) - Low Power [Digikey: 475-2730-1-ND]&lt;/li&gt;
&lt;li&gt;Yellow LED (11.3mcd, 2mA, 1.8Vf, Clear) - Low Power [Digikey: 475-2555-1-ND]&lt;/li&gt;
&lt;/ul&gt;
&lt;p&gt;&lt;b&gt;&lt;u&gt;20mA:&lt;/u&gt;&lt;/b&gt;&lt;/p&gt;
&lt;ul&gt;
&lt;li&gt;Red LED (104mcd, 20mA, Diffused) - LS R976 [Digikey: 475-1278-6-ND]&lt;/li&gt;
&lt;li&gt;Red LED (12mcd, 20mA, 2.0Vf, Clear) - APT2012EC [Digikey: 754-1128-1-ND]&lt;/li&gt;
&lt;li&gt;Green LED (15mcd, 20mA, 2.2Vf, Clear) - APT2012GC [Digikey: 754-1131-1-ND]&lt;/li&gt;
&lt;li&gt;Orange LED (160mcd, 20mA, 2.1Vf, Clear) - APT2012SECK [Digikey: 754-1130-1-ND]&lt;/li&gt;
&lt;/ul&gt;
&lt;li&gt;&lt;b&gt;1206&lt;/b&gt; - 1206 Surface Mount Package
&lt;hr&gt;
&lt;ul&gt;
&lt;li&gt;Green LED (26mcd, 20mA, Diffused) - LG N971  [Digikey: 475-1407-6-ND]&lt;/li&gt;
&lt;li&gt;Red LED (15mcd, 20mA, Diffused) - LH N974 [Digikey: 475-1416-6-ND]&lt;/li&gt;
&lt;/ul&gt;</description>
<gates>
<gate name="G$1" symbol="LED" x="0" y="0"/>
</gates>
<devices>
<device name="0603" package="CHIPLED_0603">
<connects>
<connect gate="G$1" pin="A" pad="A"/>
<connect gate="G$1" pin="C" pad="C"/>
</connects>
<technologies>
<technology name=""/>
</technologies>
</device>
<device name="0603_NOOUTLINE" package="CHIPLED_0603_NOOUTLINE">
<connects>
<connect gate="G$1" pin="A" pad="A"/>
<connect gate="G$1" pin="C" pad="C"/>
</connects>
<technologies>
<technology name=""/>
</technologies>
</device>
<device name="0805" package="CHIPLED_0805">
<connects>
<connect gate="G$1" pin="A" pad="A"/>
<connect gate="G$1" pin="C" pad="C"/>
</connects>
<technologies>
<technology name=""/>
</technologies>
</device>
<device name="0805_NOOUTLINE" package="CHIPLED_0805_NOOUTLINE">
<connects>
<connect gate="G$1" pin="A" pad="A"/>
<connect gate="G$1" pin="C" pad="C"/>
</connects>
<technologies>
<technology name=""/>
</technologies>
</device>
<device name="1206" package="CHIPLED_1206">
<connects>
<connect gate="G$1" pin="A" pad="A"/>
<connect gate="G$1" pin="C" pad="C"/>
</connects>
<technologies>
<technology name=""/>
</technologies>
</device>
</devices>
</deviceset>
<deviceset name="MOSFET-N" prefix="Q" uservalue="yes">
<description>&lt;b&gt;N-Channel Mosfet&lt;/b&gt;
&lt;p&gt;&lt;b&gt;LEGEND&lt;/b&gt;&lt;/p&gt;
&lt;p&gt;
&lt;b&gt;VDS&lt;/b&gt;: Voltage Drain-Source&lt;br/&gt;
&lt;b&gt;ID&lt;/b&gt;: Drain Current&lt;br/&gt;
&lt;b&gt;RDS(ON)&lt;/b&gt;: Drain-Source On-State Resistance&lt;br/&gt;
&lt;b&gt;VGS(TH)&lt;/b&gt;: Gate-Source Threshold Voltage&lt;br/&gt;
&lt;b&gt;CISS&lt;/b&gt;: Drain-Source Input Capacitance
&lt;/p&gt;
&lt;p&gt;
&lt;b&gt;SOT-23&lt;/b&gt;
&lt;table border="0" width="90%" cellspacing="0" cellpadding="5"&gt;
&lt;tr bgcolor="#DDDDDD"&gt;
&lt;td&gt;Name&lt;/td&gt;
&lt;td&gt;VDS&lt;/td&gt;
&lt;td&gt;ID&lt;/td&gt;
&lt;td&gt;RDS(ON)&lt;/td&gt;
&lt;td&gt;VGS(TH)&lt;/td&gt;
&lt;td&gt;CISS&lt;/td&gt;
&lt;td&gt;Order Number&lt;/td&gt;
&lt;/tr&gt;

&lt;tr&gt;
&lt;td&gt;2N7002E&lt;/td&gt;
&lt;td&gt;60V&lt;/td&gt;
&lt;td&gt;260mA&lt;/td&gt;
&lt;td&gt;2.5 Ohm&lt;/td&gt;
&lt;td&gt;2.5V @ 250uA&lt;/td&gt;
&lt;td&gt;26.7pF @ 25V&lt;/td&gt;
&lt;td&gt;2N7002ET1GOSTR-ND&lt;/td&gt;
&lt;/tr&gt;

&lt;tr&gt;
&lt;td&gt;BSH103&lt;/td&gt;
&lt;td&gt;30V&lt;/td&gt;
&lt;td&gt;850mA&lt;/td&gt;
&lt;td&gt;400 mOhm&lt;/td&gt;
&lt;td&gt;400mV @ 1mA&lt;/td&gt;
&lt;td&gt;83pF @ 24V&lt;/td&gt;
&lt;td&gt;BSH103,235-ND&lt;/td&gt;
&lt;/tr&gt;

&lt;tr&gt;
&lt;td&gt;BSS138&lt;/td&gt;
&lt;td&gt;60V&lt;/td&gt;
&lt;td&gt;320mA&lt;/td&gt;
&lt;td&gt;1.6 Ohm&lt;/td&gt;
&lt;td&gt;1.5V @ 250uA&lt;/td&gt;
&lt;td&gt;50pF @ 10V&lt;/td&gt;
&lt;td&gt;Mouser: 771-BSS138PW115&lt;/td&gt;
&lt;/tr&gt;

&lt;tr&gt;
&lt;td&gt;DMN2075U-7&lt;/td&gt;
&lt;td&gt;20V&lt;/td&gt;
&lt;td&gt;4.2A&lt;/td&gt;
&lt;td&gt;38 mOhm&lt;/td&gt;
&lt;td&gt;1V @ 250 uA&lt;/td&gt;
&lt;td&gt;594.3pF @ 10V&lt;/td&gt;
&lt;td&gt;DMN2075U-7DICT-ND&lt;/td&gt;
&lt;/tr&gt;

&lt;tr&gt;
&lt;td&gt;&lt;/td&gt;
&lt;td&gt;&lt;/td&gt;
&lt;td&gt;&lt;/td&gt;
&lt;td&gt;&lt;/td&gt;
&lt;td&gt;&lt;/td&gt;
&lt;td&gt;&lt;/td&gt;
&lt;td&gt;&lt;/td&gt;
&lt;/tr&gt;

&lt;/table&gt; 
&lt;/p&gt;

&lt;p&gt;* BSS138 good choice for I2C level-shifting&lt;/p&gt;</description>
<gates>
<gate name="G$1" symbol="MOSFET-N" x="-2.54" y="0"/>
</gates>
<devices>
<device name="REFLOW" package="SOT23-R">
<connects>
<connect gate="G$1" pin="D" pad="3"/>
<connect gate="G$1" pin="G" pad="1"/>
<connect gate="G$1" pin="S" pad="2"/>
</connects>
<technologies>
<technology name=""/>
</technologies>
</device>
<device name="WAVE" package="SOT23-W">
<connects>
<connect gate="G$1" pin="D" pad="3"/>
<connect gate="G$1" pin="G" pad="1"/>
<connect gate="G$1" pin="S" pad="2"/>
</connects>
<technologies>
<technology name=""/>
</technologies>
</device>
<device name="WIDE" package="SOT23-WIDE">
<connects>
<connect gate="G$1" pin="D" pad="3"/>
<connect gate="G$1" pin="G" pad="1"/>
<connect gate="G$1" pin="S" pad="2"/>
</connects>
<technologies>
<technology name=""/>
</technologies>
</device>
</devices>
</deviceset>
<deviceset name="MOSFET-P" prefix="Q" uservalue="yes">
<description>&lt;b&gt;P-Channel Mosfet&lt;/b&gt;
&lt;p&gt;&lt;b&gt;LEGEND&lt;/b&gt;&lt;/p&gt;
&lt;p&gt;
&lt;b&gt;VDS&lt;/b&gt;: Voltage Drain-Source&lt;br/&gt;
&lt;b&gt;ID&lt;/b&gt;: Drain Current&lt;br/&gt;
&lt;b&gt;RDS(ON)&lt;/b&gt;: Drain-Source On-State Resistance&lt;br/&gt;
&lt;b&gt;VGS(TH)&lt;/b&gt;: Gate-Source Threshold Voltage&lt;br/&gt;
&lt;b&gt;CISS&lt;/b&gt;: Drain-Source Input Capacitance
&lt;/p&gt;
&lt;p&gt;
&lt;b&gt;SOT-23&lt;/b&gt;
&lt;table border="0" width="90%" cellspacing="0" cellpadding="5"&gt;
&lt;tr bgcolor="#DDDDDD"&gt;
&lt;td&gt;Name&lt;/td&gt;
&lt;td&gt;VDS&lt;/td&gt;
&lt;td&gt;ID&lt;/td&gt;
&lt;td&gt;RDS(ON)&lt;/td&gt;
&lt;td&gt;VGS(TH)&lt;/td&gt;
&lt;td&gt;CISS&lt;/td&gt;
&lt;td&gt;Order Number&lt;/td&gt;
&lt;/tr&gt;

&lt;tr&gt;
&lt;td&gt;IRLML5103&lt;/td&gt;
&lt;td&gt;30V&lt;/td&gt;
&lt;td&gt;760mA&lt;/td&gt;
&lt;td&gt;600 mOhm&lt;/td&gt;
&lt;td&gt;--&lt;/td&gt;
&lt;td&gt;75pF @ 25V&lt;/td&gt;
&lt;td&gt;Digikey: IRLML5103PBFCT-ND&lt;/td&gt;
&lt;/tr&gt;

&lt;tr&gt;
&lt;td&gt;IRLML6401&lt;/td&gt;
&lt;td&gt;12V&lt;/td&gt;
&lt;td&gt;4.3A&lt;/td&gt;
&lt;td&gt;50 mOhm&lt;/td&gt;
&lt;td&gt;950mV @ 250µA&lt;/td&gt;
&lt;td&gt;830pF @ 10V&lt;/td&gt;
&lt;td&gt;Digikey: IRLML6401PBFTR-ND&lt;/td&gt;
&lt;/tr&gt;

&lt;tr&gt;
&lt;td&gt;NTR0202PL&lt;/td&gt;
&lt;td&gt;20V&lt;/td&gt;
&lt;td&gt;400mA&lt;/td&gt;
&lt;td&gt;800 mOhm&lt;/td&gt;
&lt;td&gt;2.3V @ 250uA&lt;/td&gt;
&lt;td&gt;70pF @ 5V&lt;/td&gt;
&lt;td&gt;Digikey: NTR0202PLT1GOSTR-ND&lt;/td&gt;
&lt;/tr&gt;

&lt;tr&gt;
&lt;td&gt;NTR4101PT1G&lt;/td&gt;
&lt;td&gt;20V&lt;/td&gt;
&lt;td&gt;1.8A&lt;/td&gt;
&lt;td&gt;85 mOhm&lt;/td&gt;
&lt;td&gt;1.2V @ 250uA&lt;/td&gt;
&lt;td&gt;675pF @ 10V&lt;/td&gt;
&lt;td&gt;Digikey: NTR4101PT1GOSCT-ND&lt;/td&gt;
&lt;/tr&gt;

&lt;tr&gt;
&lt;td&gt;DMP2004K&lt;/td&gt;
&lt;td&gt;20V&lt;/td&gt;
&lt;td&gt;600mA&lt;/td&gt;
&lt;td&gt;900 mOhm&lt;/td&gt;
&lt;td&gt;1V @ 250uA&lt;/td&gt;
&lt;td&gt;175pF @ 16V&lt;/td&gt;
&lt;td&gt;Digikey: DMP2004KDICT-ND&lt;/td&gt;
&lt;/tr&gt;

&lt;tr&gt;
&lt;td&gt;PMV65XP&lt;/td&gt;
&lt;td&gt;20V&lt;/td&gt;
&lt;td&gt;3.9A&lt;/td&gt;
&lt;td&gt;76 mOhm&lt;/td&gt;
&lt;td&gt;950mV @ 1mA&lt;/td&gt;
&lt;td&gt;725pF @ 20V&lt;/td&gt;
&lt;td&gt;Digikey: 568-2358-2-ND&lt;/td&gt;
&lt;/tr&gt;

&lt;tr&gt;
&lt;td&gt;&lt;/td&gt;
&lt;td&gt;&lt;/td&gt;
&lt;td&gt;&lt;/td&gt;
&lt;td&gt;&lt;/td&gt;
&lt;td&gt;&lt;/td&gt;
&lt;td&gt;&lt;/td&gt;
&lt;td&gt;&lt;/td&gt;
&lt;/tr&gt;

&lt;tr&gt;
&lt;td&gt;&lt;/td&gt;
&lt;td&gt;&lt;/td&gt;
&lt;td&gt;&lt;/td&gt;
&lt;td&gt;&lt;/td&gt;
&lt;td&gt;&lt;/td&gt;
&lt;td&gt;&lt;/td&gt;
&lt;td&gt;&lt;/td&gt;
&lt;/tr&gt;
&lt;/table&gt; 
&lt;b&gt;TO-252&lt;/b&gt;
&lt;table border="0" width="90%" cellspacing="0" cellpadding="5"&gt;
&lt;tr bgcolor="#DDDDDD"&gt;
&lt;td&gt;Name&lt;/td&gt;
&lt;td&gt;VDS&lt;/td&gt;
&lt;td&gt;ID&lt;/td&gt;
&lt;td&gt;RDS(ON)&lt;/td&gt;
&lt;td&gt;VGS(TH)&lt;/td&gt;
&lt;td&gt;CISS&lt;/td&gt;
&lt;td&gt;Order Number&lt;/td&gt;
&lt;/tr&gt;

&lt;tr&gt;
&lt;td&gt;AOD417&lt;/td&gt;
&lt;td&gt;30V&lt;/td&gt;
&lt;td&gt;25A&lt;/td&gt;
&lt;td&gt;34 mOhm&lt;/td&gt;
&lt;td&gt;3V @ 250µA&lt;/td&gt;
&lt;td&gt;920pF @ 15V&lt;/td&gt;
&lt;td&gt;Digikey: 785-1106-2-ND&lt;/td&gt;
&lt;/tr&gt;
&lt;/table&gt;
&lt;/p&gt;</description>
<gates>
<gate name="G$1" symbol="MOSFET-P" x="0" y="0"/>
</gates>
<devices>
<device name="" package="SOT23-R">
<connects>
<connect gate="G$1" pin="D" pad="3"/>
<connect gate="G$1" pin="G" pad="1"/>
<connect gate="G$1" pin="S" pad="2"/>
</connects>
<technologies>
<technology name=""/>
</technologies>
</device>
<device name="TO252" package="TO252">
<connects>
<connect gate="G$1" pin="D" pad="3"/>
<connect gate="G$1" pin="G" pad="1"/>
<connect gate="G$1" pin="S" pad="2"/>
</connects>
<technologies>
<technology name=""/>
</technologies>
</device>
<device name="WIDE" package="SOT23-WIDE">
<connects>
<connect gate="G$1" pin="D" pad="3"/>
<connect gate="G$1" pin="G" pad="1"/>
<connect gate="G$1" pin="S" pad="2"/>
</connects>
<technologies>
<technology name=""/>
</technologies>
</device>
</devices>
</deviceset>
<deviceset name="RESISTOR" prefix="R" uservalue="yes">
<description>&lt;p&gt;&lt;b&gt;Resistors&lt;/b&gt;&lt;/p&gt;
&lt;b&gt;0402&lt;/b&gt; - 0402 Surface Mount Package
&lt;ul&gt;
&lt;li&gt;22 Ohm 1% 1/16W [Digikey: 311-22.0LRTR-ND]&lt;/li&gt;
&lt;li&gt;33 Ohm 5% 1/16W&lt;/li&gt;
&lt;li&gt;1.0K 5% 1/16W&lt;/li&gt;
&lt;li&gt;1.5K 5% 1/16W&lt;/li&gt;
&lt;li&gt;2.0K 1% 1/16W&lt;/li&gt;
&lt;li&gt;10.0K 1% 1/16W [Digikey: 311-10.0KLRTR-ND]&lt;/li&gt;
&lt;li&gt;10.0K 5% 1/16W [Digikey: RMCF0402JT10K0TR-ND]&lt;/li&gt;
&lt;li&gt;12.1K 1% 1/16W [Digikey: 311-22.0LRTR-ND]&lt;/li&gt;
&lt;li&gt;100.0K 5% 1/16W&lt;/li&gt;
&lt;/ul&gt;
&lt;b&gt;0603&lt;/b&gt; - 0603 Surface Mount Package&lt;br&gt;
&lt;ul&gt;
&lt;li&gt;0 Ohm 1/10 Watt 1% Resistor&lt;/li&gt;
&lt;li&gt;15 Ohm 1/10 Watt 1% Resistor&lt;/li&gt;
&lt;li&gt;33 Ohm 1/10 Watt 1% Resistor&lt;/li&gt;
&lt;li&gt;49.9 Ohm 1/10 Watt 1% Resistor&lt;/li&gt;
&lt;li&gt;100 Ohm 1/10 Watt 1% Resistor&lt;/li&gt;
&lt;li&gt;150 Ohm 1/10 Watt 1% Resistor&lt;/li&gt;
&lt;li&gt;240 Ohm 1/10 Watt 1% Resistor&lt;/li&gt;
&lt;li&gt;390 Ohm 1/10 Watt 1% Resistor&lt;/li&gt;
&lt;li&gt;560 Ohm 1/10 Watt 1% Resistor&lt;/li&gt;
&lt;li&gt;680 Ohm 1/10 Watt 1% Resistor&lt;/li&gt;
&lt;li&gt;750 Ohm 1/10 Watt 1% Resistor&lt;/li&gt;
&lt;li&gt;1.0K Ohm 1/10 Watt 1% Resistor&lt;/li&gt;
&lt;li&gt;1.5K Ohm 1/10 Watt 1% Resistor&lt;/li&gt;
&lt;li&gt;2.0K Ohm 1/10 Watt 1% Resistor&lt;/li&gt;
&lt;li&gt;2.2K Ohm 1/10 Watt 1% Resistor&lt;/li&gt;
&lt;li&gt;3.3K Ohm 1/10 Watt 1% Resistor&lt;/li&gt;
&lt;li&gt;4.7K Ohm 1/10 Watt 1% Resistor&lt;/li&gt;
&lt;li&gt;10.0K Ohm 1/10 Watt 1% Resistor&lt;/li&gt;
&lt;li&gt;12.0K Ohm 1/10 Watt 1% Resistor&lt;/li&gt;
&lt;li&gt;12.1K Ohm 1/10 Watt 1% Resistor&lt;/li&gt;
&lt;li&gt;20.0K Ohm 1/10 Watt 1% Resistor&lt;/li&gt;
&lt;li&gt;33.0K Ohm 1/10 Watt 1% Resistor&lt;/li&gt;
&lt;li&gt;100.0K Ohm 1/10 Watt 1% Resistor&lt;/li&gt;
&lt;/ul&gt;
&lt;b&gt;0805&lt;/b&gt; - 0805 Surface Mount Package
&lt;ul&gt;
&lt;li&gt;0 Ohm 1/8 Watt 1% Resistor&lt;/li&gt;
&lt;li&gt;33 Ohm 1/8 Watt 1% Resistor&lt;/li&gt;
&lt;li&gt;100 Ohm 1/8 Watt 1% Resistor&lt;/li&gt;
&lt;li&gt;150 Ohm 1/8 Watt 1% Resistor&lt;/li&gt;
&lt;li&gt;200 Ohm 1/8 Watt 1% Resistor&lt;/li&gt;
&lt;li&gt;240 Ohm 1/8 Watt 1% Resistor&lt;/li&gt;
&lt;li&gt;330 Ohm 1/8 Watt 1% Resistor&lt;/li&gt;
&lt;li&gt;390 Ohm 1/8 Watt 1% Resistor&lt;/li&gt;
&lt;li&gt;470 Ohm 1/8 Watt 1% Resistor&lt;/li&gt;
&lt;li&gt;1.0K Ohm 1/8 Watt 1% Resistor&lt;/li&gt;
&lt;li&gt;1.5K Ohm 1/8 Watt 1% Resistor&lt;/li&gt;
&lt;li&gt;2.0K Ohm 1/8 Watt 1% Resistor&lt;/li&gt;
&lt;li&gt;4.7K Ohm 1/8 Watt 1% Resistor&lt;/li&gt;
&lt;li&gt;5.1K Ohm 1/8 Watt 1% Resistor&lt;/li&gt;
&lt;li&gt;5.6K Ohm 1/8 Watt 1% Resistor&lt;/li&gt;
&lt;li&gt;10.0K Ohm 1/8 Watt 1% Resistor&lt;/li&gt;
&lt;li&gt;22.0K Ohm 1/8 Watt 1% Resistor&lt;/li&gt;
&lt;li&gt;33.0K Ohm 1/8 Watt 1% Resistor&lt;/li&gt;
&lt;li&gt;100K Ohm 1/8 Watt 1% Resistor&lt;/li&gt;
&lt;/ul&gt;
&lt;b&gt;1206&lt;/b&gt; - 1206 Surface Mount Package&lt;br/&gt;
&lt;br/&gt;
&lt;b&gt;2012&lt;/b&gt; - 2010 Surface Mount Package&lt;br/&gt;
&lt;ul&gt;&lt;li&gt;0.11 Ohm 1/2 Watt 1% Resistor - Digikey: RHM.11UCT-ND&lt;/li&gt;&lt;/ul&gt;</description>
<gates>
<gate name="G$1" symbol="RESISTOR" x="0" y="0"/>
</gates>
<devices>
<device name="0402" package="0402">
<connects>
<connect gate="G$1" pin="1" pad="1"/>
<connect gate="G$1" pin="2" pad="2"/>
</connects>
<technologies>
<technology name=""/>
</technologies>
</device>
<device name="0603" package="0603">
<connects>
<connect gate="G$1" pin="1" pad="1"/>
<connect gate="G$1" pin="2" pad="2"/>
</connects>
<technologies>
<technology name=""/>
</technologies>
</device>
<device name="0603MINI" package="0603-MINI">
<connects>
<connect gate="G$1" pin="1" pad="1"/>
<connect gate="G$1" pin="2" pad="2"/>
</connects>
<technologies>
<technology name=""/>
</technologies>
</device>
<device name="0805" package="0805">
<connects>
<connect gate="G$1" pin="1" pad="1"/>
<connect gate="G$1" pin="2" pad="2"/>
</connects>
<technologies>
<technology name=""/>
</technologies>
</device>
<device name="0805_NOTHERMALS" package="0805_NOTHERMALS">
<connects>
<connect gate="G$1" pin="1" pad="1"/>
<connect gate="G$1" pin="2" pad="2"/>
</connects>
<technologies>
<technology name=""/>
</technologies>
</device>
<device name="1206" package="1206">
<connects>
<connect gate="G$1" pin="1" pad="1"/>
<connect gate="G$1" pin="2" pad="2"/>
</connects>
<technologies>
<technology name=""/>
</technologies>
</device>
<device name="2012" package="2012">
<connects>
<connect gate="G$1" pin="1" pad="1"/>
<connect gate="G$1" pin="2" pad="2"/>
</connects>
<technologies>
<technology name=""/>
</technologies>
</device>
<device name="2512" package="2512">
<connects>
<connect gate="G$1" pin="1" pad="1"/>
<connect gate="G$1" pin="2" pad="2"/>
</connects>
<technologies>
<technology name=""/>
</technologies>
</device>
<device name="_0402" package="_0402">
<connects>
<connect gate="G$1" pin="1" pad="1"/>
<connect gate="G$1" pin="2" pad="2"/>
</connects>
<technologies>
<technology name=""/>
</technologies>
</device>
<device name="_0402MP" package="_0402MP">
<connects>
<connect gate="G$1" pin="1" pad="1"/>
<connect gate="G$1" pin="2" pad="2"/>
</connects>
<technologies>
<technology name=""/>
</technologies>
</device>
<device name="_0603" package="_0603">
<connects>
<connect gate="G$1" pin="1" pad="1"/>
<connect gate="G$1" pin="2" pad="2"/>
</connects>
<technologies>
<technology name=""/>
</technologies>
</device>
<device name="_0603MP" package="_0603MP">
<connects>
<connect gate="G$1" pin="1" pad="1"/>
<connect gate="G$1" pin="2" pad="2"/>
</connects>
<technologies>
<technology name=""/>
</technologies>
</device>
<device name="_0805" package="_0805">
<connects>
<connect gate="G$1" pin="1" pad="1"/>
<connect gate="G$1" pin="2" pad="2"/>
</connects>
<technologies>
<technology name=""/>
</technologies>
</device>
<device name="_0805MP" package="_0805MP">
<connects>
<connect gate="G$1" pin="1" pad="1"/>
<connect gate="G$1" pin="2" pad="2"/>
</connects>
<technologies>
<technology name=""/>
</technologies>
</device>
</devices>
</deviceset>
<deviceset name="RESISTOR_4PACK" prefix="R" uservalue="yes">
<description>&lt;b&gt;Resistor Packs (4 resistors)&lt;/b&gt;
&lt;p&gt;&lt;b&gt;4 x 0603&lt;/b&gt;&lt;/p&gt;
&lt;ul&gt;&lt;li&gt;10K 1/16W - Digikey: YC164J-10KCT-ND&lt;/li&gt;&lt;/ul&gt;</description>
<gates>
<gate name="G$1" symbol="RESISTOR" x="0" y="10.16"/>
<gate name="G$2" symbol="RESISTOR" x="0" y="2.54"/>
<gate name="G$3" symbol="RESISTOR" x="0" y="-5.08"/>
<gate name="G$4" symbol="RESISTOR" x="0" y="-12.7"/>
</gates>
<devices>
<device name="" package="RESPACK_4X0603">
<connects>
<connect gate="G$1" pin="1" pad="1"/>
<connect gate="G$1" pin="2" pad="8"/>
<connect gate="G$2" pin="1" pad="2"/>
<connect gate="G$2" pin="2" pad="7"/>
<connect gate="G$3" pin="1" pad="3"/>
<connect gate="G$3" pin="2" pad="6"/>
<connect gate="G$4" pin="1" pad="4"/>
<connect gate="G$4" pin="2" pad="5"/>
</connects>
<technologies>
<technology name=""/>
</technologies>
</device>
</devices>
</deviceset>
<deviceset name="VBAT">
<description>VBAT Supply Sumbol</description>
<gates>
<gate name="G$1" symbol="VBAT" x="0" y="0"/>
</gates>
<devices>
<device name="">
<technologies>
<technology name=""/>
</technologies>
</device>
</devices>
</deviceset>
</devicesets>
</library>
</drawing>
</eagle>
