<!--This work is licensed under a Creative Commons Attribution-ShareAlike 4.0 International License (CC BY-SA) with Design Exception 1.0-->
<eagle version="7.1.0">
<drawing>
<settings>
<setting alwaysvectorfont="no"/>
<setting verticaltext="up"/>
</settings>
<grid distance="0.1" unitdist="inch" unit="inch" style="lines" multiple="1" display="no" altdistance="0.01" altunitdist="inch" altunit="inch"/>
<layers>
<layer number="1" name="Top" color="4" fill="1" visible="yes" active="yes"/>
<layer number="16" name="Bottom" color="1" fill="1" visible="yes" active="yes"/>
<layer number="17" name="Pads" color="2" fill="1" visible="yes" active="yes"/>
<layer number="18" name="Vias" color="2" fill="1" visible="yes" active="yes"/>
<layer number="19" name="Unrouted" color="6" fill="1" visible="yes" active="yes"/>
<layer number="20" name="Dimension" color="15" fill="1" visible="yes" active="yes"/>
<layer number="21" name="tPlace" color="7" fill="1" visible="yes" active="yes"/>
<layer number="22" name="bPlace" color="7" fill="1" visible="yes" active="yes"/>
<layer number="23" name="tOrigins" color="15" fill="1" visible="yes" active="yes"/>
<layer number="24" name="bOrigins" color="15" fill="1" visible="yes" active="yes"/>
<layer number="25" name="tNames" color="7" fill="1" visible="yes" active="yes"/>
<layer number="26" name="bNames" color="7" fill="1" visible="yes" active="yes"/>
<layer number="27" name="tValues" color="7" fill="1" visible="yes" active="yes"/>
<layer number="28" name="bValues" color="7" fill="1" visible="yes" active="yes"/>
<layer number="29" name="tStop" color="7" fill="3" visible="yes" active="yes"/>
<layer number="30" name="bStop" color="7" fill="6" visible="no" active="yes"/>
<layer number="31" name="tCream" color="7" fill="4" visible="yes" active="yes"/>
<layer number="32" name="bCream" color="7" fill="5" visible="no" active="yes"/>
<layer number="33" name="tFinish" color="6" fill="3" visible="no" active="yes"/>
<layer number="34" name="bFinish" color="6" fill="6" visible="no" active="yes"/>
<layer number="35" name="tGlue" color="7" fill="4" visible="no" active="yes"/>
<layer number="36" name="bGlue" color="7" fill="5" visible="no" active="yes"/>
<layer number="37" name="tTest" color="7" fill="1" visible="no" active="yes"/>
<layer number="38" name="bTest" color="7" fill="1" visible="no" active="yes"/>
<layer number="39" name="tKeepout" color="4" fill="11" visible="yes" active="yes"/>
<layer number="40" name="bKeepout" color="1" fill="11" visible="yes" active="yes"/>
<layer number="41" name="tRestrict" color="4" fill="10" visible="yes" active="yes"/>
<layer number="42" name="bRestrict" color="1" fill="10" visible="yes" active="yes"/>
<layer number="43" name="vRestrict" color="2" fill="10" visible="yes" active="yes"/>
<layer number="44" name="Drills" color="7" fill="1" visible="no" active="yes"/>
<layer number="45" name="Holes" color="7" fill="1" visible="no" active="yes"/>
<layer number="46" name="Milling" color="3" fill="1" visible="no" active="yes"/>
<layer number="47" name="Measures" color="7" fill="1" visible="no" active="yes"/>
<layer number="48" name="Document" color="7" fill="1" visible="yes" active="yes"/>
<layer number="49" name="Reference" color="7" fill="1" visible="yes" active="yes"/>
<layer number="51" name="tDocu" color="7" fill="1" visible="yes" active="yes"/>
<layer number="52" name="bDocu" color="7" fill="1" visible="yes" active="yes"/>
<layer number="90" name="Modules" color="5" fill="1" visible="yes" active="yes"/>
<layer number="91" name="Nets" color="2" fill="1" visible="yes" active="yes"/>
<layer number="92" name="Busses" color="1" fill="1" visible="yes" active="yes"/>
<layer number="93" name="Pins" color="2" fill="1" visible="yes" active="yes"/>
<layer number="94" name="Symbols" color="4" fill="1" visible="yes" active="yes"/>
<layer number="95" name="Names" color="7" fill="1" visible="yes" active="yes"/>
<layer number="96" name="Values" color="7" fill="1" visible="yes" active="yes"/>
<layer number="97" name="Info" color="7" fill="1" visible="yes" active="yes"/>
<layer number="98" name="Guide" color="6" fill="1" visible="yes" active="yes"/>
</layers>
<library>
<packages>
<package name="DIP254P762X508-14">
<wire x1="-0.635" y1="16.383" x2="-0.635" y2="17.399" width="0.1524" layer="21"/>
<wire x1="-6.985" y1="-2.159" x2="-0.635" y2="-2.159" width="0.1524" layer="21"/>
<wire x1="-0.635" y1="-2.159" x2="-0.635" y2="-1.143" width="0.1524" layer="21"/>
<wire x1="-0.635" y1="17.399" x2="-3.5052" y2="17.399" width="0.1524" layer="21"/>
<wire x1="-3.5052" y1="17.399" x2="-4.1148" y2="17.399" width="0.1524" layer="21"/>
<wire x1="-4.1148" y1="17.399" x2="-6.985" y2="17.399" width="0.1524" layer="21"/>
<wire x1="-6.985" y1="17.399" x2="-6.985" y2="16.5608" width="0.1524" layer="21"/>
<wire x1="-6.985" y1="-1.143" x2="-6.985" y2="-2.159" width="0.1524" layer="21"/>
<wire x1="-3.5052" y1="17.399" x2="-4.1148" y2="17.399" width="0" layer="21" curve="-180"/>
<wire x1="-6.985" y1="14.6812" x2="-6.985" y2="15.7988" width="0.1524" layer="51"/>
<wire x1="-6.985" y1="15.7988" x2="-8.1788" y2="15.7988" width="0.1524" layer="51"/>
<wire x1="-8.1788" y1="15.7988" x2="-8.1788" y2="14.6812" width="0.1524" layer="51"/>
<wire x1="-8.1788" y1="14.6812" x2="-6.985" y2="14.6812" width="0.1524" layer="51"/>
<wire x1="-6.985" y1="12.1412" x2="-6.985" y2="13.2588" width="0.1524" layer="51"/>
<wire x1="-6.985" y1="13.2588" x2="-8.1788" y2="13.2588" width="0.1524" layer="51"/>
<wire x1="-8.1788" y1="13.2588" x2="-8.1788" y2="12.1412" width="0.1524" layer="51"/>
<wire x1="-8.1788" y1="12.1412" x2="-6.985" y2="12.1412" width="0.1524" layer="51"/>
<wire x1="-6.985" y1="9.6012" x2="-6.985" y2="10.7188" width="0.1524" layer="51"/>
<wire x1="-6.985" y1="10.7188" x2="-8.1788" y2="10.7188" width="0.1524" layer="51"/>
<wire x1="-8.1788" y1="10.7188" x2="-8.1788" y2="9.6012" width="0.1524" layer="51"/>
<wire x1="-8.1788" y1="9.6012" x2="-6.985" y2="9.6012" width="0.1524" layer="51"/>
<wire x1="-6.985" y1="7.0612" x2="-6.985" y2="8.1788" width="0.1524" layer="51"/>
<wire x1="-6.985" y1="8.1788" x2="-8.1788" y2="8.1788" width="0.1524" layer="51"/>
<wire x1="-8.1788" y1="8.1788" x2="-8.1788" y2="7.0612" width="0.1524" layer="51"/>
<wire x1="-8.1788" y1="7.0612" x2="-6.985" y2="7.0612" width="0.1524" layer="51"/>
<wire x1="-6.985" y1="4.5212" x2="-6.985" y2="5.6388" width="0.1524" layer="51"/>
<wire x1="-6.985" y1="5.6388" x2="-8.1788" y2="5.6388" width="0.1524" layer="51"/>
<wire x1="-8.1788" y1="5.6388" x2="-8.1788" y2="4.5212" width="0.1524" layer="51"/>
<wire x1="-8.1788" y1="4.5212" x2="-6.985" y2="4.5212" width="0.1524" layer="51"/>
<wire x1="-6.985" y1="1.9812" x2="-6.985" y2="3.0988" width="0.1524" layer="51"/>
<wire x1="-6.985" y1="3.0988" x2="-8.1788" y2="3.0988" width="0.1524" layer="51"/>
<wire x1="-8.1788" y1="3.0988" x2="-8.1788" y2="1.9812" width="0.1524" layer="51"/>
<wire x1="-8.1788" y1="1.9812" x2="-6.985" y2="1.9812" width="0.1524" layer="51"/>
<wire x1="-6.985" y1="-0.5588" x2="-6.985" y2="0.5588" width="0.1524" layer="51"/>
<wire x1="-6.985" y1="0.5588" x2="-8.1788" y2="0.5588" width="0.1524" layer="51"/>
<wire x1="-8.1788" y1="0.5588" x2="-8.1788" y2="-0.5588" width="0.1524" layer="51"/>
<wire x1="-8.1788" y1="-0.5588" x2="-6.985" y2="-0.5588" width="0.1524" layer="51"/>
<wire x1="-0.635" y1="0.5588" x2="-0.635" y2="-0.5588" width="0.1524" layer="51"/>
<wire x1="-0.635" y1="-0.5588" x2="0.5588" y2="-0.5588" width="0.1524" layer="51"/>
<wire x1="0.5588" y1="-0.5588" x2="0.5588" y2="0.5588" width="0.1524" layer="51"/>
<wire x1="0.5588" y1="0.5588" x2="-0.635" y2="0.5588" width="0.1524" layer="51"/>
<wire x1="-0.635" y1="3.0988" x2="-0.635" y2="1.9812" width="0.1524" layer="51"/>
<wire x1="-0.635" y1="1.9812" x2="0.5588" y2="1.9812" width="0.1524" layer="51"/>
<wire x1="0.5588" y1="1.9812" x2="0.5588" y2="3.0988" width="0.1524" layer="51"/>
<wire x1="0.5588" y1="3.0988" x2="-0.635" y2="3.0988" width="0.1524" layer="51"/>
<wire x1="-0.635" y1="5.6388" x2="-0.635" y2="4.5212" width="0.1524" layer="51"/>
<wire x1="-0.635" y1="4.5212" x2="0.5588" y2="4.5212" width="0.1524" layer="51"/>
<wire x1="0.5588" y1="4.5212" x2="0.5588" y2="5.6388" width="0.1524" layer="51"/>
<wire x1="0.5588" y1="5.6388" x2="-0.635" y2="5.6388" width="0.1524" layer="51"/>
<wire x1="-0.635" y1="8.1788" x2="-0.635" y2="7.0612" width="0.1524" layer="51"/>
<wire x1="-0.635" y1="7.0612" x2="0.5588" y2="7.0612" width="0.1524" layer="51"/>
<wire x1="0.5588" y1="7.0612" x2="0.5588" y2="8.1788" width="0.1524" layer="51"/>
<wire x1="0.5588" y1="8.1788" x2="-0.635" y2="8.1788" width="0.1524" layer="51"/>
<wire x1="-0.635" y1="10.7188" x2="-0.635" y2="9.6012" width="0.1524" layer="51"/>
<wire x1="-0.635" y1="9.6012" x2="0.5588" y2="9.6012" width="0.1524" layer="51"/>
<wire x1="0.5588" y1="9.6012" x2="0.5588" y2="10.7188" width="0.1524" layer="51"/>
<wire x1="0.5588" y1="10.7188" x2="-0.635" y2="10.7188" width="0.1524" layer="51"/>
<wire x1="-0.635" y1="13.2588" x2="-0.635" y2="12.1412" width="0.1524" layer="51"/>
<wire x1="-0.635" y1="12.1412" x2="0.5588" y2="12.1412" width="0.1524" layer="51"/>
<wire x1="0.5588" y1="12.1412" x2="0.5588" y2="13.2588" width="0.1524" layer="51"/>
<wire x1="0.5588" y1="13.2588" x2="-0.635" y2="13.2588" width="0.1524" layer="51"/>
<wire x1="-0.635" y1="15.7988" x2="-0.635" y2="14.6812" width="0.1524" layer="51"/>
<wire x1="-0.635" y1="14.6812" x2="0.5588" y2="14.6812" width="0.1524" layer="51"/>
<wire x1="0.5588" y1="14.6812" x2="0.5588" y2="15.7988" width="0.1524" layer="51"/>
<wire x1="0.5588" y1="15.7988" x2="-0.635" y2="15.7988" width="0.1524" layer="51"/>
<wire x1="-6.985" y1="-2.159" x2="-0.635" y2="-2.159" width="0.1524" layer="51"/>
<wire x1="-0.635" y1="-2.159" x2="-0.635" y2="17.399" width="0.1524" layer="51"/>
<wire x1="-0.635" y1="17.399" x2="-3.5052" y2="17.399" width="0.1524" layer="51"/>
<wire x1="-3.5052" y1="17.399" x2="-4.1148" y2="17.399" width="0.1524" layer="51"/>
<wire x1="-4.1148" y1="17.399" x2="-6.985" y2="17.399" width="0.1524" layer="51"/>
<wire x1="-6.985" y1="17.399" x2="-6.985" y2="-2.159" width="0.1524" layer="51"/>
<wire x1="-3.5052" y1="17.399" x2="-4.1148" y2="17.399" width="0" layer="51" curve="-180"/>
<text x="-8.42102" y="18.572" size="2.08617" layer="25" ratio="10" rot="SR0">&gt;NAME</text>
<text x="-9.45013" y="-4.9537" size="2.08309" layer="27" ratio="10" rot="SR0">&gt;VALUE</text>
<pad name="1" x="-7.62" y="15.24" drill="1.1176" shape="square"/>
<pad name="2" x="-7.62" y="12.7" drill="1.1176"/>
<pad name="3" x="-7.62" y="10.16" drill="1.1176"/>
<pad name="4" x="-7.62" y="7.62" drill="1.1176"/>
<pad name="5" x="-7.62" y="5.08" drill="1.1176"/>
<pad name="6" x="-7.62" y="2.54" drill="1.1176"/>
<pad name="7" x="-7.62" y="0" drill="1.1176"/>
<pad name="8" x="0" y="0" drill="1.1176"/>
<pad name="9" x="0" y="2.54" drill="1.1176"/>
<pad name="10" x="0" y="5.08" drill="1.1176"/>
<pad name="11" x="0" y="7.62" drill="1.1176"/>
<pad name="12" x="0" y="10.16" drill="1.1176"/>
<pad name="13" x="0" y="12.7" drill="1.1176"/>
<pad name="14" x="0" y="15.24" drill="1.1176"/>
</package>
</packages>
<symbols>
<symbol name="LM324N">
<wire x1="-12.7" y1="22.86" x2="-12.7" y2="-27.94" width="0.4064" layer="94"/>
<wire x1="-12.7" y1="-27.94" x2="12.7" y2="-27.94" width="0.4064" layer="94"/>
<wire x1="12.7" y1="-27.94" x2="12.7" y2="22.86" width="0.4064" layer="94"/>
<wire x1="12.7" y1="22.86" x2="-12.7" y2="22.86" width="0.4064" layer="94"/>
<text x="-4.63035" y="24.3984" size="2.0862" layer="95" ratio="10" rot="SR0">&gt;NAME</text>
<text x="-5.18373" y="-30.3909" size="2.08366" layer="96" ratio="10" rot="SR0">&gt;VALUE</text>
<pin name="V+" x="-17.78" y="15.24" length="middle" direction="pas"/>
<pin name="+INA_" x="-17.78" y="10.16" length="middle" direction="in"/>
<pin name="-INA" x="-17.78" y="7.62" length="middle" direction="in"/>
<pin name="+INB" x="-17.78" y="2.54" length="middle" direction="in"/>
<pin name="-INB" x="-17.78" y="0" length="middle" direction="in"/>
<pin name="+INC" x="-17.78" y="-5.08" length="middle" direction="in"/>
<pin name="-INC" x="-17.78" y="-7.62" length="middle" direction="in"/>
<pin name="+IND" x="-17.78" y="-12.7" length="middle" direction="in"/>
<pin name="-IND" x="-17.78" y="-15.24" length="middle" direction="in"/>
<pin name="V-" x="-17.78" y="-20.32" length="middle" direction="pas"/>
<pin name="OUTD" x="17.78" y="-15.24" length="middle" direction="out" rot="R180"/>
<pin name="OUTC" x="17.78" y="-7.62" length="middle" direction="out" rot="R180"/>
<pin name="OUTB" x="17.78" y="0" length="middle" direction="out" rot="R180"/>
<pin name="OUTA" x="17.78" y="7.62" length="middle" direction="out" rot="R180"/>
</symbol>
</symbols>
<devicesets>
<deviceset name="LM324N" prefix="U">
<description>Low Power Quad Operational Amplifiers</description>
<gates>
<gate name="A" symbol="LM324N" x="0" y="0"/>
</gates>
<devices>
<device name="" package="DIP254P762X508-14">
<connects>
<connect gate="A" pin="+INA_" pad="3"/>
<connect gate="A" pin="+INB" pad="5"/>
<connect gate="A" pin="+INC" pad="10"/>
<connect gate="A" pin="+IND" pad="12"/>
<connect gate="A" pin="-INA" pad="2"/>
<connect gate="A" pin="-INB" pad="6"/>
<connect gate="A" pin="-INC" pad="9"/>
<connect gate="A" pin="-IND" pad="13"/>
<connect gate="A" pin="OUTA" pad="1"/>
<connect gate="A" pin="OUTB" pad="7"/>
<connect gate="A" pin="OUTC" pad="8"/>
<connect gate="A" pin="OUTD" pad="14"/>
<connect gate="A" pin="V+" pad="4"/>
<connect gate="A" pin="V-" pad="11"/>
</connects>
<technologies>
<technology name="">
<attribute name="Package" value="PDIP-14 Motorola"/>
<attribute name="MP" value="LM324N"/>
<attribute name="Price" value="None"/>
<attribute name="Availability" value="Unavailable"/>
<attribute name="MF" value="ON Semiconductor"/>
<attribute name="Description" value="
Ic Opamp Gp 1.2mhz 14dip
"/>
</technology>
</technologies>
</device>
</devices>
</deviceset>
</devicesets>
</library>
</drawing>
</eagle>
