<?xml version="1.0" encoding="utf-8"?>
<!DOCTYPE eagle SYSTEM "eagle.dtd">
<eagle version="7.7.0">
<drawing>
<settings>
<setting alwaysvectorfont="no"/>
<setting verticaltext="up"/>
</settings>
<grid distance="0.1" unitdist="inch" unit="mil" style="lines" multiple="1" display="no" altdistance="0.01" altunitdist="inch" altunit="inch"/>
<layers>
<layer number="1" name="Top" color="4" fill="1" visible="yes" active="yes"/>
<layer number="2" name="Route2" color="1" fill="3" visible="no" active="yes"/>
<layer number="3" name="Route3" color="4" fill="3" visible="no" active="yes"/>
<layer number="4" name="Route4" color="1" fill="4" visible="no" active="yes"/>
<layer number="5" name="Route5" color="4" fill="4" visible="no" active="yes"/>
<layer number="6" name="Route6" color="1" fill="8" visible="no" active="yes"/>
<layer number="7" name="Route7" color="4" fill="8" visible="no" active="yes"/>
<layer number="8" name="Route8" color="1" fill="2" visible="no" active="yes"/>
<layer number="9" name="Route9" color="4" fill="2" visible="no" active="yes"/>
<layer number="10" name="Route10" color="1" fill="7" visible="no" active="yes"/>
<layer number="11" name="Route11" color="4" fill="7" visible="no" active="yes"/>
<layer number="12" name="Route12" color="1" fill="5" visible="no" active="yes"/>
<layer number="13" name="Route13" color="4" fill="5" visible="no" active="yes"/>
<layer number="14" name="Route14" color="1" fill="6" visible="no" active="yes"/>
<layer number="15" name="Route15" color="4" fill="6" visible="no" active="yes"/>
<layer number="16" name="Bottom" color="1" fill="1" visible="yes" active="yes"/>
<layer number="17" name="Pads" color="2" fill="1" visible="yes" active="yes"/>
<layer number="18" name="Vias" color="2" fill="1" visible="yes" active="yes"/>
<layer number="19" name="Unrouted" color="6" fill="1" visible="yes" active="yes"/>
<layer number="20" name="Dimension" color="15" fill="1" visible="yes" active="yes"/>
<layer number="21" name="tPlace" color="7" fill="1" visible="yes" active="yes"/>
<layer number="22" name="bPlace" color="7" fill="1" visible="yes" active="yes"/>
<layer number="23" name="tOrigins" color="15" fill="1" visible="yes" active="yes"/>
<layer number="24" name="bOrigins" color="15" fill="1" visible="yes" active="yes"/>
<layer number="25" name="tNames" color="7" fill="1" visible="yes" active="yes"/>
<layer number="26" name="bNames" color="7" fill="1" visible="yes" active="yes"/>
<layer number="27" name="tValues" color="7" fill="1" visible="yes" active="yes"/>
<layer number="28" name="bValues" color="7" fill="1" visible="yes" active="yes"/>
<layer number="29" name="tStop" color="7" fill="3" visible="no" active="yes"/>
<layer number="30" name="bStop" color="7" fill="6" visible="no" active="yes"/>
<layer number="31" name="tCream" color="7" fill="4" visible="no" active="yes"/>
<layer number="32" name="bCream" color="7" fill="5" visible="no" active="yes"/>
<layer number="33" name="tFinish" color="6" fill="3" visible="no" active="yes"/>
<layer number="34" name="bFinish" color="6" fill="6" visible="no" active="yes"/>
<layer number="35" name="tGlue" color="7" fill="4" visible="no" active="yes"/>
<layer number="36" name="bGlue" color="7" fill="5" visible="no" active="yes"/>
<layer number="37" name="tTest" color="7" fill="1" visible="no" active="yes"/>
<layer number="38" name="bTest" color="7" fill="1" visible="no" active="yes"/>
<layer number="39" name="tKeepout" color="4" fill="11" visible="yes" active="yes"/>
<layer number="40" name="bKeepout" color="1" fill="11" visible="yes" active="yes"/>
<layer number="41" name="tRestrict" color="4" fill="10" visible="yes" active="yes"/>
<layer number="42" name="bRestrict" color="1" fill="10" visible="yes" active="yes"/>
<layer number="43" name="vRestrict" color="2" fill="10" visible="yes" active="yes"/>
<layer number="44" name="Drills" color="7" fill="1" visible="no" active="yes"/>
<layer number="45" name="Holes" color="7" fill="1" visible="no" active="yes"/>
<layer number="46" name="Milling" color="3" fill="1" visible="no" active="yes"/>
<layer number="47" name="Measures" color="7" fill="1" visible="no" active="yes"/>
<layer number="48" name="Document" color="7" fill="1" visible="yes" active="yes"/>
<layer number="49" name="Reference" color="7" fill="1" visible="yes" active="yes"/>
<layer number="51" name="tDocu" color="7" fill="1" visible="yes" active="yes"/>
<layer number="52" name="bDocu" color="7" fill="1" visible="yes" active="yes"/>
<layer number="90" name="Modules" color="5" fill="1" visible="yes" active="yes"/>
<layer number="91" name="Nets" color="2" fill="1" visible="yes" active="yes"/>
<layer number="92" name="Busses" color="1" fill="1" visible="yes" active="yes"/>
<layer number="93" name="Pins" color="2" fill="1" visible="yes" active="yes"/>
<layer number="94" name="Symbols" color="4" fill="1" visible="yes" active="yes"/>
<layer number="95" name="Names" color="7" fill="1" visible="yes" active="yes"/>
<layer number="96" name="Values" color="7" fill="1" visible="yes" active="yes"/>
<layer number="97" name="Info" color="7" fill="1" visible="yes" active="yes"/>
<layer number="98" name="Guide" color="6" fill="1" visible="yes" active="yes"/>
</layers>
<library>
<packages>
<package name="PWP0016C_N">
<smd name="1" x="-2.95" y="2.275" dx="0.45" dy="1.4" layer="1" rot="R90"/>
<smd name="2" x="-2.95" y="1.624996875" dx="0.45" dy="1.4" layer="1" rot="R90"/>
<smd name="3" x="-2.95" y="0.975" dx="0.45" dy="1.4" layer="1" rot="R90"/>
<smd name="4" x="-2.95" y="0.324996875" dx="0.45" dy="1.4" layer="1" rot="R90"/>
<smd name="5" x="-2.95" y="-0.325" dx="0.45" dy="1.4" layer="1" rot="R90"/>
<smd name="6" x="-2.95" y="-0.975003125" dx="0.45" dy="1.4" layer="1" rot="R90"/>
<smd name="7" x="-2.95" y="-1.625" dx="0.45" dy="1.4" layer="1" rot="R90"/>
<smd name="8" x="-2.95" y="-2.275003125" dx="0.45" dy="1.4" layer="1" rot="R90"/>
<smd name="9" x="2.950003125" y="-2.275003125" dx="0.45" dy="1.4" layer="1" rot="R90"/>
<smd name="10" x="2.950003125" y="-1.625" dx="0.45" dy="1.4" layer="1" rot="R90"/>
<smd name="11" x="2.950003125" y="-0.975003125" dx="0.45" dy="1.4" layer="1" rot="R90"/>
<smd name="12" x="2.950003125" y="-0.325" dx="0.45" dy="1.4" layer="1" rot="R90"/>
<smd name="13" x="2.950003125" y="0.324996875" dx="0.45" dy="1.4" layer="1" rot="R90"/>
<smd name="14" x="2.950003125" y="0.975" dx="0.45" dy="1.4" layer="1" rot="R90"/>
<smd name="15" x="2.950003125" y="1.624996875" dx="0.45" dy="1.4" layer="1" rot="R90"/>
<smd name="16" x="2.950003125" y="2.275" dx="0.45" dy="1.4" layer="1" rot="R90"/>
<smd name="17" x="0" y="0" dx="2.46" dy="2.56" layer="1"/>
<smd name="V" x="0.55" y="-0.55" dx="0.5" dy="0.5" layer="1" roundness="100"/>
<wire x1="-3.556" y1="2.7432" x2="1.4986" y2="2.7432" width="0.2032" layer="21"/>
<wire x1="-1.4986" y1="-2.54" x2="1.4986" y2="-2.54" width="0.2032" layer="21"/>
<text x="-3.683" y="3.4798" size="1.27" layer="21" ratio="6" rot="SR0">Designator15</text>
<wire x1="2.1844" y1="-2.159" x2="3.2004" y2="-2.159" width="0.1524" layer="51"/>
<wire x1="2.1844" y1="-2.3622" x2="2.1844" y2="-2.286" width="0.1524" layer="51"/>
<wire x1="2.1844" y1="-2.286" x2="2.1844" y2="-2.159" width="0.1524" layer="51"/>
<wire x1="3.2004" y1="-2.3622" x2="3.2004" y2="-2.159" width="0.1524" layer="51"/>
<wire x1="2.1844" y1="-2.3622" x2="3.2004" y2="-2.3622" width="0.1524" layer="51"/>
<wire x1="2.1844" y1="-1.4986" x2="3.2004" y2="-1.4986" width="0.1524" layer="51"/>
<wire x1="2.1844" y1="-1.7272" x2="2.1844" y2="-1.4986" width="0.1524" layer="51"/>
<wire x1="3.2004" y1="-1.7272" x2="3.2004" y2="-1.4986" width="0.1524" layer="51"/>
<wire x1="2.1844" y1="-1.7272" x2="3.2004" y2="-1.7272" width="0.1524" layer="51"/>
<wire x1="2.1844" y1="-0.8382" x2="3.2004" y2="-0.8382" width="0.1524" layer="51"/>
<wire x1="2.1844" y1="-1.0668" x2="2.1844" y2="-0.8382" width="0.1524" layer="51"/>
<wire x1="3.2004" y1="-1.0668" x2="3.2004" y2="-0.8382" width="0.1524" layer="51"/>
<wire x1="2.1844" y1="-1.0668" x2="3.2004" y2="-1.0668" width="0.1524" layer="51"/>
<wire x1="2.1844" y1="-0.2032" x2="3.2004" y2="-0.2032" width="0.1524" layer="51"/>
<wire x1="2.1844" y1="-0.4318" x2="2.1844" y2="-0.2032" width="0.1524" layer="51"/>
<wire x1="3.2004" y1="-0.4318" x2="3.2004" y2="-0.2032" width="0.1524" layer="51"/>
<wire x1="2.1844" y1="-0.4318" x2="3.2004" y2="-0.4318" width="0.1524" layer="51"/>
<wire x1="2.1844" y1="0.4572" x2="3.2004" y2="0.4572" width="0.1524" layer="51"/>
<wire x1="2.1844" y1="0.2286" x2="2.1844" y2="0.4572" width="0.1524" layer="51"/>
<wire x1="3.2004" y1="0.2286" x2="3.2004" y2="0.4572" width="0.1524" layer="51"/>
<wire x1="2.1844" y1="0.2286" x2="3.2004" y2="0.2286" width="0.1524" layer="51"/>
<wire x1="2.1844" y1="1.0922" x2="3.2004" y2="1.0922" width="0.1524" layer="51"/>
<wire x1="2.1844" y1="0.889" x2="2.1844" y2="1.0922" width="0.1524" layer="51"/>
<wire x1="3.2004" y1="0.889" x2="3.2004" y2="1.0922" width="0.1524" layer="51"/>
<wire x1="2.1844" y1="0.889" x2="3.2004" y2="0.889" width="0.1524" layer="51"/>
<wire x1="2.1844" y1="1.7526" x2="3.2004" y2="1.7526" width="0.1524" layer="51"/>
<wire x1="2.1844" y1="1.524" x2="2.1844" y2="1.7526" width="0.1524" layer="51"/>
<wire x1="3.2004" y1="1.524" x2="3.2004" y2="1.7526" width="0.1524" layer="51"/>
<wire x1="2.1844" y1="1.524" x2="3.2004" y2="1.524" width="0.1524" layer="51"/>
<wire x1="2.1844" y1="2.3876" x2="3.2004" y2="2.3876" width="0.1524" layer="51"/>
<wire x1="2.1844" y1="2.1844" x2="2.1844" y2="2.3114" width="0.1524" layer="51"/>
<wire x1="2.1844" y1="2.3114" x2="2.1844" y2="2.3876" width="0.1524" layer="51"/>
<wire x1="3.2004" y1="2.1844" x2="3.2004" y2="2.3876" width="0.1524" layer="51"/>
<wire x1="2.1844" y1="2.1844" x2="3.2004" y2="2.1844" width="0.1524" layer="51"/>
<wire x1="-3.2258" y1="-2.3622" x2="-2.2098" y2="-2.3622" width="0.1524" layer="51"/>
<wire x1="-2.2098" y1="-2.3622" x2="-2.2098" y2="-2.286" width="0.1524" layer="51"/>
<wire x1="-2.2098" y1="-2.286" x2="-2.2098" y2="-2.159" width="0.1524" layer="51"/>
<wire x1="-3.2258" y1="-2.3622" x2="-3.2258" y2="-2.159" width="0.1524" layer="51"/>
<wire x1="-3.2258" y1="-2.159" x2="-2.2098" y2="-2.159" width="0.1524" layer="51"/>
<wire x1="-3.2258" y1="-1.7272" x2="-2.2098" y2="-1.7272" width="0.1524" layer="51"/>
<wire x1="-2.2098" y1="-1.7272" x2="-2.2098" y2="-1.4986" width="0.1524" layer="51"/>
<wire x1="-3.2258" y1="-1.7272" x2="-3.2258" y2="-1.4986" width="0.1524" layer="51"/>
<wire x1="-3.2258" y1="-1.4986" x2="-2.2098" y2="-1.4986" width="0.1524" layer="51"/>
<wire x1="-3.2258" y1="-1.0668" x2="-2.2098" y2="-1.0668" width="0.1524" layer="51"/>
<wire x1="-2.2098" y1="-1.0668" x2="-2.2098" y2="-0.8382" width="0.1524" layer="51"/>
<wire x1="-3.2258" y1="-1.0668" x2="-3.2258" y2="-0.8382" width="0.1524" layer="51"/>
<wire x1="-3.2258" y1="-0.8382" x2="-2.2098" y2="-0.8382" width="0.1524" layer="51"/>
<wire x1="-3.2258" y1="-0.4318" x2="-2.2098" y2="-0.4318" width="0.1524" layer="51"/>
<wire x1="-2.2098" y1="-0.4318" x2="-2.2098" y2="-0.2032" width="0.1524" layer="51"/>
<wire x1="-3.2258" y1="-0.4318" x2="-3.2258" y2="-0.2032" width="0.1524" layer="51"/>
<wire x1="-3.2258" y1="-0.2032" x2="-2.2098" y2="-0.2032" width="0.1524" layer="51"/>
<wire x1="-3.2258" y1="0.2286" x2="-2.2098" y2="0.2286" width="0.1524" layer="51"/>
<wire x1="-2.2098" y1="0.2286" x2="-2.2098" y2="0.4572" width="0.1524" layer="51"/>
<wire x1="-3.2258" y1="0.2286" x2="-3.2258" y2="0.4572" width="0.1524" layer="51"/>
<wire x1="-3.2258" y1="0.4572" x2="-2.2098" y2="0.4572" width="0.1524" layer="51"/>
<wire x1="-3.2258" y1="0.889" x2="-2.2098" y2="0.889" width="0.1524" layer="51"/>
<wire x1="-2.2098" y1="0.889" x2="-2.2098" y2="1.0922" width="0.1524" layer="51"/>
<wire x1="-3.2258" y1="0.889" x2="-3.2258" y2="1.0922" width="0.1524" layer="51"/>
<wire x1="-3.2258" y1="1.0922" x2="-2.2098" y2="1.0922" width="0.1524" layer="51"/>
<wire x1="-3.2258" y1="1.524" x2="-2.2098" y2="1.524" width="0.1524" layer="51"/>
<wire x1="-2.2098" y1="1.524" x2="-2.2098" y2="1.7526" width="0.1524" layer="51"/>
<wire x1="-3.2258" y1="1.524" x2="-3.2258" y2="1.7526" width="0.1524" layer="51"/>
<wire x1="-3.2258" y1="1.7526" x2="-2.2098" y2="1.7526" width="0.1524" layer="51"/>
<wire x1="-3.2258" y1="2.1844" x2="-2.2098" y2="2.1844" width="0.1524" layer="51"/>
<wire x1="-2.2098" y1="2.1844" x2="-2.2098" y2="2.3114" width="0.1524" layer="51"/>
<wire x1="-2.2098" y1="2.3114" x2="-2.2098" y2="2.3876" width="0.1524" layer="51"/>
<wire x1="-3.2258" y1="2.1844" x2="-3.2258" y2="2.3876" width="0.1524" layer="51"/>
<wire x1="-3.2258" y1="2.3876" x2="-2.2098" y2="2.3876" width="0.1524" layer="51"/>
<wire x1="2.1844" y1="-2.159" x2="2.1844" y2="2.1844" width="0.1524" layer="51"/>
<wire x1="-2.0066" y1="-2.4892" x2="1.9812" y2="-2.4892" width="0.1524" layer="51"/>
<wire x1="-2.0066" y1="2.5146" x2="1.9812" y2="2.5146" width="0.1524" layer="51"/>
<wire x1="-2.2098" y1="-2.159" x2="-2.2098" y2="2.1844" width="0.1524" layer="51"/>
<wire x1="-1.2192" y1="1.1176" x2="-1.2192" y2="1.905" width="0.1524" layer="51" curve="-180"/>
<wire x1="-2.2098" y1="2.3114" x2="-2.0066" y2="2.5146" width="0.1524" layer="51" curve="-90"/>
<wire x1="1.9812" y1="2.5146" x2="2.1844" y2="2.3114" width="0.1524" layer="51" curve="-90"/>
<wire x1="2.1844" y1="-2.286" x2="1.9812" y2="-2.4892" width="0.1524" layer="51" curve="-90"/>
<wire x1="-1.2192" y1="1.905" x2="-1.2192" y2="1.1176" width="0.1524" layer="51" curve="-180"/>
<wire x1="-2.0066" y1="-2.4892" x2="-2.2098" y2="-2.286" width="0.1524" layer="51" curve="-90"/>
<text x="-1.8542" y="-1.143" size="1.27" layer="51" ratio="6" rot="SR0">.Designator</text>
</package>
<package name="PWP0016C_M">
<smd name="1" x="-3.05" y="2.275" dx="0.45" dy="1.6" layer="1" rot="R90"/>
<smd name="2" x="-3.05" y="1.624996875" dx="0.45" dy="1.6" layer="1" rot="R90"/>
<smd name="3" x="-3.05" y="0.975" dx="0.45" dy="1.6" layer="1" rot="R90"/>
<smd name="4" x="-3.05" y="0.324996875" dx="0.45" dy="1.6" layer="1" rot="R90"/>
<smd name="5" x="-3.05" y="-0.325" dx="0.45" dy="1.6" layer="1" rot="R90"/>
<smd name="6" x="-3.05" y="-0.975003125" dx="0.45" dy="1.6" layer="1" rot="R90"/>
<smd name="7" x="-3.05" y="-1.625" dx="0.45" dy="1.6" layer="1" rot="R90"/>
<smd name="8" x="-3.05" y="-2.275003125" dx="0.45" dy="1.6" layer="1" rot="R90"/>
<smd name="9" x="3.05" y="-2.275003125" dx="0.45" dy="1.6" layer="1" rot="R90"/>
<smd name="10" x="3.05" y="-1.625" dx="0.45" dy="1.6" layer="1" rot="R90"/>
<smd name="11" x="3.05" y="-0.975003125" dx="0.45" dy="1.6" layer="1" rot="R90"/>
<smd name="12" x="3.05" y="-0.325" dx="0.45" dy="1.6" layer="1" rot="R90"/>
<smd name="13" x="3.05" y="0.324996875" dx="0.45" dy="1.6" layer="1" rot="R90"/>
<smd name="14" x="3.05" y="0.975" dx="0.45" dy="1.6" layer="1" rot="R90"/>
<smd name="15" x="3.05" y="1.624996875" dx="0.45" dy="1.6" layer="1" rot="R90"/>
<smd name="16" x="3.05" y="2.275" dx="0.45" dy="1.6" layer="1" rot="R90"/>
<smd name="17" x="0" y="0" dx="2.46" dy="2.56" layer="1"/>
<smd name="V" x="0.55" y="-0.55" dx="0.5" dy="0.5" layer="1" roundness="100"/>
<wire x1="-3.7592" y1="2.7432" x2="1.4986" y2="2.7432" width="0.2032" layer="21"/>
<wire x1="-1.4986" y1="-2.54" x2="1.4986" y2="-2.54" width="0.2032" layer="21"/>
<text x="-4.1148" y="3.7084" size="1.27" layer="21" ratio="6" rot="SR0">Designator16</text>
<wire x1="2.1844" y1="-2.159" x2="3.2004" y2="-2.159" width="0.1524" layer="51"/>
<wire x1="2.1844" y1="-2.3622" x2="2.1844" y2="-2.286" width="0.1524" layer="51"/>
<wire x1="2.1844" y1="-2.286" x2="2.1844" y2="-2.159" width="0.1524" layer="51"/>
<wire x1="3.2004" y1="-2.3622" x2="3.2004" y2="-2.159" width="0.1524" layer="51"/>
<wire x1="2.1844" y1="-2.3622" x2="3.2004" y2="-2.3622" width="0.1524" layer="51"/>
<wire x1="2.1844" y1="-1.4986" x2="3.2004" y2="-1.4986" width="0.1524" layer="51"/>
<wire x1="2.1844" y1="-1.7272" x2="2.1844" y2="-1.4986" width="0.1524" layer="51"/>
<wire x1="3.2004" y1="-1.7272" x2="3.2004" y2="-1.4986" width="0.1524" layer="51"/>
<wire x1="2.1844" y1="-1.7272" x2="3.2004" y2="-1.7272" width="0.1524" layer="51"/>
<wire x1="2.1844" y1="-0.8382" x2="3.2004" y2="-0.8382" width="0.1524" layer="51"/>
<wire x1="2.1844" y1="-1.0668" x2="2.1844" y2="-0.8382" width="0.1524" layer="51"/>
<wire x1="3.2004" y1="-1.0668" x2="3.2004" y2="-0.8382" width="0.1524" layer="51"/>
<wire x1="2.1844" y1="-1.0668" x2="3.2004" y2="-1.0668" width="0.1524" layer="51"/>
<wire x1="2.1844" y1="-0.2032" x2="3.2004" y2="-0.2032" width="0.1524" layer="51"/>
<wire x1="2.1844" y1="-0.4318" x2="2.1844" y2="-0.2032" width="0.1524" layer="51"/>
<wire x1="3.2004" y1="-0.4318" x2="3.2004" y2="-0.2032" width="0.1524" layer="51"/>
<wire x1="2.1844" y1="-0.4318" x2="3.2004" y2="-0.4318" width="0.1524" layer="51"/>
<wire x1="2.1844" y1="0.4572" x2="3.2004" y2="0.4572" width="0.1524" layer="51"/>
<wire x1="2.1844" y1="0.2286" x2="2.1844" y2="0.4572" width="0.1524" layer="51"/>
<wire x1="3.2004" y1="0.2286" x2="3.2004" y2="0.4572" width="0.1524" layer="51"/>
<wire x1="2.1844" y1="0.2286" x2="3.2004" y2="0.2286" width="0.1524" layer="51"/>
<wire x1="2.1844" y1="1.0922" x2="3.2004" y2="1.0922" width="0.1524" layer="51"/>
<wire x1="2.1844" y1="0.889" x2="2.1844" y2="1.0922" width="0.1524" layer="51"/>
<wire x1="3.2004" y1="0.889" x2="3.2004" y2="1.0922" width="0.1524" layer="51"/>
<wire x1="2.1844" y1="0.889" x2="3.2004" y2="0.889" width="0.1524" layer="51"/>
<wire x1="2.1844" y1="1.7526" x2="3.2004" y2="1.7526" width="0.1524" layer="51"/>
<wire x1="2.1844" y1="1.524" x2="2.1844" y2="1.7526" width="0.1524" layer="51"/>
<wire x1="3.2004" y1="1.524" x2="3.2004" y2="1.7526" width="0.1524" layer="51"/>
<wire x1="2.1844" y1="1.524" x2="3.2004" y2="1.524" width="0.1524" layer="51"/>
<wire x1="2.1844" y1="2.3876" x2="3.2004" y2="2.3876" width="0.1524" layer="51"/>
<wire x1="2.1844" y1="2.1844" x2="2.1844" y2="2.3114" width="0.1524" layer="51"/>
<wire x1="2.1844" y1="2.3114" x2="2.1844" y2="2.3876" width="0.1524" layer="51"/>
<wire x1="3.2004" y1="2.1844" x2="3.2004" y2="2.3876" width="0.1524" layer="51"/>
<wire x1="2.1844" y1="2.1844" x2="3.2004" y2="2.1844" width="0.1524" layer="51"/>
<wire x1="-3.2258" y1="-2.3622" x2="-2.2098" y2="-2.3622" width="0.1524" layer="51"/>
<wire x1="-2.2098" y1="-2.3622" x2="-2.2098" y2="-2.286" width="0.1524" layer="51"/>
<wire x1="-2.2098" y1="-2.286" x2="-2.2098" y2="-2.159" width="0.1524" layer="51"/>
<wire x1="-3.2258" y1="-2.3622" x2="-3.2258" y2="-2.159" width="0.1524" layer="51"/>
<wire x1="-3.2258" y1="-2.159" x2="-2.2098" y2="-2.159" width="0.1524" layer="51"/>
<wire x1="-3.2258" y1="-1.7272" x2="-2.2098" y2="-1.7272" width="0.1524" layer="51"/>
<wire x1="-2.2098" y1="-1.7272" x2="-2.2098" y2="-1.4986" width="0.1524" layer="51"/>
<wire x1="-3.2258" y1="-1.7272" x2="-3.2258" y2="-1.4986" width="0.1524" layer="51"/>
<wire x1="-3.2258" y1="-1.4986" x2="-2.2098" y2="-1.4986" width="0.1524" layer="51"/>
<wire x1="-3.2258" y1="-1.0668" x2="-2.2098" y2="-1.0668" width="0.1524" layer="51"/>
<wire x1="-2.2098" y1="-1.0668" x2="-2.2098" y2="-0.8382" width="0.1524" layer="51"/>
<wire x1="-3.2258" y1="-1.0668" x2="-3.2258" y2="-0.8382" width="0.1524" layer="51"/>
<wire x1="-3.2258" y1="-0.8382" x2="-2.2098" y2="-0.8382" width="0.1524" layer="51"/>
<wire x1="-3.2258" y1="-0.4318" x2="-2.2098" y2="-0.4318" width="0.1524" layer="51"/>
<wire x1="-2.2098" y1="-0.4318" x2="-2.2098" y2="-0.2032" width="0.1524" layer="51"/>
<wire x1="-3.2258" y1="-0.4318" x2="-3.2258" y2="-0.2032" width="0.1524" layer="51"/>
<wire x1="-3.2258" y1="-0.2032" x2="-2.2098" y2="-0.2032" width="0.1524" layer="51"/>
<wire x1="-3.2258" y1="0.2286" x2="-2.2098" y2="0.2286" width="0.1524" layer="51"/>
<wire x1="-2.2098" y1="0.2286" x2="-2.2098" y2="0.4572" width="0.1524" layer="51"/>
<wire x1="-3.2258" y1="0.2286" x2="-3.2258" y2="0.4572" width="0.1524" layer="51"/>
<wire x1="-3.2258" y1="0.4572" x2="-2.2098" y2="0.4572" width="0.1524" layer="51"/>
<wire x1="-3.2258" y1="0.889" x2="-2.2098" y2="0.889" width="0.1524" layer="51"/>
<wire x1="-2.2098" y1="0.889" x2="-2.2098" y2="1.0922" width="0.1524" layer="51"/>
<wire x1="-3.2258" y1="0.889" x2="-3.2258" y2="1.0922" width="0.1524" layer="51"/>
<wire x1="-3.2258" y1="1.0922" x2="-2.2098" y2="1.0922" width="0.1524" layer="51"/>
<wire x1="-3.2258" y1="1.524" x2="-2.2098" y2="1.524" width="0.1524" layer="51"/>
<wire x1="-2.2098" y1="1.524" x2="-2.2098" y2="1.7526" width="0.1524" layer="51"/>
<wire x1="-3.2258" y1="1.524" x2="-3.2258" y2="1.7526" width="0.1524" layer="51"/>
<wire x1="-3.2258" y1="1.7526" x2="-2.2098" y2="1.7526" width="0.1524" layer="51"/>
<wire x1="-3.2258" y1="2.1844" x2="-2.2098" y2="2.1844" width="0.1524" layer="51"/>
<wire x1="-2.2098" y1="2.1844" x2="-2.2098" y2="2.3114" width="0.1524" layer="51"/>
<wire x1="-2.2098" y1="2.3114" x2="-2.2098" y2="2.3876" width="0.1524" layer="51"/>
<wire x1="-3.2258" y1="2.1844" x2="-3.2258" y2="2.3876" width="0.1524" layer="51"/>
<wire x1="-3.2258" y1="2.3876" x2="-2.2098" y2="2.3876" width="0.1524" layer="51"/>
<wire x1="2.1844" y1="-2.159" x2="2.1844" y2="2.1844" width="0.1524" layer="51"/>
<wire x1="-2.0066" y1="-2.4892" x2="1.9812" y2="-2.4892" width="0.1524" layer="51"/>
<wire x1="-2.0066" y1="2.5146" x2="1.9812" y2="2.5146" width="0.1524" layer="51"/>
<wire x1="-2.2098" y1="-2.159" x2="-2.2098" y2="2.1844" width="0.1524" layer="51"/>
<wire x1="-1.2192" y1="1.1176" x2="-1.2192" y2="1.905" width="0.1524" layer="51" curve="-180"/>
<wire x1="-2.2098" y1="2.3114" x2="-2.0066" y2="2.5146" width="0.1524" layer="51" curve="-90"/>
<wire x1="1.9812" y1="2.5146" x2="2.1844" y2="2.3114" width="0.1524" layer="51" curve="-90"/>
<wire x1="2.1844" y1="-2.286" x2="1.9812" y2="-2.4892" width="0.1524" layer="51" curve="-90"/>
<wire x1="-1.2192" y1="1.905" x2="-1.2192" y2="1.1176" width="0.1524" layer="51" curve="-180"/>
<wire x1="-2.0066" y1="-2.4892" x2="-2.2098" y2="-2.286" width="0.1524" layer="51" curve="-90"/>
<text x="-1.8542" y="-1.143" size="1.27" layer="51" ratio="6" rot="SR0">.Designator</text>
</package>
<package name="PWP0016C_L">
<smd name="1" x="-2.85" y="2.275" dx="0.4" dy="1.2" layer="1" rot="R90"/>
<smd name="2" x="-2.85" y="1.624996875" dx="0.4" dy="1.2" layer="1" rot="R90"/>
<smd name="3" x="-2.85" y="0.975" dx="0.4" dy="1.2" layer="1" rot="R90"/>
<smd name="4" x="-2.85" y="0.324996875" dx="0.4" dy="1.2" layer="1" rot="R90"/>
<smd name="5" x="-2.85" y="-0.325" dx="0.4" dy="1.2" layer="1" rot="R90"/>
<smd name="6" x="-2.85" y="-0.975003125" dx="0.4" dy="1.2" layer="1" rot="R90"/>
<smd name="7" x="-2.85" y="-1.625" dx="0.4" dy="1.2" layer="1" rot="R90"/>
<smd name="8" x="-2.85" y="-2.275003125" dx="0.4" dy="1.2" layer="1" rot="R90"/>
<smd name="9" x="2.85" y="-2.275003125" dx="0.4" dy="1.2" layer="1" rot="R90"/>
<smd name="10" x="2.85" y="-1.625" dx="0.4" dy="1.2" layer="1" rot="R90"/>
<smd name="11" x="2.85" y="-0.975003125" dx="0.4" dy="1.2" layer="1" rot="R90"/>
<smd name="12" x="2.85" y="-0.325" dx="0.4" dy="1.2" layer="1" rot="R90"/>
<smd name="13" x="2.85" y="0.324996875" dx="0.4" dy="1.2" layer="1" rot="R90"/>
<smd name="14" x="2.85" y="0.975" dx="0.4" dy="1.2" layer="1" rot="R90"/>
<smd name="15" x="2.85" y="1.624996875" dx="0.4" dy="1.2" layer="1" rot="R90"/>
<smd name="16" x="2.85" y="2.275" dx="0.4" dy="1.2" layer="1" rot="R90"/>
<smd name="17" x="0" y="0" dx="2.46" dy="2.56" layer="1"/>
<smd name="V" x="0.55" y="-0.55" dx="0.5" dy="0.5" layer="1" roundness="100"/>
<wire x1="-2.0066" y1="2.54" x2="1.4986" y2="2.54" width="0.2032" layer="21"/>
<wire x1="-1.4986" y1="-2.54" x2="1.4986" y2="-2.54" width="0.2032" layer="21"/>
<text x="-3.3274" y="3.302" size="1.27" layer="21" ratio="6" rot="SR0">Designator17</text>
<wire x1="2.1844" y1="-2.159" x2="3.2004" y2="-2.159" width="0.1524" layer="51"/>
<wire x1="2.1844" y1="-2.3622" x2="2.1844" y2="-2.286" width="0.1524" layer="51"/>
<wire x1="2.1844" y1="-2.286" x2="2.1844" y2="-2.159" width="0.1524" layer="51"/>
<wire x1="3.2004" y1="-2.3622" x2="3.2004" y2="-2.159" width="0.1524" layer="51"/>
<wire x1="2.1844" y1="-2.3622" x2="3.2004" y2="-2.3622" width="0.1524" layer="51"/>
<wire x1="2.1844" y1="-1.4986" x2="3.2004" y2="-1.4986" width="0.1524" layer="51"/>
<wire x1="2.1844" y1="-1.7272" x2="2.1844" y2="-1.4986" width="0.1524" layer="51"/>
<wire x1="3.2004" y1="-1.7272" x2="3.2004" y2="-1.4986" width="0.1524" layer="51"/>
<wire x1="2.1844" y1="-1.7272" x2="3.2004" y2="-1.7272" width="0.1524" layer="51"/>
<wire x1="2.1844" y1="-0.8382" x2="3.2004" y2="-0.8382" width="0.1524" layer="51"/>
<wire x1="2.1844" y1="-1.0668" x2="2.1844" y2="-0.8382" width="0.1524" layer="51"/>
<wire x1="3.2004" y1="-1.0668" x2="3.2004" y2="-0.8382" width="0.1524" layer="51"/>
<wire x1="2.1844" y1="-1.0668" x2="3.2004" y2="-1.0668" width="0.1524" layer="51"/>
<wire x1="2.1844" y1="-0.2032" x2="3.2004" y2="-0.2032" width="0.1524" layer="51"/>
<wire x1="2.1844" y1="-0.4318" x2="2.1844" y2="-0.2032" width="0.1524" layer="51"/>
<wire x1="3.2004" y1="-0.4318" x2="3.2004" y2="-0.2032" width="0.1524" layer="51"/>
<wire x1="2.1844" y1="-0.4318" x2="3.2004" y2="-0.4318" width="0.1524" layer="51"/>
<wire x1="2.1844" y1="0.4572" x2="3.2004" y2="0.4572" width="0.1524" layer="51"/>
<wire x1="2.1844" y1="0.2286" x2="2.1844" y2="0.4572" width="0.1524" layer="51"/>
<wire x1="3.2004" y1="0.2286" x2="3.2004" y2="0.4572" width="0.1524" layer="51"/>
<wire x1="2.1844" y1="0.2286" x2="3.2004" y2="0.2286" width="0.1524" layer="51"/>
<wire x1="2.1844" y1="1.0922" x2="3.2004" y2="1.0922" width="0.1524" layer="51"/>
<wire x1="2.1844" y1="0.889" x2="2.1844" y2="1.0922" width="0.1524" layer="51"/>
<wire x1="3.2004" y1="0.889" x2="3.2004" y2="1.0922" width="0.1524" layer="51"/>
<wire x1="2.1844" y1="0.889" x2="3.2004" y2="0.889" width="0.1524" layer="51"/>
<wire x1="2.1844" y1="1.7526" x2="3.2004" y2="1.7526" width="0.1524" layer="51"/>
<wire x1="2.1844" y1="1.524" x2="2.1844" y2="1.7526" width="0.1524" layer="51"/>
<wire x1="3.2004" y1="1.524" x2="3.2004" y2="1.7526" width="0.1524" layer="51"/>
<wire x1="2.1844" y1="1.524" x2="3.2004" y2="1.524" width="0.1524" layer="51"/>
<wire x1="2.1844" y1="2.3876" x2="3.2004" y2="2.3876" width="0.1524" layer="51"/>
<wire x1="2.1844" y1="2.1844" x2="2.1844" y2="2.3114" width="0.1524" layer="51"/>
<wire x1="2.1844" y1="2.3114" x2="2.1844" y2="2.3876" width="0.1524" layer="51"/>
<wire x1="3.2004" y1="2.1844" x2="3.2004" y2="2.3876" width="0.1524" layer="51"/>
<wire x1="2.1844" y1="2.1844" x2="3.2004" y2="2.1844" width="0.1524" layer="51"/>
<wire x1="-3.2258" y1="-2.3622" x2="-2.2098" y2="-2.3622" width="0.1524" layer="51"/>
<wire x1="-2.2098" y1="-2.3622" x2="-2.2098" y2="-2.286" width="0.1524" layer="51"/>
<wire x1="-2.2098" y1="-2.286" x2="-2.2098" y2="-2.159" width="0.1524" layer="51"/>
<wire x1="-3.2258" y1="-2.3622" x2="-3.2258" y2="-2.159" width="0.1524" layer="51"/>
<wire x1="-3.2258" y1="-2.159" x2="-2.2098" y2="-2.159" width="0.1524" layer="51"/>
<wire x1="-3.2258" y1="-1.7272" x2="-2.2098" y2="-1.7272" width="0.1524" layer="51"/>
<wire x1="-2.2098" y1="-1.7272" x2="-2.2098" y2="-1.4986" width="0.1524" layer="51"/>
<wire x1="-3.2258" y1="-1.7272" x2="-3.2258" y2="-1.4986" width="0.1524" layer="51"/>
<wire x1="-3.2258" y1="-1.4986" x2="-2.2098" y2="-1.4986" width="0.1524" layer="51"/>
<wire x1="-3.2258" y1="-1.0668" x2="-2.2098" y2="-1.0668" width="0.1524" layer="51"/>
<wire x1="-2.2098" y1="-1.0668" x2="-2.2098" y2="-0.8382" width="0.1524" layer="51"/>
<wire x1="-3.2258" y1="-1.0668" x2="-3.2258" y2="-0.8382" width="0.1524" layer="51"/>
<wire x1="-3.2258" y1="-0.8382" x2="-2.2098" y2="-0.8382" width="0.1524" layer="51"/>
<wire x1="-3.2258" y1="-0.4318" x2="-2.2098" y2="-0.4318" width="0.1524" layer="51"/>
<wire x1="-2.2098" y1="-0.4318" x2="-2.2098" y2="-0.2032" width="0.1524" layer="51"/>
<wire x1="-3.2258" y1="-0.4318" x2="-3.2258" y2="-0.2032" width="0.1524" layer="51"/>
<wire x1="-3.2258" y1="-0.2032" x2="-2.2098" y2="-0.2032" width="0.1524" layer="51"/>
<wire x1="-3.2258" y1="0.2286" x2="-2.2098" y2="0.2286" width="0.1524" layer="51"/>
<wire x1="-2.2098" y1="0.2286" x2="-2.2098" y2="0.4572" width="0.1524" layer="51"/>
<wire x1="-3.2258" y1="0.2286" x2="-3.2258" y2="0.4572" width="0.1524" layer="51"/>
<wire x1="-3.2258" y1="0.4572" x2="-2.2098" y2="0.4572" width="0.1524" layer="51"/>
<wire x1="-3.2258" y1="0.889" x2="-2.2098" y2="0.889" width="0.1524" layer="51"/>
<wire x1="-2.2098" y1="0.889" x2="-2.2098" y2="1.0922" width="0.1524" layer="51"/>
<wire x1="-3.2258" y1="0.889" x2="-3.2258" y2="1.0922" width="0.1524" layer="51"/>
<wire x1="-3.2258" y1="1.0922" x2="-2.2098" y2="1.0922" width="0.1524" layer="51"/>
<wire x1="-3.2258" y1="1.524" x2="-2.2098" y2="1.524" width="0.1524" layer="51"/>
<wire x1="-2.2098" y1="1.524" x2="-2.2098" y2="1.7526" width="0.1524" layer="51"/>
<wire x1="-3.2258" y1="1.524" x2="-3.2258" y2="1.7526" width="0.1524" layer="51"/>
<wire x1="-3.2258" y1="1.7526" x2="-2.2098" y2="1.7526" width="0.1524" layer="51"/>
<wire x1="-3.2258" y1="2.1844" x2="-2.2098" y2="2.1844" width="0.1524" layer="51"/>
<wire x1="-2.2098" y1="2.1844" x2="-2.2098" y2="2.3114" width="0.1524" layer="51"/>
<wire x1="-2.2098" y1="2.3114" x2="-2.2098" y2="2.3876" width="0.1524" layer="51"/>
<wire x1="-3.2258" y1="2.1844" x2="-3.2258" y2="2.3876" width="0.1524" layer="51"/>
<wire x1="-3.2258" y1="2.3876" x2="-2.2098" y2="2.3876" width="0.1524" layer="51"/>
<wire x1="2.1844" y1="-2.159" x2="2.1844" y2="2.1844" width="0.1524" layer="51"/>
<wire x1="-2.0066" y1="-2.4892" x2="1.9812" y2="-2.4892" width="0.1524" layer="51"/>
<wire x1="-2.0066" y1="2.5146" x2="1.9812" y2="2.5146" width="0.1524" layer="51"/>
<wire x1="-2.2098" y1="-2.159" x2="-2.2098" y2="2.1844" width="0.1524" layer="51"/>
<wire x1="-1.2192" y1="1.1176" x2="-1.2192" y2="1.905" width="0.1524" layer="51" curve="-180"/>
<wire x1="-2.2098" y1="2.3114" x2="-2.0066" y2="2.5146" width="0.1524" layer="51" curve="-90"/>
<wire x1="1.9812" y1="2.5146" x2="2.1844" y2="2.3114" width="0.1524" layer="51" curve="-90"/>
<wire x1="2.1844" y1="-2.286" x2="1.9812" y2="-2.4892" width="0.1524" layer="51" curve="-90"/>
<wire x1="-1.2192" y1="1.905" x2="-1.2192" y2="1.1176" width="0.1524" layer="51" curve="-180"/>
<wire x1="-2.0066" y1="-2.4892" x2="-2.2098" y2="-2.286" width="0.1524" layer="51" curve="-90"/>
<text x="-1.8542" y="-1.143" size="1.27" layer="51" ratio="6" rot="SR0">.Designator</text>
</package>
</packages>
<symbols>
<symbol name="DRV8833PWP">
<pin name="SLEEP_N" x="-22.86" y="-10.16" length="middle" direction="in"/>
<pin name="AOUT1" x="22.86" y="15.24" length="middle" direction="hiz" rot="R180"/>
<pin name="AISEN" x="-22.86" y="0" length="middle" direction="in"/>
<pin name="AOUT2" x="22.86" y="10.16" length="middle" direction="hiz" rot="R180"/>
<pin name="BOUT2" x="22.86" y="-2.54" length="middle" direction="hiz" rot="R180"/>
<pin name="BISEN" x="-22.86" y="-5.08" length="middle" direction="in"/>
<pin name="BOUT1" x="22.86" y="2.54" length="middle" direction="hiz" rot="R180"/>
<pin name="FAULT_N" x="22.86" y="-10.16" length="middle" direction="oc" rot="R180"/>
<pin name="BIN1" x="-22.86" y="7.62" length="middle" direction="in"/>
<pin name="BIN2" x="-22.86" y="5.08" length="middle" direction="in"/>
<pin name="VCP" x="22.86" y="20.32" length="middle" rot="R180"/>
<pin name="VM" x="-22.86" y="20.32" length="middle" direction="pwr"/>
<pin name="GND" x="22.86" y="-17.78" length="middle" direction="pwr" rot="R180"/>
<pin name="VINT" x="-22.86" y="-17.78" length="middle" direction="pas"/>
<pin name="AIN2" x="-22.86" y="12.7" length="middle" direction="in"/>
<pin name="AIN1" x="-22.86" y="15.24" length="middle" direction="in"/>
<pin name="PPAD" x="22.86" y="-20.32" length="middle" direction="pwr" rot="R180"/>
<wire x1="-17.78" y1="-25.4" x2="17.78" y2="-25.4" width="0.2032" layer="94"/>
<wire x1="17.78" y1="-25.4" x2="17.78" y2="25.4" width="0.2032" layer="94"/>
<wire x1="17.78" y1="25.4" x2="-17.78" y2="25.4" width="0.2032" layer="94"/>
<wire x1="-17.78" y1="25.4" x2="-17.78" y2="-25.4" width="0.2032" layer="94"/>
<text x="-4.7244" y="1.4986" size="2.0828" layer="95" ratio="6" rot="SR0">&gt;Name</text>
<text x="-5.3594" y="-1.0414" size="2.0828" layer="96" ratio="6" rot="SR0">&gt;Value</text>
</symbol>
</symbols>
<devicesets>
<deviceset name="DRV8833PWPR" prefix="U">
<gates>
<gate name="A" symbol="DRV8833PWP" x="0" y="0"/>
</gates>
<devices>
<device name="" package="PWP0016C_N">
<connects>
<connect gate="A" pin="AIN1" pad="16"/>
<connect gate="A" pin="AIN2" pad="15"/>
<connect gate="A" pin="AISEN" pad="3"/>
<connect gate="A" pin="AOUT1" pad="2"/>
<connect gate="A" pin="AOUT2" pad="4"/>
<connect gate="A" pin="BIN1" pad="9"/>
<connect gate="A" pin="BIN2" pad="10"/>
<connect gate="A" pin="BISEN" pad="6"/>
<connect gate="A" pin="BOUT1" pad="7"/>
<connect gate="A" pin="BOUT2" pad="5"/>
<connect gate="A" pin="FAULT_N" pad="8"/>
<connect gate="A" pin="GND" pad="13"/>
<connect gate="A" pin="PPAD" pad="17"/>
<connect gate="A" pin="SLEEP_N" pad="1"/>
<connect gate="A" pin="VCP" pad="11"/>
<connect gate="A" pin="VINT" pad="14"/>
<connect gate="A" pin="VM" pad="12"/>
</connects>
<technologies>
<technology name="">
<attribute name="MANUFACTURER" value="Texas Instruments" constant="no"/>
<attribute name="PARTNUMBER" value="DRV8833PWPR" constant="no"/>
<attribute name="REFDES" value="RefDes" constant="no"/>
<attribute name="TYPE" value="TYPE" constant="no"/>
<attribute name="VALUE" value="Value" constant="no"/>
</technology>
</technologies>
</device>
</devices>
</deviceset>
</devicesets>
</library>
</drawing>
</eagle>
