<!--This work is licensed under a Creative Commons Attribution-ShareAlike 4.0 International License (CC BY-SA) with Design Exception 1.0-->
<eagle version="7.1.0">
<drawing>
<settings>
<setting alwaysvectorfont="no"/>
<setting verticaltext="up"/>
</settings>
<grid distance="0.1" unitdist="inch" unit="inch" style="lines" multiple="1" display="no" altdistance="0.01" altunitdist="inch" altunit="inch"/>
<layers>
<layer number="1" name="Top" color="4" fill="1" visible="yes" active="yes"/>
<layer number="16" name="Bottom" color="1" fill="1" visible="yes" active="yes"/>
<layer number="17" name="Pads" color="2" fill="1" visible="yes" active="yes"/>
<layer number="18" name="Vias" color="2" fill="1" visible="yes" active="yes"/>
<layer number="19" name="Unrouted" color="6" fill="1" visible="yes" active="yes"/>
<layer number="20" name="Dimension" color="15" fill="1" visible="yes" active="yes"/>
<layer number="21" name="tPlace" color="7" fill="1" visible="yes" active="yes"/>
<layer number="22" name="bPlace" color="7" fill="1" visible="yes" active="yes"/>
<layer number="23" name="tOrigins" color="15" fill="1" visible="yes" active="yes"/>
<layer number="24" name="bOrigins" color="15" fill="1" visible="yes" active="yes"/>
<layer number="25" name="tNames" color="7" fill="1" visible="yes" active="yes"/>
<layer number="26" name="bNames" color="7" fill="1" visible="yes" active="yes"/>
<layer number="27" name="tValues" color="7" fill="1" visible="yes" active="yes"/>
<layer number="28" name="bValues" color="7" fill="1" visible="yes" active="yes"/>
<layer number="29" name="tStop" color="7" fill="3" visible="yes" active="yes"/>
<layer number="30" name="bStop" color="7" fill="6" visible="no" active="yes"/>
<layer number="31" name="tCream" color="7" fill="4" visible="yes" active="yes"/>
<layer number="32" name="bCream" color="7" fill="5" visible="no" active="yes"/>
<layer number="33" name="tFinish" color="6" fill="3" visible="no" active="yes"/>
<layer number="34" name="bFinish" color="6" fill="6" visible="no" active="yes"/>
<layer number="35" name="tGlue" color="7" fill="4" visible="no" active="yes"/>
<layer number="36" name="bGlue" color="7" fill="5" visible="no" active="yes"/>
<layer number="37" name="tTest" color="7" fill="1" visible="no" active="yes"/>
<layer number="38" name="bTest" color="7" fill="1" visible="no" active="yes"/>
<layer number="39" name="tKeepout" color="4" fill="11" visible="yes" active="yes"/>
<layer number="40" name="bKeepout" color="1" fill="11" visible="yes" active="yes"/>
<layer number="41" name="tRestrict" color="4" fill="10" visible="yes" active="yes"/>
<layer number="42" name="bRestrict" color="1" fill="10" visible="yes" active="yes"/>
<layer number="43" name="vRestrict" color="2" fill="10" visible="yes" active="yes"/>
<layer number="44" name="Drills" color="7" fill="1" visible="no" active="yes"/>
<layer number="45" name="Holes" color="7" fill="1" visible="no" active="yes"/>
<layer number="46" name="Milling" color="3" fill="1" visible="no" active="yes"/>
<layer number="47" name="Measures" color="7" fill="1" visible="no" active="yes"/>
<layer number="48" name="Document" color="7" fill="1" visible="yes" active="yes"/>
<layer number="49" name="Reference" color="7" fill="1" visible="yes" active="yes"/>
<layer number="51" name="tDocu" color="7" fill="1" visible="yes" active="yes"/>
<layer number="52" name="bDocu" color="7" fill="1" visible="yes" active="yes"/>
<layer number="90" name="Modules" color="5" fill="1" visible="yes" active="yes"/>
<layer number="91" name="Nets" color="2" fill="1" visible="yes" active="yes"/>
<layer number="92" name="Busses" color="1" fill="1" visible="yes" active="yes"/>
<layer number="93" name="Pins" color="2" fill="1" visible="yes" active="yes"/>
<layer number="94" name="Symbols" color="4" fill="1" visible="yes" active="yes"/>
<layer number="95" name="Names" color="7" fill="1" visible="yes" active="yes"/>
<layer number="96" name="Values" color="7" fill="1" visible="yes" active="yes"/>
<layer number="97" name="Info" color="7" fill="1" visible="yes" active="yes"/>
<layer number="98" name="Guide" color="6" fill="1" visible="yes" active="yes"/>
</layers>
<library>
<packages>
<package name="TO220">
<description>&lt;b&gt;TO 220 horizontal&lt;/b&gt;</description>
<wire x1="-5.207" y1="-1.27" x2="5.207" y2="-1.27" width="0.127" layer="21"/>
<wire x1="5.207" y1="14.605" x2="-5.207" y2="14.605" width="0.127" layer="21"/>
<wire x1="5.207" y1="-1.27" x2="5.207" y2="11.176" width="0.127" layer="21"/>
<wire x1="5.207" y1="12.7" x2="5.207" y2="14.605" width="0.127" layer="21"/>
<wire x1="-5.207" y1="-1.27" x2="-5.207" y2="11.176" width="0.127" layer="21"/>
<wire x1="-5.207" y1="12.7" x2="-5.207" y2="14.605" width="0.127" layer="21"/>
<wire x1="-4.572" y1="-0.635" x2="4.572" y2="-0.635" width="0.0508" layer="21"/>
<wire x1="4.572" y1="7.62" x2="4.572" y2="-0.635" width="0.0508" layer="21"/>
<wire x1="4.572" y1="7.62" x2="-4.572" y2="7.62" width="0.0508" layer="21"/>
<wire x1="-4.572" y1="-0.635" x2="-4.572" y2="7.62" width="0.0508" layer="21"/>
<circle x="0" y="11.176" radius="1.8034" width="0.127" layer="21"/>
<circle x="0" y="11.176" radius="4.191" width="0" layer="42"/>
<circle x="0" y="11.176" radius="4.191" width="0" layer="43"/>
<text x="-3.81246" y="5.21036" size="1.77915" layer="25" ratio="10">&gt;NAME</text>
<text x="-3.94127" y="2.54276" size="1.77993" layer="27" ratio="10">&gt;VALUE</text>
<text x="-4.446" y="7.87577" size="0.990822" layer="21" ratio="12">A17,5mm</text>
<text x="-3.18078" y="0" size="1.27231" layer="51" ratio="10">1</text>
<text x="-0.635353" y="0" size="1.27071" layer="51" ratio="10">2</text>
<text x="1.90727" y="0" size="1.27152" layer="51" ratio="10">3</text>
<rectangle x1="2.16127" y1="-4.70394" x2="2.921" y2="-4.064" layer="21"/>
<rectangle x1="-0.381274" y1="-4.70238" x2="0.381" y2="-4.064" layer="21"/>
<rectangle x1="-2.9232" y1="-4.70254" x2="-2.159" y2="-4.064" layer="21"/>
<rectangle x1="-3.17615" y1="-4.06547" x2="-1.905" y2="-1.27" layer="21"/>
<rectangle x1="-0.636142" y1="-4.07131" x2="0.635" y2="-1.27" layer="21"/>
<rectangle x1="1.9055" y1="-4.06507" x2="3.175" y2="-1.27" layer="21"/>
<rectangle x1="-2.92588" y1="-6.61504" x2="-2.159" y2="-4.699" layer="51"/>
<rectangle x1="-0.381668" y1="-6.61558" x2="0.381" y2="-4.699" layer="51"/>
<rectangle x1="2.16034" y1="-6.60808" x2="2.921" y2="-4.699" layer="51"/>
<pad name="1" x="-2.54" y="-6.35" drill="1.1176" shape="long" rot="R90"/>
<pad name="2" x="0" y="-6.35" drill="1.1176" shape="long" rot="R90"/>
<pad name="3" x="2.54" y="-6.35" drill="1.1176" shape="long" rot="R90"/>
<hole x="0" y="11.176" drill="3.302"/>
</package>
</packages>
<symbols>
<symbol name="NPN">
<wire x1="2.54" y1="2.54" x2="0.508" y2="1.524" width="0.1524" layer="94"/>
<wire x1="1.778" y1="-1.524" x2="2.54" y2="-2.54" width="0.1524" layer="94"/>
<wire x1="2.54" y1="-2.54" x2="1.27" y2="-2.54" width="0.1524" layer="94"/>
<wire x1="1.27" y1="-2.54" x2="1.778" y2="-1.524" width="0.1524" layer="94"/>
<wire x1="1.54" y1="-2.04" x2="0.308" y2="-1.424" width="0.1524" layer="94"/>
<wire x1="1.524" y1="-2.413" x2="2.286" y2="-2.413" width="0.254" layer="94"/>
<wire x1="2.286" y1="-2.413" x2="1.778" y2="-1.778" width="0.254" layer="94"/>
<wire x1="1.778" y1="-1.778" x2="1.524" y2="-2.286" width="0.254" layer="94"/>
<wire x1="1.524" y1="-2.286" x2="1.905" y2="-2.286" width="0.254" layer="94"/>
<wire x1="1.905" y1="-2.286" x2="1.778" y2="-2.032" width="0.254" layer="94"/>
<text x="-10.1742" y="7.63063" size="1.78048" layer="95">&gt;NAME</text>
<text x="-10.18" y="5.09" size="1.7815" layer="96">&gt;VALUE</text>
<rectangle x1="-0.254146" y1="-2.54146" x2="0.508" y2="2.54" layer="94"/>
<pin name="B" x="-2.54" y="0" visible="off" length="short" direction="pas" swaplevel="1"/>
<pin name="E" x="2.54" y="-5.08" visible="off" length="short" direction="pas" swaplevel="3" rot="R90"/>
<pin name="C" x="2.54" y="5.08" visible="off" length="short" direction="pas" swaplevel="2" rot="R270"/>
</symbol>
</symbols>
<devicesets>
<deviceset name="TIP31C" prefix="T">
<description>&lt;b&gt;NPN TRANSISTOR&lt;/b&gt;</description>
<gates>
<gate name="G$1" symbol="NPN" x="0" y="0"/>
</gates>
<devices>
<device name="" package="TO220">
<connects>
<connect gate="G$1" pin="B" pad="1"/>
<connect gate="G$1" pin="C" pad="2"/>
<connect gate="G$1" pin="E" pad="3"/>
</connects>
<technologies>
<technology name="">
<attribute name="Description" value="
RF Bipolar Transistor; Transistor Type: RF Bipolar; Transistor Polarity: N Channel; Package/Case: TO-220; Power Dissi...
"/>
<attribute name="Availability" value="Unavailable"/>
<attribute name="MF" value="Central Semiconductor"/>
<attribute name="Package" value="TO-220 Multicomp"/>
<attribute name="Price" value="None"/>
<attribute name="MP" value="TIP31C"/>
</technology>
</technologies>
</device>
</devices>
</deviceset>
</devicesets>
</library>
</drawing>
</eagle>
