<!--This work is licensed under a Creative Commons Attribution-ShareAlike 4.0 International License (CC BY-SA) with Design Exception 1.0-->
<eagle version="7.1.0">
<drawing>
<settings>
<setting alwaysvectorfont="no"/>
<setting verticaltext="up"/>
</settings>
<grid distance="0.1" unitdist="inch" unit="inch" style="lines" multiple="1" display="no" altdistance="0.01" altunitdist="inch" altunit="inch"/>
<layers>
<layer number="1" name="Top" color="4" fill="1" visible="yes" active="yes"/>
<layer number="16" name="Bottom" color="1" fill="1" visible="yes" active="yes"/>
<layer number="17" name="Pads" color="2" fill="1" visible="yes" active="yes"/>
<layer number="18" name="Vias" color="2" fill="1" visible="yes" active="yes"/>
<layer number="19" name="Unrouted" color="6" fill="1" visible="yes" active="yes"/>
<layer number="20" name="Dimension" color="15" fill="1" visible="yes" active="yes"/>
<layer number="21" name="tPlace" color="7" fill="1" visible="yes" active="yes"/>
<layer number="22" name="bPlace" color="7" fill="1" visible="yes" active="yes"/>
<layer number="23" name="tOrigins" color="15" fill="1" visible="yes" active="yes"/>
<layer number="24" name="bOrigins" color="15" fill="1" visible="yes" active="yes"/>
<layer number="25" name="tNames" color="7" fill="1" visible="yes" active="yes"/>
<layer number="26" name="bNames" color="7" fill="1" visible="yes" active="yes"/>
<layer number="27" name="tValues" color="7" fill="1" visible="yes" active="yes"/>
<layer number="28" name="bValues" color="7" fill="1" visible="yes" active="yes"/>
<layer number="29" name="tStop" color="7" fill="3" visible="yes" active="yes"/>
<layer number="30" name="bStop" color="7" fill="6" visible="no" active="yes"/>
<layer number="31" name="tCream" color="7" fill="4" visible="yes" active="yes"/>
<layer number="32" name="bCream" color="7" fill="5" visible="no" active="yes"/>
<layer number="33" name="tFinish" color="6" fill="3" visible="no" active="yes"/>
<layer number="34" name="bFinish" color="6" fill="6" visible="no" active="yes"/>
<layer number="35" name="tGlue" color="7" fill="4" visible="no" active="yes"/>
<layer number="36" name="bGlue" color="7" fill="5" visible="no" active="yes"/>
<layer number="37" name="tTest" color="7" fill="1" visible="no" active="yes"/>
<layer number="38" name="bTest" color="7" fill="1" visible="no" active="yes"/>
<layer number="39" name="tKeepout" color="4" fill="11" visible="yes" active="yes"/>
<layer number="40" name="bKeepout" color="1" fill="11" visible="yes" active="yes"/>
<layer number="41" name="tRestrict" color="4" fill="10" visible="yes" active="yes"/>
<layer number="42" name="bRestrict" color="1" fill="10" visible="yes" active="yes"/>
<layer number="43" name="vRestrict" color="2" fill="10" visible="yes" active="yes"/>
<layer number="44" name="Drills" color="7" fill="1" visible="no" active="yes"/>
<layer number="45" name="Holes" color="7" fill="1" visible="no" active="yes"/>
<layer number="46" name="Milling" color="3" fill="1" visible="no" active="yes"/>
<layer number="47" name="Measures" color="7" fill="1" visible="no" active="yes"/>
<layer number="48" name="Document" color="7" fill="1" visible="yes" active="yes"/>
<layer number="49" name="Reference" color="7" fill="1" visible="yes" active="yes"/>
<layer number="51" name="tDocu" color="7" fill="1" visible="yes" active="yes"/>
<layer number="52" name="bDocu" color="7" fill="1" visible="yes" active="yes"/>
<layer number="90" name="Modules" color="5" fill="1" visible="yes" active="yes"/>
<layer number="91" name="Nets" color="2" fill="1" visible="yes" active="yes"/>
<layer number="92" name="Busses" color="1" fill="1" visible="yes" active="yes"/>
<layer number="93" name="Pins" color="2" fill="1" visible="yes" active="yes"/>
<layer number="94" name="Symbols" color="4" fill="1" visible="yes" active="yes"/>
<layer number="95" name="Names" color="7" fill="1" visible="yes" active="yes"/>
<layer number="96" name="Values" color="7" fill="1" visible="yes" active="yes"/>
<layer number="97" name="Info" color="7" fill="1" visible="yes" active="yes"/>
<layer number="98" name="Guide" color="6" fill="1" visible="yes" active="yes"/>
</layers>
<library>
<packages>
<package name="DIP18">
<wire x1="11.43" y1="2.921" x2="-11.43" y2="2.921" width="0.1524" layer="21"/>
<wire x1="-11.43" y1="-2.921" x2="11.43" y2="-2.921" width="0.1524" layer="21"/>
<wire x1="11.43" y1="2.921" x2="11.43" y2="-2.921" width="0.1524" layer="21"/>
<wire x1="-11.43" y1="2.921" x2="-11.43" y2="1.016" width="0.1524" layer="21"/>
<wire x1="-11.43" y1="-2.921" x2="-11.43" y2="-1.016" width="0.1524" layer="21"/>
<wire x1="-11.43" y1="1.016" x2="-11.43" y2="-1.016" width="0.1524" layer="21" curve="-180"/>
<text x="-11.7034" y="-3.05306" size="1.27211" layer="25" ratio="10" rot="R90">&gt;NAME</text>
<text x="-9.52875" y="-0.63525" size="1.2705" layer="27" ratio="10">&gt;VALUE</text>
<pad name="1" x="-10.16" y="-3.81" drill="0.8128" shape="long" rot="R90"/>
<pad name="2" x="-7.62" y="-3.81" drill="0.8128" shape="long" rot="R90"/>
<pad name="7" x="5.08" y="-3.81" drill="0.8128" shape="long" rot="R90"/>
<pad name="8" x="7.62" y="-3.81" drill="0.8128" shape="long" rot="R90"/>
<pad name="3" x="-5.08" y="-3.81" drill="0.8128" shape="long" rot="R90"/>
<pad name="4" x="-2.54" y="-3.81" drill="0.8128" shape="long" rot="R90"/>
<pad name="6" x="2.54" y="-3.81" drill="0.8128" shape="long" rot="R90"/>
<pad name="5" x="0" y="-3.81" drill="0.8128" shape="long" rot="R90"/>
<pad name="9" x="10.16" y="-3.81" drill="0.8128" shape="long" rot="R90"/>
<pad name="10" x="10.16" y="3.81" drill="0.8128" shape="long" rot="R90"/>
<pad name="11" x="7.62" y="3.81" drill="0.8128" shape="long" rot="R90"/>
<pad name="12" x="5.08" y="3.81" drill="0.8128" shape="long" rot="R90"/>
<pad name="13" x="2.54" y="3.81" drill="0.8128" shape="long" rot="R90"/>
<pad name="14" x="0" y="3.81" drill="0.8128" shape="long" rot="R90"/>
<pad name="15" x="-2.54" y="3.81" drill="0.8128" shape="long" rot="R90"/>
<pad name="16" x="-5.08" y="3.81" drill="0.8128" shape="long" rot="R90"/>
<pad name="17" x="-7.62" y="3.81" drill="0.8128" shape="long" rot="R90"/>
<pad name="18" x="-10.16" y="3.81" drill="0.8128" shape="long" rot="R90"/>
</package>
</packages>
<symbols>
<symbol name="ULN2003">
<wire x1="-6.604" y1="12.7" x2="-6.604" y2="10.16" width="0.254" layer="94"/>
<wire x1="-6.604" y1="10.16" x2="-6.604" y2="7.62" width="0.254" layer="94"/>
<wire x1="-6.604" y1="7.62" x2="-6.604" y2="5.08" width="0.254" layer="94"/>
<wire x1="-6.604" y1="5.08" x2="-6.604" y2="2.54" width="0.254" layer="94"/>
<wire x1="-6.604" y1="2.54" x2="-6.604" y2="0" width="0.254" layer="94"/>
<wire x1="-6.604" y1="0" x2="-6.604" y2="-2.54" width="0.254" layer="94"/>
<wire x1="-6.604" y1="-2.54" x2="-6.604" y2="-5.08" width="0.254" layer="94"/>
<wire x1="-6.604" y1="-5.08" x2="-6.604" y2="-7.62" width="0.254" layer="94"/>
<wire x1="-6.604" y1="-7.62" x2="-6.604" y2="-10.16" width="0.254" layer="94"/>
<wire x1="-6.604" y1="-10.16" x2="-6.604" y2="-12.7" width="0.254" layer="94"/>
<wire x1="-6.604" y1="-12.7" x2="6.096" y2="-12.7" width="0.254" layer="94"/>
<wire x1="6.096" y1="-12.7" x2="6.096" y2="-10.16" width="0.254" layer="94"/>
<wire x1="6.096" y1="-10.16" x2="6.096" y2="-7.62" width="0.254" layer="94"/>
<wire x1="6.096" y1="-7.62" x2="6.096" y2="-5.08" width="0.254" layer="94"/>
<wire x1="6.096" y1="-5.08" x2="6.096" y2="-2.54" width="0.254" layer="94"/>
<wire x1="6.096" y1="-2.54" x2="6.096" y2="0" width="0.254" layer="94"/>
<wire x1="6.096" y1="0" x2="6.096" y2="2.54" width="0.254" layer="94"/>
<wire x1="6.096" y1="2.54" x2="6.096" y2="5.08" width="0.254" layer="94"/>
<wire x1="6.096" y1="5.08" x2="6.096" y2="7.62" width="0.254" layer="94"/>
<wire x1="6.096" y1="7.62" x2="6.096" y2="10.16" width="0.254" layer="94"/>
<wire x1="6.096" y1="10.16" x2="6.096" y2="12.7" width="0.254" layer="94"/>
<wire x1="6.096" y1="12.7" x2="-6.604" y2="12.7" width="0.254" layer="94"/>
<wire x1="-6.604" y1="10.16" x2="-4.064" y2="10.16" width="0.127" layer="94"/>
<wire x1="-6.604" y1="7.62" x2="-4.064" y2="7.62" width="0.127" layer="94"/>
<wire x1="-6.604" y1="-7.62" x2="-4.064" y2="-7.62" width="0.127" layer="94"/>
<wire x1="-6.604" y1="-10.16" x2="-4.064" y2="-10.16" width="0.127" layer="94"/>
<wire x1="-4.064" y1="11.176" x2="-4.064" y2="9.144" width="0.127" layer="94"/>
<wire x1="-4.064" y1="8.636" x2="-4.064" y2="6.604" width="0.127" layer="94"/>
<wire x1="-4.064" y1="-6.604" x2="-4.064" y2="-8.636" width="0.127" layer="94"/>
<wire x1="-4.064" y1="-8.636" x2="-2.794" y2="-7.62" width="0.127" layer="94"/>
<wire x1="-2.794" y1="-7.62" x2="-4.064" y2="-6.604" width="0.127" layer="94"/>
<wire x1="-4.064" y1="11.176" x2="-2.794" y2="10.16" width="0.127" layer="94"/>
<wire x1="-2.794" y1="10.16" x2="-4.064" y2="9.144" width="0.127" layer="94"/>
<wire x1="-4.064" y1="8.636" x2="-2.794" y2="7.62" width="0.127" layer="94"/>
<wire x1="-2.794" y1="7.62" x2="-4.064" y2="6.604" width="0.127" layer="94"/>
<wire x1="-4.064" y1="-10.16" x2="-4.064" y2="-11.1125" width="0.127" layer="94"/>
<wire x1="-4.064" y1="-11.1125" x2="-3.429" y2="-11.1125" width="0.127" layer="94"/>
<wire x1="-3.429" y1="-11.1125" x2="-2.794" y2="-11.1125" width="0.127" layer="94"/>
<wire x1="-4.064" y1="-11.1125" x2="-4.699" y2="-11.1125" width="0.127" layer="94"/>
<wire x1="-4.699" y1="-11.1125" x2="-5.334" y2="-11.1125" width="0.127" layer="94"/>
<wire x1="-5.334" y1="-11.1125" x2="-5.6515" y2="-11.43" width="0.127" layer="94"/>
<wire x1="-4.699" y1="-11.1125" x2="-5.0165" y2="-11.43" width="0.127" layer="94"/>
<wire x1="-4.064" y1="-11.1125" x2="-4.3815" y2="-11.43" width="0.127" layer="94"/>
<wire x1="-3.429" y1="-11.1125" x2="-3.7465" y2="-11.43" width="0.127" layer="94"/>
<wire x1="-2.794" y1="-11.1125" x2="-3.1115" y2="-11.43" width="0.127" layer="94"/>
<wire x1="-2.159" y1="10.16" x2="3.8735" y2="10.16" width="0.127" layer="94"/>
<wire x1="3.8735" y1="10.16" x2="6.096" y2="10.16" width="0.127" layer="94"/>
<wire x1="-2.159" y1="7.62" x2="0.635" y2="7.62" width="0.127" layer="94"/>
<wire x1="0.635" y1="7.62" x2="6.096" y2="7.62" width="0.127" layer="94"/>
<wire x1="-2.159" y1="-7.62" x2="0.381" y2="-7.62" width="0.127" layer="94"/>
<wire x1="0.381" y1="-7.62" x2="6.096" y2="-7.62" width="0.127" layer="94"/>
<wire x1="0.635" y1="7.62" x2="0.635" y2="6.4135" width="0.127" layer="94"/>
<wire x1="0.635" y1="6.4135" x2="1.9685" y2="6.4135" width="0.127" layer="94"/>
<wire x1="1.9685" y1="6.4135" x2="1.9685" y2="7.112" width="0.127" layer="94"/>
<wire x1="1.9685" y1="6.4135" x2="1.9685" y2="5.715" width="0.127" layer="94"/>
<wire x1="1.9685" y1="5.715" x2="2.921" y2="6.4135" width="0.127" layer="94"/>
<wire x1="2.921" y1="6.4135" x2="1.9685" y2="7.112" width="0.127" layer="94"/>
<wire x1="2.921" y1="7.112" x2="2.921" y2="6.4135" width="0.127" layer="94"/>
<wire x1="2.921" y1="6.4135" x2="2.921" y2="5.715" width="0.127" layer="94"/>
<wire x1="0.381" y1="-7.62" x2="0.381" y2="-10.16" width="0.127" layer="94"/>
<wire x1="0.381" y1="-10.16" x2="1.9685" y2="-10.16" width="0.127" layer="94"/>
<wire x1="1.9685" y1="-9.4615" x2="1.9685" y2="-10.8585" width="0.127" layer="94"/>
<wire x1="1.9685" y1="-10.8585" x2="2.921" y2="-10.16" width="0.127" layer="94"/>
<wire x1="2.921" y1="-10.16" x2="1.9685" y2="-9.4615" width="0.127" layer="94"/>
<wire x1="2.921" y1="-9.4615" x2="2.921" y2="-10.16" width="0.127" layer="94"/>
<wire x1="2.921" y1="-10.16" x2="2.921" y2="-10.8585" width="0.127" layer="94"/>
<wire x1="2.921" y1="-10.16" x2="6.096" y2="-10.16" width="0.127" layer="94"/>
<wire x1="3.8735" y1="9.3345" x2="3.8735" y2="10.16" width="0.127" layer="94"/>
<wire x1="3.175" y1="9.3345" x2="3.8735" y2="9.3345" width="0.127" layer="94"/>
<wire x1="3.8735" y1="9.3345" x2="4.572" y2="9.3345" width="0.127" layer="94"/>
<wire x1="3.8735" y1="8.382" x2="3.175" y2="9.3345" width="0.127" layer="94"/>
<wire x1="3.8735" y1="8.382" x2="4.572" y2="9.3345" width="0.127" layer="94"/>
<wire x1="3.175" y1="8.382" x2="3.8735" y2="8.382" width="0.127" layer="94"/>
<wire x1="3.8735" y1="8.382" x2="4.572" y2="8.382" width="0.127" layer="94"/>
<wire x1="3.8735" y1="8.382" x2="3.8735" y2="6.4135" width="0.127" layer="94"/>
<wire x1="2.921" y1="6.4135" x2="3.8735" y2="6.4135" width="0.127" layer="94"/>
<wire x1="-6.604" y1="5.08" x2="-4.064" y2="5.08" width="0.127" layer="94"/>
<wire x1="-4.064" y1="6.096" x2="-4.064" y2="4.064" width="0.127" layer="94"/>
<wire x1="-4.064" y1="6.096" x2="-2.794" y2="5.08" width="0.127" layer="94"/>
<wire x1="-2.794" y1="5.08" x2="-4.064" y2="4.064" width="0.127" layer="94"/>
<wire x1="-2.159" y1="5.08" x2="0.635" y2="5.08" width="0.127" layer="94"/>
<wire x1="0.635" y1="5.08" x2="6.096" y2="5.08" width="0.127" layer="94"/>
<wire x1="0.635" y1="5.08" x2="0.635" y2="3.8735" width="0.127" layer="94"/>
<wire x1="0.635" y1="3.8735" x2="1.9685" y2="3.8735" width="0.127" layer="94"/>
<wire x1="1.9685" y1="3.8735" x2="1.9685" y2="4.572" width="0.127" layer="94"/>
<wire x1="1.9685" y1="3.8735" x2="1.9685" y2="3.175" width="0.127" layer="94"/>
<wire x1="1.9685" y1="3.175" x2="2.921" y2="3.8735" width="0.127" layer="94"/>
<wire x1="2.921" y1="3.8735" x2="1.9685" y2="4.572" width="0.127" layer="94"/>
<wire x1="2.921" y1="4.572" x2="2.921" y2="3.8735" width="0.127" layer="94"/>
<wire x1="2.921" y1="3.8735" x2="2.921" y2="3.175" width="0.127" layer="94"/>
<wire x1="3.8735" y1="6.35" x2="3.8735" y2="3.8735" width="0.127" layer="94"/>
<wire x1="2.921" y1="3.8735" x2="3.8735" y2="3.8735" width="0.127" layer="94"/>
<wire x1="-6.604" y1="2.54" x2="-4.064" y2="2.54" width="0.127" layer="94"/>
<wire x1="-4.064" y1="3.556" x2="-4.064" y2="1.524" width="0.127" layer="94"/>
<wire x1="-4.064" y1="3.556" x2="-2.794" y2="2.54" width="0.127" layer="94"/>
<wire x1="-2.794" y1="2.54" x2="-4.064" y2="1.524" width="0.127" layer="94"/>
<wire x1="-2.159" y1="2.54" x2="0.635" y2="2.54" width="0.127" layer="94"/>
<wire x1="0.635" y1="2.54" x2="6.096" y2="2.54" width="0.127" layer="94"/>
<wire x1="0.635" y1="2.54" x2="0.635" y2="1.3335" width="0.127" layer="94"/>
<wire x1="0.635" y1="1.3335" x2="1.9685" y2="1.3335" width="0.127" layer="94"/>
<wire x1="1.9685" y1="1.3335" x2="1.9685" y2="2.032" width="0.127" layer="94"/>
<wire x1="1.9685" y1="1.3335" x2="1.9685" y2="0.635" width="0.127" layer="94"/>
<wire x1="1.9685" y1="0.635" x2="2.921" y2="1.3335" width="0.127" layer="94"/>
<wire x1="2.921" y1="1.3335" x2="1.9685" y2="2.032" width="0.127" layer="94"/>
<wire x1="2.921" y1="2.032" x2="2.921" y2="1.3335" width="0.127" layer="94"/>
<wire x1="2.921" y1="1.3335" x2="2.921" y2="0.635" width="0.127" layer="94"/>
<wire x1="3.8735" y1="3.81" x2="3.8735" y2="1.3335" width="0.127" layer="94"/>
<wire x1="2.921" y1="1.3335" x2="3.8735" y2="1.3335" width="0.127" layer="94"/>
<wire x1="-6.604" y1="0" x2="-4.064" y2="0" width="0.127" layer="94"/>
<wire x1="-4.064" y1="1.016" x2="-4.064" y2="-1.016" width="0.127" layer="94"/>
<wire x1="-4.064" y1="1.016" x2="-2.794" y2="0" width="0.127" layer="94"/>
<wire x1="-2.794" y1="0" x2="-4.064" y2="-1.016" width="0.127" layer="94"/>
<wire x1="-2.159" y1="0" x2="0.635" y2="0" width="0.127" layer="94"/>
<wire x1="0.635" y1="0" x2="6.096" y2="0" width="0.127" layer="94"/>
<wire x1="0.635" y1="0" x2="0.635" y2="-1.2065" width="0.127" layer="94"/>
<wire x1="0.635" y1="-1.2065" x2="1.9685" y2="-1.2065" width="0.127" layer="94"/>
<wire x1="1.9685" y1="-1.2065" x2="1.9685" y2="-0.508" width="0.127" layer="94"/>
<wire x1="1.9685" y1="-1.2065" x2="1.9685" y2="-1.905" width="0.127" layer="94"/>
<wire x1="1.9685" y1="-1.905" x2="2.921" y2="-1.2065" width="0.127" layer="94"/>
<wire x1="2.921" y1="-1.2065" x2="1.9685" y2="-0.508" width="0.127" layer="94"/>
<wire x1="2.921" y1="-0.508" x2="2.921" y2="-1.2065" width="0.127" layer="94"/>
<wire x1="2.921" y1="-1.2065" x2="2.921" y2="-1.905" width="0.127" layer="94"/>
<wire x1="3.8735" y1="1.27" x2="3.8735" y2="-1.2065" width="0.127" layer="94"/>
<wire x1="2.921" y1="-1.2065" x2="3.8735" y2="-1.2065" width="0.127" layer="94"/>
<wire x1="-6.604" y1="-2.54" x2="-4.064" y2="-2.54" width="0.127" layer="94"/>
<wire x1="-4.064" y1="-1.524" x2="-4.064" y2="-3.556" width="0.127" layer="94"/>
<wire x1="-4.064" y1="-1.524" x2="-2.794" y2="-2.54" width="0.127" layer="94"/>
<wire x1="-2.794" y1="-2.54" x2="-4.064" y2="-3.556" width="0.127" layer="94"/>
<wire x1="-2.159" y1="-2.54" x2="0.635" y2="-2.54" width="0.127" layer="94"/>
<wire x1="0.635" y1="-2.54" x2="6.096" y2="-2.54" width="0.127" layer="94"/>
<wire x1="0.635" y1="-2.54" x2="0.635" y2="-3.7465" width="0.127" layer="94"/>
<wire x1="0.635" y1="-3.7465" x2="1.9685" y2="-3.7465" width="0.127" layer="94"/>
<wire x1="1.9685" y1="-3.7465" x2="1.9685" y2="-3.048" width="0.127" layer="94"/>
<wire x1="1.9685" y1="-3.7465" x2="1.9685" y2="-4.445" width="0.127" layer="94"/>
<wire x1="1.9685" y1="-4.445" x2="2.921" y2="-3.7465" width="0.127" layer="94"/>
<wire x1="2.921" y1="-3.7465" x2="1.9685" y2="-3.048" width="0.127" layer="94"/>
<wire x1="2.921" y1="-3.048" x2="2.921" y2="-3.7465" width="0.127" layer="94"/>
<wire x1="2.921" y1="-3.7465" x2="2.921" y2="-4.445" width="0.127" layer="94"/>
<wire x1="3.8735" y1="-1.27" x2="3.8735" y2="-3.7465" width="0.127" layer="94"/>
<wire x1="2.921" y1="-3.7465" x2="3.8735" y2="-3.7465" width="0.127" layer="94"/>
<wire x1="-6.604" y1="-5.08" x2="-4.064" y2="-5.08" width="0.127" layer="94"/>
<wire x1="-4.064" y1="-4.064" x2="-4.064" y2="-6.096" width="0.127" layer="94"/>
<wire x1="-4.064" y1="-4.064" x2="-2.794" y2="-5.08" width="0.127" layer="94"/>
<wire x1="-2.794" y1="-5.08" x2="-4.064" y2="-6.096" width="0.127" layer="94"/>
<wire x1="-2.159" y1="-5.08" x2="0.635" y2="-5.08" width="0.127" layer="94"/>
<wire x1="0.635" y1="-5.08" x2="6.096" y2="-5.08" width="0.127" layer="94"/>
<wire x1="0.635" y1="-5.08" x2="0.635" y2="-6.2865" width="0.127" layer="94"/>
<wire x1="0.635" y1="-6.2865" x2="1.9685" y2="-6.2865" width="0.127" layer="94"/>
<wire x1="1.9685" y1="-6.2865" x2="1.9685" y2="-5.588" width="0.127" layer="94"/>
<wire x1="1.9685" y1="-6.2865" x2="1.9685" y2="-6.985" width="0.127" layer="94"/>
<wire x1="1.9685" y1="-6.985" x2="2.921" y2="-6.2865" width="0.127" layer="94"/>
<wire x1="2.921" y1="-6.2865" x2="1.9685" y2="-5.588" width="0.127" layer="94"/>
<wire x1="2.921" y1="-5.588" x2="2.921" y2="-6.2865" width="0.127" layer="94"/>
<wire x1="2.921" y1="-6.2865" x2="2.921" y2="-6.985" width="0.127" layer="94"/>
<wire x1="3.8735" y1="-3.81" x2="3.8735" y2="-6.2865" width="0.127" layer="94"/>
<wire x1="2.921" y1="-6.2865" x2="3.8735" y2="-6.2865" width="0.127" layer="94"/>
<wire x1="3.8735" y1="-6.35" x2="3.8735" y2="-10.0965" width="0.127" layer="94"/>
<circle x="-2.4765" y="10.16" radius="0.3175" width="0.127" layer="94"/>
<circle x="-2.4765" y="7.62" radius="0.3175" width="0.127" layer="94"/>
<circle x="-2.4765" y="-7.62" radius="0.3175" width="0.127" layer="94"/>
<circle x="3.8735" y="10.16" radius="0.0635" width="0.127" layer="94"/>
<circle x="3.8735" y="10.16" radius="0.1419" width="0.127" layer="94"/>
<circle x="3.8735" y="6.4135" radius="0.1419" width="0.127" layer="94"/>
<circle x="3.8735" y="-10.16" radius="0.1419" width="0.127" layer="94"/>
<circle x="3.8735" y="6.4135" radius="0.1796" width="0.127" layer="94"/>
<circle x="3.8735" y="-10.16" radius="0.2008" width="0.127" layer="94"/>
<circle x="-2.4765" y="5.08" radius="0.3175" width="0.127" layer="94"/>
<circle x="3.8735" y="3.8735" radius="0.1419" width="0.127" layer="94"/>
<circle x="3.8735" y="3.8735" radius="0.1796" width="0.127" layer="94"/>
<circle x="-2.4765" y="2.54" radius="0.3175" width="0.127" layer="94"/>
<circle x="3.8735" y="1.3335" radius="0.1419" width="0.127" layer="94"/>
<circle x="3.8735" y="1.3335" radius="0.1796" width="0.127" layer="94"/>
<circle x="-2.4765" y="0" radius="0.3175" width="0.127" layer="94"/>
<circle x="3.8735" y="-1.2065" radius="0.1419" width="0.127" layer="94"/>
<circle x="3.8735" y="-1.2065" radius="0.1796" width="0.127" layer="94"/>
<circle x="-2.4765" y="-2.54" radius="0.3175" width="0.127" layer="94"/>
<circle x="3.8735" y="-3.7465" radius="0.1419" width="0.127" layer="94"/>
<circle x="3.8735" y="-3.7465" radius="0.1796" width="0.127" layer="94"/>
<circle x="-2.4765" y="-5.08" radius="0.3175" width="0.127" layer="94"/>
<circle x="3.8735" y="-6.2865" radius="0.1419" width="0.127" layer="94"/>
<circle x="3.8735" y="-6.2865" radius="0.1796" width="0.127" layer="94"/>
<pin name="1" x="-9.144" y="10.16" visible="pad" length="short"/>
<pin name="2" x="-9.144" y="7.62" visible="pad" length="short"/>
<pin name="3" x="-9.144" y="5.08" visible="pad" length="short"/>
<pin name="4" x="-9.144" y="2.54" visible="pad" length="short"/>
<pin name="5" x="-9.144" y="0" visible="pad" length="short"/>
<pin name="6" x="-9.144" y="-2.54" visible="pad" length="short"/>
<pin name="7" x="-9.144" y="-5.08" visible="pad" length="short"/>
<pin name="8" x="-9.144" y="-7.62" visible="pad" length="short"/>
<pin name="9" x="-9.144" y="-10.16" visible="pad" length="short"/>
<pin name="10" x="8.636" y="-10.16" visible="pad" length="short" rot="R180"/>
<pin name="11" x="8.636" y="-7.62" visible="pad" length="short" rot="R180"/>
<pin name="12" x="8.636" y="-5.08" visible="pad" length="short" rot="R180"/>
<pin name="13" x="8.636" y="-2.54" visible="pad" length="short" rot="R180"/>
<pin name="14" x="8.636" y="0" visible="pad" length="short" rot="R180"/>
<pin name="15" x="8.636" y="2.54" visible="pad" length="short" rot="R180"/>
<pin name="16" x="8.636" y="5.08" visible="pad" length="short" rot="R180"/>
<pin name="17" x="8.636" y="7.62" visible="pad" length="short" rot="R180"/>
<pin name="18" x="8.636" y="10.16" visible="pad" length="short" rot="R180"/>
</symbol>
</symbols>
<devicesets>
<deviceset name="ULN2003">
<description>2803 2003 ULN</description>
<gates>
<gate name="G$1" symbol="ULN2003" x="2.54" y="2.54"/>
</gates>
<devices>
<device name="" package="DIP18">
<connects>
<connect gate="G$1" pin="1" pad="1"/>
<connect gate="G$1" pin="10" pad="10"/>
<connect gate="G$1" pin="11" pad="11"/>
<connect gate="G$1" pin="12" pad="12"/>
<connect gate="G$1" pin="13" pad="13"/>
<connect gate="G$1" pin="14" pad="14"/>
<connect gate="G$1" pin="15" pad="15"/>
<connect gate="G$1" pin="16" pad="16"/>
<connect gate="G$1" pin="17" pad="17"/>
<connect gate="G$1" pin="18" pad="18"/>
<connect gate="G$1" pin="2" pad="2"/>
<connect gate="G$1" pin="3" pad="3"/>
<connect gate="G$1" pin="4" pad="4"/>
<connect gate="G$1" pin="5" pad="5"/>
<connect gate="G$1" pin="6" pad="6"/>
<connect gate="G$1" pin="7" pad="7"/>
<connect gate="G$1" pin="8" pad="8"/>
<connect gate="G$1" pin="9" pad="9"/>
</connects>
<technologies>
<technology name="">
<attribute name="Price" value="None"/>
<attribute name="MP" value="ULN2003"/>
<attribute name="Description" value="
SMD/Our stock Madrid-New &amp; Original
"/>
<attribute name="Availability" value="Unavailable"/>
<attribute name="Package" value="None"/>
<attribute name="MF" value="STMicroelectronics"/>
</technology>
</technologies>
</device>
</devices>
</deviceset>
</devicesets>
</library>
</drawing>
</eagle>
