<?xml version="1.0" encoding="utf-8"?>
<!DOCTYPE eagle SYSTEM "eagle.dtd">
<eagle version="9.1.0">
<drawing>
<settings>
<setting alwaysvectorfont="no"/>
<setting verticaltext="up"/>
</settings>
<grid distance="50" unitdist="mil" unit="mil" style="lines" multiple="1" display="yes" altdistance="5" altunitdist="mil" altunit="mil"/>
<layers>
<layer number="1" name="Top" color="4" fill="1" visible="yes" active="yes"/>
<layer number="2" name="Route2" color="16" fill="1" visible="no" active="yes"/>
<layer number="3" name="Route3" color="17" fill="1" visible="no" active="yes"/>
<layer number="4" name="Route4" color="18" fill="1" visible="no" active="yes"/>
<layer number="5" name="Route5" color="19" fill="1" visible="no" active="yes"/>
<layer number="6" name="Route6" color="25" fill="1" visible="no" active="yes"/>
<layer number="7" name="Route7" color="26" fill="1" visible="no" active="yes"/>
<layer number="8" name="Route8" color="27" fill="1" visible="no" active="yes"/>
<layer number="9" name="Route9" color="28" fill="1" visible="no" active="yes"/>
<layer number="10" name="Route10" color="29" fill="1" visible="no" active="yes"/>
<layer number="11" name="Route11" color="30" fill="1" visible="no" active="yes"/>
<layer number="12" name="Route12" color="20" fill="1" visible="no" active="yes"/>
<layer number="13" name="Route13" color="21" fill="1" visible="no" active="yes"/>
<layer number="14" name="Route14" color="22" fill="1" visible="no" active="yes"/>
<layer number="15" name="Route15" color="23" fill="1" visible="no" active="yes"/>
<layer number="16" name="Bottom" color="1" fill="1" visible="yes" active="yes"/>
<layer number="17" name="Pads" color="2" fill="1" visible="yes" active="yes"/>
<layer number="18" name="Vias" color="2" fill="1" visible="yes" active="yes"/>
<layer number="19" name="Unrouted" color="6" fill="1" visible="yes" active="yes"/>
<layer number="20" name="Dimension" color="24" fill="1" visible="yes" active="yes"/>
<layer number="21" name="tPlace" color="7" fill="1" visible="yes" active="yes"/>
<layer number="22" name="bPlace" color="7" fill="1" visible="yes" active="yes"/>
<layer number="23" name="tOrigins" color="15" fill="1" visible="yes" active="yes"/>
<layer number="24" name="bOrigins" color="15" fill="1" visible="yes" active="yes"/>
<layer number="25" name="tNames" color="7" fill="1" visible="yes" active="yes"/>
<layer number="26" name="bNames" color="7" fill="1" visible="yes" active="yes"/>
<layer number="27" name="tValues" color="7" fill="1" visible="yes" active="yes"/>
<layer number="28" name="bValues" color="7" fill="1" visible="yes" active="yes"/>
<layer number="29" name="tStop" color="7" fill="3" visible="no" active="yes"/>
<layer number="30" name="bStop" color="7" fill="6" visible="no" active="yes"/>
<layer number="31" name="tCream" color="7" fill="4" visible="no" active="yes"/>
<layer number="32" name="bCream" color="7" fill="5" visible="no" active="yes"/>
<layer number="33" name="tFinish" color="6" fill="3" visible="no" active="yes"/>
<layer number="34" name="bFinish" color="6" fill="6" visible="no" active="yes"/>
<layer number="35" name="tGlue" color="7" fill="4" visible="no" active="yes"/>
<layer number="36" name="bGlue" color="7" fill="5" visible="no" active="yes"/>
<layer number="37" name="tTest" color="7" fill="1" visible="no" active="yes"/>
<layer number="38" name="bTest" color="7" fill="1" visible="no" active="yes"/>
<layer number="39" name="tKeepout" color="4" fill="11" visible="yes" active="yes"/>
<layer number="40" name="bKeepout" color="1" fill="11" visible="yes" active="yes"/>
<layer number="41" name="tRestrict" color="4" fill="10" visible="yes" active="yes"/>
<layer number="42" name="bRestrict" color="1" fill="10" visible="yes" active="yes"/>
<layer number="43" name="vRestrict" color="2" fill="10" visible="yes" active="yes"/>
<layer number="44" name="Drills" color="7" fill="1" visible="no" active="yes"/>
<layer number="45" name="Holes" color="7" fill="1" visible="no" active="yes"/>
<layer number="46" name="Milling" color="3" fill="1" visible="no" active="yes"/>
<layer number="47" name="Measures" color="7" fill="1" visible="no" active="yes"/>
<layer number="48" name="Document" color="7" fill="1" visible="yes" active="yes"/>
<layer number="49" name="Reference" color="7" fill="1" visible="yes" active="yes"/>
<layer number="51" name="tDocu" color="7" fill="1" visible="yes" active="yes"/>
<layer number="52" name="bDocu" color="7" fill="1" visible="yes" active="yes"/>
<layer number="88" name="SimResults" color="9" fill="1" visible="yes" active="yes"/>
<layer number="89" name="SimProbes" color="9" fill="1" visible="yes" active="yes"/>
<layer number="90" name="Modules" color="5" fill="1" visible="yes" active="yes"/>
<layer number="91" name="Nets" color="2" fill="1" visible="yes" active="yes"/>
<layer number="92" name="Busses" color="1" fill="1" visible="yes" active="yes"/>
<layer number="93" name="Pins" color="2" fill="1" visible="no" active="yes"/>
<layer number="94" name="Symbols" color="4" fill="1" visible="yes" active="yes"/>
<layer number="95" name="Names" color="7" fill="1" visible="yes" active="yes"/>
<layer number="96" name="Values" color="7" fill="1" visible="yes" active="yes"/>
<layer number="97" name="Info" color="7" fill="1" visible="yes" active="yes"/>
<layer number="98" name="Guide" color="6" fill="1" visible="yes" active="yes"/>
</layers>
<library>
<packages>
<package name="YELABLOGO">
<text x="23.368" y="-0.8" size="0.8128" layer="22" font="vector" rot="MR0">Yelab Pvt. Ltd.</text>
<wire x1="22.250640625" y1="6.81821875" x2="22.420259375" y2="6.64181875" width="0.001" layer="22" curve="-14.23"/>
<wire x1="22.420259375" y1="6.64181875" x2="22.526490625" y2="6.44116875" width="0.001" layer="22" curve="-17.74"/>
<wire x1="22.526490625" y1="6.44116875" x2="22.58285" y2="6.17913125" width="0.001" layer="22" curve="-13.78"/>
<wire x1="22.58285" y1="6.17913125" x2="22.6" y2="5.805259375" width="0.001" layer="22" curve="-5.25"/>
<wire x1="22.6" y1="5.805259375" x2="22.6" y2="5.28" width="0.001" layer="22"/>
<wire x1="22.6" y1="5.28" x2="23.4" y2="5.28" width="0.001" layer="22"/>
<wire x1="23.4" y1="5.28" x2="23.72651875" y2="5.285259375" width="0.001" layer="22" curve="1.85"/>
<wire x1="23.72651875" y1="5.285259375" x2="23.98" y2="5.302" width="0.001" layer="22" curve="3.86"/>
<wire x1="23.98" y1="5.302" x2="24.17061875" y2="5.32586875" width="0.001" layer="22" curve="2.85"/>
<wire x1="24.17061875" y1="5.32586875" x2="24.2" y2="5.36" width="0.001" layer="22" curve="81.44"/>
<wire x1="24.2" y1="5.36" x2="24.248940625" y2="5.49373125" width="0.001" layer="22" curve="-40.2"/>
<wire x1="24.248940625" y1="5.49373125" x2="24.397590625" y2="5.62698125" width="0.001" layer="22" curve="-15.85"/>
<wire x1="24.397590625" y1="5.62698125" x2="24.59555" y2="5.72621875" width="0.001" layer="22" curve="-14.65"/>
<wire x1="24.59555" y1="5.72621875" x2="24.794190625" y2="5.76" width="0.001" layer="22" curve="-19.3"/>
<wire x1="24.794190625" y1="5.76" x2="25.017340625" y2="5.71141875" width="0.001" layer="22" curve="-24.56"/>
<wire x1="25.017340625" y1="5.71141875" x2="25.21543125" y2="5.5728" width="0.001" layer="22" curve="-20.84"/>
<wire x1="25.21543125" y1="5.5728" x2="25.352140625" y2="5.371909375" width="0.001" layer="22" curve="-20.72"/>
<wire x1="25.352140625" y1="5.371909375" x2="25.4" y2="5.14556875" width="0.001" layer="22" curve="-23.88"/>
<wire x1="25.4" y1="5.14556875" x2="25.34711875" y2="4.94425" width="0.001" layer="22" curve="-29.43"/>
<wire x1="25.34711875" y1="4.94425" x2="25.193290625" y2="4.75021875" width="0.001" layer="22" curve="-17.95"/>
<wire x1="25.193290625" y1="4.75021875" x2="24.98241875" y2="4.60871875" width="0.001" layer="22" curve="-17.51"/>
<wire x1="24.98241875" y1="4.60871875" x2="24.763640625" y2="4.56" width="0.001" layer="22" curve="-25.11"/>
<wire x1="24.763640625" y1="4.56" x2="24.58285" y2="4.59456875" width="0.001" layer="22" curve="-21.65"/>
<wire x1="24.58285" y1="4.59456875" x2="24.39358125" y2="4.69738125" width="0.001" layer="22" curve="-13.71"/>
<wire x1="24.39358125" y1="4.69738125" x2="24.247040625" y2="4.831809375" width="0.001" layer="22" curve="-14.34"/>
<wire x1="24.247040625" y1="4.831809375" x2="24.2" y2="4.96" width="0.001" layer="22" curve="-40.3"/>
<wire x1="24.2" y1="4.96" x2="24.17061875" y2="4.99413125" width="0.001" layer="22" curve="81.44"/>
<wire x1="24.17061875" y1="4.99413125" x2="23.98" y2="5.018" width="0.001" layer="22" curve="2.85"/>
<wire x1="23.98" y1="5.018" x2="23.72651875" y2="5.034740625" width="0.001" layer="22" curve="3.86"/>
<wire x1="23.72651875" y1="5.034740625" x2="23.4" y2="5.04" width="0.001" layer="22" curve="1.85"/>
<wire x1="23.4" y1="5.04" x2="22.6" y2="5.04" width="0.001" layer="22"/>
<wire x1="22.6" y1="5.04" x2="22.6" y2="4.44" width="0.001" layer="22"/>
<wire x1="22.6" y1="4.44" x2="22.6" y2="3.84" width="0.001" layer="22"/>
<wire x1="22.6" y1="3.84" x2="23.26556875" y2="3.84" width="0.001" layer="22"/>
<wire x1="23.26556875" y1="3.84" x2="23.66238125" y2="3.84581875" width="0.001" layer="22" curve="1.68"/>
<wire x1="23.66238125" y1="3.84581875" x2="23.854359375" y2="3.871240625" width="0.001" layer="22" curve="11.72"/>
<wire x1="23.854359375" y1="3.871240625" x2="23.982559375" y2="3.929209375" width="0.001" layer="22" curve="21.87"/>
<wire x1="23.982559375" y1="3.929209375" x2="24.105040625" y2="4.04" width="0.001" layer="22" curve="13.73"/>
<wire x1="24.105040625" y1="4.04" x2="24.354340625" y2="4.20618125" width="0.001" layer="22" curve="-30.61"/>
<wire x1="24.354340625" y1="4.20618125" x2="24.62941875" y2="4.2017" width="0.001" layer="22" curve="-38.63"/>
<wire x1="24.62941875" y1="4.2017" x2="24.84051875" y2="4.026709375" width="0.001" layer="22" curve="-38.82"/>
<wire x1="24.84051875" y1="4.026709375" x2="24.92" y2="3.73941875" width="0.001" layer="22" curve="-30.93"/>
<wire x1="24.92" y1="3.73941875" x2="24.83945" y2="3.46788125" width="0.001" layer="22" curve="-33.04"/>
<wire x1="24.83945" y1="3.46788125" x2="24.62816875" y2="3.30688125" width="0.001" layer="22" curve="-39.3"/>
<wire x1="24.62816875" y1="3.30688125" x2="24.352759375" y2="3.31133125" width="0.001" layer="22" curve="-37.17"/>
<wire x1="24.352759375" y1="3.31133125" x2="24.105040625" y2="3.48" width="0.001" layer="22" curve="-29.48"/>
<wire x1="24.105040625" y1="3.48" x2="23.982559375" y2="3.590790625" width="0.001" layer="22" curve="13.73"/>
<wire x1="23.982559375" y1="3.590790625" x2="23.854359375" y2="3.648759375" width="0.001" layer="22" curve="21.87"/>
<wire x1="23.854359375" y1="3.648759375" x2="23.66238125" y2="3.67418125" width="0.001" layer="22" curve="11.72"/>
<wire x1="23.66238125" y1="3.67418125" x2="23.26556875" y2="3.68" width="0.001" layer="22" curve="1.68"/>
<wire x1="23.26556875" y1="3.68" x2="22.6" y2="3.68" width="0.001" layer="22"/>
<wire x1="22.6" y1="3.68" x2="22.6" y2="3.08" width="0.001" layer="22"/>
<wire x1="22.6" y1="3.08" x2="22.6" y2="2.48" width="0.001" layer="22"/>
<wire x1="22.6" y1="2.48" x2="23.40171875" y2="2.48" width="0.001" layer="22"/>
<wire x1="23.40171875" y1="2.48" x2="23.908640625" y2="2.48426875" width="0.001" layer="22" curve="0.97"/>
<wire x1="23.908640625" y1="2.48426875" x2="24.10425" y2="2.50706875" width="0.001" layer="22" curve="11.36"/>
<wire x1="24.10425" y1="2.50706875" x2="24.21241875" y2="2.56383125" width="0.001" layer="22" curve="30.72"/>
<wire x1="24.21241875" y1="2.56383125" x2="24.292090625" y2="2.674590625" width="0.001" layer="22" curve="22.46"/>
<wire x1="24.292090625" y1="2.674590625" x2="24.42498125" y2="2.85741875" width="0.001" layer="22" curve="-23.03"/>
<wire x1="24.42498125" y1="2.85741875" x2="24.616690625" y2="2.969840625" width="0.001" layer="22" curve="-24.17"/>
<wire x1="24.616690625" y1="2.969840625" x2="24.83991875" y2="2.994809375" width="0.001" layer="22" curve="-23.83"/>
<wire x1="24.83991875" y1="2.994809375" x2="25.062090625" y2="2.929259375" width="0.001" layer="22" curve="-21.81"/>
<wire x1="25.062090625" y1="2.929259375" x2="25.28606875" y2="2.74901875" width="0.001" layer="22" curve="-22.96"/>
<wire x1="25.28606875" y1="2.74901875" x2="25.39701875" y2="2.510409375" width="0.001" layer="22" curve="-29.52"/>
<wire x1="25.39701875" y1="2.510409375" x2="25.378290625" y2="2.24011875" width="0.001" layer="22" curve="-28.29"/>
<wire x1="25.378290625" y1="2.24011875" x2="25.234190625" y2="1.970790625" width="0.001" layer="22" curve="-20.08"/>
<wire x1="25.234190625" y1="1.970790625" x2="25.031540625" y2="1.80381875" width="0.001" layer="22" curve="-24.65"/>
<wire x1="25.031540625" y1="1.80381875" x2="24.78971875" y2="1.749609375" width="0.001" layer="22" curve="-29.04"/>
<wire x1="24.78971875" y1="1.749609375" x2="24.54833125" y2="1.8194" width="0.001" layer="22" curve="-28.48"/>
<wire x1="24.54833125" y1="1.8194" x2="24.34735" y2="2" width="0.001" layer="22" curve="-23.16"/>
<wire x1="24.34735" y1="2" x2="24.217459375" y2="2.14291875" width="0.001" layer="22" curve="11.58"/>
<wire x1="24.217459375" y1="2.14291875" x2="24.092359375" y2="2.209359375" width="0.001" layer="22" curve="27.94"/>
<wire x1="24.092359375" y1="2.209359375" x2="23.897140625" y2="2.2352" width="0.001" layer="22" curve="12.93"/>
<wire x1="23.897140625" y1="2.2352" x2="23.384959375" y2="2.24" width="0.001" layer="22" curve="1.07"/>
<wire x1="23.384959375" y1="2.24" x2="22.6" y2="2.24" width="0.001" layer="22"/>
<wire x1="22.6" y1="2.24" x2="22.6" y2="1.63603125" width="0.001" layer="22"/>
<wire x1="22.6" y1="1.63603125" x2="22.547909375" y2="1.0117" width="0.001" layer="22" curve="-9.54"/>
<wire x1="22.547909375" y1="1.0117" x2="22.372390625" y2="0.65035" width="0.001" layer="22" curve="-32.74"/>
<wire x1="22.372390625" y1="0.65035" x2="22.040090625" y2="0.459440625" width="0.001" layer="22" curve="-35.69"/>
<wire x1="22.040090625" y1="0.459440625" x2="21.476240625" y2="0.4" width="0.001" layer="22" curve="-12.03"/>
<wire x1="21.476240625" y1="0.4" x2="21.17801875" y2="0.404440625" width="0.001" layer="22" curve="-1.71"/>
<wire x1="21.17801875" y1="0.404440625" x2="21.06761875" y2="0.4284" width="0.001" layer="22" curve="-21.07"/>
<wire x1="21.06761875" y1="0.4284" x2="21.016709375" y2="0.48516875" width="0.001" layer="22" curve="-50.66"/>
<wire x1="21.016709375" y1="0.48516875" x2="21" y2="0.6" width="0.001" layer="22" curve="-16.56"/>
<wire x1="21" y1="0.6" x2="21.01801875" y2="0.71525" width="0.001" layer="22" curve="-17.77"/>
<wire x1="21.01801875" y1="0.71525" x2="21.07181875" y2="0.77228125" width="0.001" layer="22" curve="-51.13"/>
<wire x1="21.07181875" y1="0.77228125" x2="21.189609375" y2="0.795790625" width="0.001" layer="22" curve="-19.64"/>
<wire x1="21.189609375" y1="0.795790625" x2="21.518159375" y2="0.8" width="0.001" layer="22" curve="-1.47"/>
<wire x1="21.518159375" y1="0.8" x2="21.97995" y2="0.8833" width="0.001" layer="22" curve="20.45"/>
<wire x1="21.97995" y1="0.8833" x2="22.195090625" y2="1.122209375" width="0.001" layer="22" curve="55.09"/>
<wire x1="22.195090625" y1="1.122209375" x2="22.26796875" y2="1.678109375" width="0.001" layer="22" curve="13.98"/>
<wire x1="22.26796875" y1="1.678109375" x2="22.27528125" y2="3.736040625" width="0.001" layer="22" curve="0.55"/>
<wire x1="22.27528125" y1="3.736040625" x2="22.263809375" y2="5.734840625" width="0.001" layer="22" curve="0.51"/>
<wire x1="22.263809375" y1="5.734840625" x2="22.193759375" y2="6.249459375" width="0.001" layer="22" curve="14.34"/>
<wire x1="22.193759375" y1="6.249459375" x2="21.98573125" y2="6.4787" width="0.001" layer="22" curve="54.61"/>
<wire x1="21.98573125" y1="6.4787" x2="21.51873125" y2="6.57545" width="0.001" layer="22" curve="17.54"/>
<wire x1="21.51873125" y1="6.57545" x2="21.24183125" y2="6.59505" width="0.001" layer="22" curve="-2.23"/>
<wire x1="21.24183125" y1="6.59505" x2="21.1151" y2="6.625759375" width="0.001" layer="22" curve="-16.91"/>
<wire x1="21.1151" y1="6.625759375" x2="21.049" y2="6.68238125" width="0.001" layer="22" curve="-37.01"/>
<wire x1="21.049" y1="6.68238125" x2="21.014440625" y2="6.78" width="0.001" layer="22" curve="-22.83"/>
<wire x1="21.014440625" y1="6.78" x2="21.02066875" y2="6.881290625" width="0.001" layer="22" curve="-23.21"/>
<wire x1="21.02066875" y1="6.881290625" x2="21.07011875" y2="6.934140625" width="0.001" layer="22" curve="-55.96"/>
<wire x1="21.07011875" y1="6.934140625" x2="21.19133125" y2="6.95551875" width="0.001" layer="22" curve="-17.83"/>
<wire x1="21.19133125" y1="6.95551875" x2="21.534440625" y2="6.95821875" width="0.001" layer="22" curve="-1.28"/>
<wire x1="21.534440625" y1="6.95821875" x2="21.79985" y2="6.94998125" width="0.001" layer="22" curve="-3.18"/>
<wire x1="21.79985" y1="6.94998125" x2="21.99451875" y2="6.92533125" width="0.001" layer="22" curve="-7.69"/>
<wire x1="21.99451875" y1="6.92533125" x2="22.1403" y2="6.882659375" width="0.001" layer="22" curve="-10.51"/>
<wire x1="22.1403" y1="6.882659375" x2="22.250640625" y2="6.81821875" width="0.001" layer="22" curve="-17.44"/>
<wire x1="17.945559375" y1="6.78" x2="17.91175" y2="6.682809375" width="0.001" layer="22" curve="-22.2"/>
<wire x1="17.91175" y1="6.682809375" x2="17.847309375" y2="6.62621875" width="0.001" layer="22" curve="-36.86"/>
<wire x1="17.847309375" y1="6.62621875" x2="17.72473125" y2="6.595359375" width="0.001" layer="22" curve="-17.45"/>
<wire x1="17.72473125" y1="6.595359375" x2="17.46178125" y2="6.576059375" width="0.001" layer="22" curve="-2.41"/>
<wire x1="17.46178125" y1="6.576059375" x2="17.04033125" y2="6.469309375" width="0.001" layer="22" curve="22.45"/>
<wire x1="17.04033125" y1="6.469309375" x2="16.83903125" y2="6.221540625" width="0.001" layer="22" curve="50.94"/>
<wire x1="16.83903125" y1="6.221540625" x2="16.76968125" y2="5.66401875" width="0.001" layer="22" curve="13.06"/>
<wire x1="16.76968125" y1="5.66401875" x2="16.76" y2="3.68" width="0.001" layer="22" curve="0.56"/>
<wire x1="16.76" y1="3.68" x2="16.76968125" y2="1.69598125" width="0.001" layer="22" curve="0.56"/>
<wire x1="16.76968125" y1="1.69598125" x2="16.83903125" y2="1.138459375" width="0.001" layer="22" curve="13.06"/>
<wire x1="16.83903125" y1="1.138459375" x2="17.04033125" y2="0.890690625" width="0.001" layer="22" curve="50.94"/>
<wire x1="17.04033125" y1="0.890690625" x2="17.46178125" y2="0.783940625" width="0.001" layer="22" curve="22.45"/>
<wire x1="17.46178125" y1="0.783940625" x2="17.72473125" y2="0.764640625" width="0.001" layer="22" curve="-2.41"/>
<wire x1="17.72473125" y1="0.764640625" x2="17.847309375" y2="0.73378125" width="0.001" layer="22" curve="-17.45"/>
<wire x1="17.847309375" y1="0.73378125" x2="17.91175" y2="0.677190625" width="0.001" layer="22" curve="-36.86"/>
<wire x1="17.91175" y1="0.677190625" x2="17.945559375" y2="0.58" width="0.001" layer="22" curve="-22.2"/>
<wire x1="17.945559375" y1="0.58" x2="17.943009375" y2="0.479190625" width="0.001" layer="22" curve="-19.06"/>
<wire x1="17.943009375" y1="0.479190625" x2="17.90105" y2="0.426990625" width="0.001" layer="22" curve="-55.63"/>
<wire x1="17.90105" y1="0.426990625" x2="17.799459375" y2="0.40428125" width="0.001" layer="22" curve="-21.57"/>
<wire x1="17.799459375" y1="0.40428125" x2="17.52933125" y2="0.4" width="0.001" layer="22" curve="-1.82"/>
<wire x1="17.52933125" y1="0.4" x2="17.00638125" y2="0.45898125" width="0.001" layer="22" curve="-12.87"/>
<wire x1="17.00638125" y1="0.45898125" x2="16.67755" y2="0.64336875" width="0.001" layer="22" curve="-32.82"/>
<wire x1="16.67755" y1="0.64336875" x2="16.4971" y2="0.9795" width="0.001" layer="22" curve="-32.16"/>
<wire x1="16.4971" y1="0.9795" x2="16.44" y2="1.51603125" width="0.001" layer="22" curve="-12.15"/>
<wire x1="16.44" y1="1.51603125" x2="16.44" y2="2" width="0.001" layer="22"/>
<wire x1="16.44" y1="2" x2="15.56615" y2="2" width="0.001" layer="22"/>
<wire x1="15.56615" y1="2" x2="14.993909375" y2="1.995009375" width="0.001" layer="22" curve="1"/>
<wire x1="14.993909375" y1="1.995009375" x2="14.77098125" y2="1.968590625" width="0.001" layer="22" curve="11.52"/>
<wire x1="14.77098125" y1="1.968590625" x2="14.61878125" y2="1.9003" width="0.001" layer="22" curve="23.29"/>
<wire x1="14.61878125" y1="1.9003" x2="14.44295" y2="1.750640625" width="0.001" layer="22" curve="9.19"/>
<wire x1="14.44295" y1="1.750640625" x2="14.299959375" y2="1.6203" width="0.001" layer="22" curve="-5.3"/>
<wire x1="14.299959375" y1="1.6203" x2="14.19221875" y2="1.55653125" width="0.001" layer="22" curve="-18.17"/>
<wire x1="14.19221875" y1="1.55653125" x2="14.082059375" y2="1.536190625" width="0.001" layer="22" curve="-22.15"/>
<wire x1="14.082059375" y1="1.536190625" x2="13.936790625" y2="1.55088125" width="0.001" layer="22" curve="-10.31"/>
<wire x1="13.936790625" y1="1.55088125" x2="13.61896875" y2="1.7001" width="0.001" layer="22" curve="-28.44"/>
<wire x1="13.61896875" y1="1.7001" x2="13.43093125" y2="1.97601875" width="0.001" layer="22" curve="-32.71"/>
<wire x1="13.43093125" y1="1.97601875" x2="13.42346875" y2="2.306159375" width="0.001" layer="22" curve="-33.25"/>
<wire x1="13.42346875" y1="2.306159375" x2="13.596359375" y2="2.603640625" width="0.001" layer="22" curve="-29.67"/>
<wire x1="13.596359375" y1="2.603640625" x2="13.850840625" y2="2.7668" width="0.001" layer="22" curve="-24.67"/>
<wire x1="13.850840625" y1="2.7668" x2="14.129209375" y2="2.790809375" width="0.001" layer="22" curve="-30.81"/>
<wire x1="14.129209375" y1="2.790809375" x2="14.38885" y2="2.66821875" width="0.001" layer="22" curve="-29.6"/>
<wire x1="14.38885" y1="2.66821875" x2="14.58975" y2="2.42" width="0.001" layer="22" curve="-21.88"/>
<wire x1="14.58975" y1="2.42" x2="14.67715" y2="2.31918125" width="0.001" layer="22" curve="25.76"/>
<wire x1="14.67715" y1="2.31918125" x2="14.799740625" y2="2.266290625" width="0.001" layer="22" curve="25.72"/>
<wire x1="14.799740625" y1="2.266290625" x2="15.020240625" y2="2.2443" width="0.001" layer="22" curve="9.57"/>
<wire x1="15.020240625" y1="2.2443" x2="15.562809375" y2="2.24" width="0.001" layer="22" curve="0.91"/>
<wire x1="15.562809375" y1="2.24" x2="16.44" y2="2.24" width="0.001" layer="22"/>
<wire x1="16.44" y1="2.24" x2="16.44" y2="2.84" width="0.001" layer="22"/>
<wire x1="16.44" y1="2.84" x2="16.44" y2="3.44" width="0.001" layer="22"/>
<wire x1="16.44" y1="3.44" x2="15.67281875" y2="3.44" width="0.001" layer="22"/>
<wire x1="15.67281875" y1="3.44" x2="15.246090625" y2="3.43458125" width="0.001" layer="22" curve="1.45"/>
<wire x1="15.246090625" y1="3.43458125" x2="15.01943125" y2="3.41255" width="0.001" layer="22" curve="8.2"/>
<wire x1="15.01943125" y1="3.41255" x2="14.87743125" y2="3.36708125" width="0.001" layer="22" curve="16.21"/>
<wire x1="14.87743125" y1="3.36708125" x2="14.77281875" y2="3.28695" width="0.001" layer="22" curve="23.19"/>
<wire x1="14.77281875" y1="3.28695" x2="14.61155" y2="3.145909375" width="0.001" layer="22" curve="-15.75"/>
<wire x1="14.61155" y1="3.145909375" x2="14.44338125" y2="3.08435" width="0.001" layer="22" curve="-26.38"/>
<wire x1="14.44338125" y1="3.08435" x2="14.26978125" y2="3.10491875" width="0.001" layer="22" curve="-27.35"/>
<wire x1="14.26978125" y1="3.10491875" x2="14.09256875" y2="3.204409375" width="0.001" layer="22" curve="-17.76"/>
<wire x1="14.09256875" y1="3.204409375" x2="13.949909375" y2="3.36116875" width="0.001" layer="22" curve="-19.02"/>
<wire x1="13.949909375" y1="3.36116875" x2="13.888140625" y2="3.538040625" width="0.001" layer="22" curve="-27.09"/>
<wire x1="13.888140625" y1="3.538040625" x2="13.91566875" y2="3.7136" width="0.001" layer="22" curve="-29.24"/>
<wire x1="13.91566875" y1="3.7136" x2="14.0263" y2="3.8676" width="0.001" layer="22" curve="-24.33"/>
<wire x1="14.0263" y1="3.8676" x2="14.20631875" y2="3.969359375" width="0.001" layer="22" curve="-25.33"/>
<wire x1="14.20631875" y1="3.969359375" x2="14.433290625" y2="3.998659375" width="0.001" layer="22" curve="-18.91"/>
<wire x1="14.433290625" y1="3.998659375" x2="14.64425" y2="3.953190625" width="0.001" layer="22" curve="-20.13"/>
<wire x1="14.64425" y1="3.953190625" x2="14.77856875" y2="3.84" width="0.001" layer="22" curve="-35.79"/>
<wire x1="14.77856875" y1="3.84" x2="14.865990625" y2="3.754090625" width="0.001" layer="22" curve="27.03"/>
<wire x1="14.865990625" y1="3.754090625" x2="14.99191875" y2="3.706659375" width="0.001" layer="22" curve="20.69"/>
<wire x1="14.99191875" y1="3.706659375" x2="15.20731875" y2="3.6849" width="0.001" layer="22" curve="9.06"/>
<wire x1="15.20731875" y1="3.6849" x2="15.659240625" y2="3.68" width="0.001" layer="22" curve="1.24"/>
<wire x1="15.659240625" y1="3.68" x2="16.44" y2="3.68" width="0.001" layer="22"/>
<wire x1="16.44" y1="3.68" x2="16.44" y2="4.24" width="0.001" layer="22"/>
<wire x1="16.44" y1="4.24" x2="16.44" y2="4.8" width="0.001" layer="22"/>
<wire x1="16.44" y1="4.8" x2="15.60615" y2="4.8" width="0.001" layer="22"/>
<wire x1="15.60615" y1="4.8" x2="15.06931875" y2="4.794809375" width="0.001" layer="22" curve="1.11"/>
<wire x1="15.06931875" y1="4.794809375" x2="14.85028125" y2="4.768490625" width="0.001" layer="22" curve="11.49"/>
<wire x1="14.85028125" y1="4.768490625" x2="14.70063125" y2="4.702009375" width="0.001" layer="22" curve="22.71"/>
<wire x1="14.70063125" y1="4.702009375" x2="14.532309375" y2="4.56" width="0.001" layer="22" curve="9.69"/>
<wire x1="14.532309375" y1="4.56" x2="14.30345" y2="4.385640625" width="0.001" layer="22" curve="-15.39"/>
<wire x1="14.30345" y1="4.385640625" x2="14.0815" y2="4.32616875" width="0.001" layer="22" curve="-29.21"/>
<wire x1="14.0815" y1="4.32616875" x2="13.86031875" y2="4.382809375" width="0.001" layer="22" curve="-29.51"/>
<wire x1="13.86031875" y1="4.382809375" x2="13.63385" y2="4.55385" width="0.001" layer="22" curve="-15.88"/>
<wire x1="13.63385" y1="4.55385" x2="13.46563125" y2="4.76788125" width="0.001" layer="22" curve="-13.67"/>
<wire x1="13.46563125" y1="4.76788125" x2="13.412359375" y2="4.9621" width="0.001" layer="22" curve="-31.98"/>
<wire x1="13.412359375" y1="4.9621" x2="13.46966875" y2="5.157509375" width="0.001" layer="22" curve="-31.39"/>
<wire x1="13.46966875" y1="5.157509375" x2="13.643209375" y2="5.375509375" width="0.001" layer="22" curve="-12.96"/>
<wire x1="13.643209375" y1="5.375509375" x2="13.78193125" y2="5.50151875" width="0.001" layer="22" curve="-5.5"/>
<wire x1="13.78193125" y1="5.50151875" x2="13.88796875" y2="5.56373125" width="0.001" layer="22" curve="-18.2"/>
<wire x1="13.88796875" y1="5.56373125" x2="13.99641875" y2="5.58338125" width="0.001" layer="22" curve="-22.06"/>
<wire x1="13.99641875" y1="5.58338125" x2="14.137959375" y2="5.568409375" width="0.001" layer="22" curve="-10.55"/>
<wire x1="14.137959375" y1="5.568409375" x2="14.33781875" y2="5.504309375" width="0.001" layer="22" curve="-12.94"/>
<wire x1="14.33781875" y1="5.504309375" x2="14.514790625" y2="5.39783125" width="0.001" layer="22" curve="-13.57"/>
<wire x1="14.514790625" y1="5.39783125" x2="14.63903125" y2="5.27113125" width="0.001" layer="22" curve="-15.48"/>
<wire x1="14.63903125" y1="5.27113125" x2="14.68" y2="5.1476" width="0.001" layer="22" curve="-36.7"/>
<wire x1="14.68" y1="5.1476" x2="14.719640625" y2="5.093590625" width="0.001" layer="22" curve="72.55"/>
<wire x1="14.719640625" y1="5.093590625" x2="14.86356875" y2="5.06245" width="0.001" layer="22" curve="10.48"/>
<wire x1="14.86356875" y1="5.06245" x2="15.11435" y2="5.04458125" width="0.001" layer="22" curve="5.79"/>
<wire x1="15.11435" y1="5.04458125" x2="15.56" y2="5.04" width="0.001" layer="22" curve="1.18"/>
<wire x1="15.56" y1="5.04" x2="16.44" y2="5.04" width="0.001" layer="22"/>
<wire x1="16.44" y1="5.04" x2="16.44" y2="5.68396875" width="0.001" layer="22"/>
<wire x1="16.44" y1="5.68396875" x2="16.46243125" y2="6.14326875" width="0.001" layer="22" curve="-5.59"/>
<wire x1="16.46243125" y1="6.14326875" x2="16.53428125" y2="6.48235" width="0.001" layer="22" curve="-12.74"/>
<wire x1="16.53428125" y1="6.48235" x2="16.657440625" y2="6.722340625" width="0.001" layer="22" curve="-17.66"/>
<wire x1="16.657440625" y1="6.722340625" x2="16.83556875" y2="6.87763125" width="0.001" layer="22" curve="-25.85"/>
<wire x1="16.83556875" y1="6.87763125" x2="16.925359375" y2="6.909559375" width="0.001" layer="22" curve="-17.15"/>
<wire x1="16.925359375" y1="6.909559375" x2="17.08845" y2="6.9358" width="0.001" layer="22" curve="-3.72"/>
<wire x1="17.08845" y1="6.9358" x2="17.281109375" y2="6.95395" width="0.001" layer="22" curve="-3.8"/>
<wire x1="17.281109375" y1="6.95395" x2="17.4803" y2="6.96" width="0.001" layer="22" curve="-3.48"/>
<wire x1="17.4803" y1="6.96" x2="17.78473125" y2="6.95595" width="0.001" layer="22" curve="-1.52"/>
<wire x1="17.78473125" y1="6.95595" x2="17.8957" y2="6.933709375" width="0.001" layer="22" curve="-19.63"/>
<wire x1="17.8957" y1="6.933709375" x2="17.94126875" y2="6.8811" width="0.001" layer="22" curve="-55.9"/>
<wire x1="17.94126875" y1="6.8811" x2="17.945559375" y2="6.78" width="0.001" layer="22" curve="-21.03"/>
<wire x1="21.88" y1="3.681190625" x2="21.88" y2="1.04" width="0.001" layer="22"/>
<wire x1="21.88" y1="1.04" x2="19.5" y2="1.03998125" width="0.001" layer="22"/>
<wire x1="19.5" y1="1.03998125" x2="17.12" y2="1.039959375" width="0.001" layer="22"/>
<wire x1="17.12" y1="1.039959375" x2="17.13866875" y2="3.65998125" width="0.001" layer="22"/>
<wire x1="17.13866875" y1="3.65998125" x2="17.15733125" y2="6.28" width="0.001" layer="22"/>
<wire x1="17.15733125" y1="6.28" x2="19.51866875" y2="6.301190625" width="0.001" layer="22"/>
<wire x1="19.51866875" y1="6.301190625" x2="21.88" y2="6.32238125" width="0.001" layer="22"/>
<wire x1="21.88" y1="6.32238125" x2="21.88" y2="3.681190625" width="0.001" layer="22"/>
<wire x1="21.561159375" y1="5.68" x2="21.54861875" y2="5.607509375" width="0.001" layer="22" curve="-18.4"/>
<wire x1="21.54861875" y1="5.607509375" x2="21.490290625" y2="5.447359375" width="0.001" layer="22" curve="-2"/>
<wire x1="21.490290625" y1="5.447359375" x2="21.413" y2="5.258109375" width="0.001" layer="22" curve="-2.41"/>
<wire x1="21.413" y1="5.258109375" x2="21.3217" y2="5.05655" width="0.001" layer="22" curve="-1.9"/>
<wire x1="21.3217" y1="5.05655" x2="21.06151875" y2="4.619609375" width="0.001" layer="22" curve="-10.91"/>
<wire x1="21.06151875" y1="4.619609375" x2="20.67481875" y2="4.14933125" width="0.001" layer="22" curve="-6.41"/>
<wire x1="20.67481875" y1="4.14933125" x2="20.277209375" y2="3.753109375" width="0.001" layer="22" curve="-4.93"/>
<wire x1="20.277209375" y1="3.753109375" x2="20.067440625" y2="3.694240625" width="0.001" layer="22" curve="-53.52"/>
<wire x1="20.067440625" y1="3.694240625" x2="19.92303125" y2="3.80736875" width="0.001" layer="22" curve="-53.98"/>
<wire x1="19.92303125" y1="3.80736875" x2="19.74815" y2="4.23376875" width="0.001" layer="22" curve="-5.27"/>
<wire x1="19.74815" y1="4.23376875" x2="19.5888" y2="4.76816875" width="0.001" layer="22" curve="-6.12"/>
<wire x1="19.5888" y1="4.76816875" x2="19.477290625" y2="5.34555" width="0.001" layer="22" curve="-5.22"/>
<wire x1="19.477290625" y1="5.34555" x2="19.41031875" y2="5.773740625" width="0.001" layer="22" curve="1.14"/>
<wire x1="19.41031875" y1="5.773740625" x2="19.363790625" y2="5.916" width="0.001" layer="22" curve="17.31"/>
<wire x1="19.363790625" y1="5.916" x2="19.28861875" y2="5.979109375" width="0.001" layer="22" curve="46.43"/>
<wire x1="19.28861875" y1="5.979109375" x2="19.14716875" y2="6" width="0.001" layer="22" curve="16.8"/>
<wire x1="19.14716875" y1="6" x2="18.998740625" y2="5.977590625" width="0.001" layer="22" curve="17.17"/>
<wire x1="18.998740625" y1="5.977590625" x2="18.9453" y2="5.91013125" width="0.001" layer="22" curve="68.89"/>
<wire x1="18.9453" y1="5.91013125" x2="18.95286875" y2="5.75183125" width="0.001" layer="22" curve="13.35"/>
<wire x1="18.95286875" y1="5.75183125" x2="19.0787" y2="5.005309375" width="0.001" layer="22" curve="0.3"/>
<wire x1="19.0787" y1="5.005309375" x2="19.156690625" y2="4.52373125" width="0.001" layer="22" curve="-1.04"/>
<wire x1="19.156690625" y1="4.52373125" x2="19.138359375" y2="4.41241875" width="0.001" layer="22" curve="-36.06"/>
<wire x1="19.138359375" y1="4.41241875" x2="19.06156875" y2="4.37641875" width="0.001" layer="22" curve="-75.02"/>
<wire x1="19.06156875" y1="4.37641875" x2="18.78965" y2="4.44711875" width="0.001" layer="22" curve="-4.35"/>
<wire x1="18.78965" y1="4.44711875" x2="18.481540625" y2="4.507790625" width="0.001" layer="22" curve="11.22"/>
<wire x1="18.481540625" y1="4.507790625" x2="18.153559375" y2="4.51125" width="0.001" layer="22" curve="9.86"/>
<wire x1="18.153559375" y1="4.51125" x2="17.834540625" y2="4.458909375" width="0.001" layer="22" curve="9.98"/>
<wire x1="17.834540625" y1="4.458909375" x2="17.553159375" y2="4.35361875" width="0.001" layer="22" curve="12.41"/>
<wire x1="17.553159375" y1="4.35361875" x2="17.44581875" y2="4.287340625" width="0.001" layer="22" curve="9.95"/>
<wire x1="17.44581875" y1="4.287340625" x2="17.39113125" y2="4.21993125" width="0.001" layer="22" curve="28.55"/>
<wire x1="17.39113125" y1="4.21993125" x2="17.371959375" y2="4.129809375" width="0.001" layer="22" curve="25.54"/>
<wire x1="17.371959375" y1="4.129809375" x2="17.3829" y2="3.98475" width="0.001" layer="22" curve="7.11"/>
<wire x1="17.3829" y1="3.98475" x2="17.442809375" y2="3.76095" width="0.001" layer="22" curve="14.24"/>
<wire x1="17.442809375" y1="3.76095" x2="17.553190625" y2="3.578759375" width="0.001" layer="22" curve="18.21"/>
<wire x1="17.553190625" y1="3.578759375" x2="17.731390625" y2="3.41806875" width="0.001" layer="22" curve="15.29"/>
<wire x1="17.731390625" y1="3.41806875" x2="18" y2="3.257490625" width="0.001" layer="22" curve="7.05"/>
<wire x1="18" y1="3.257490625" x2="18.29913125" y2="3.14916875" width="0.001" layer="22" curve="14.88"/>
<wire x1="18.29913125" y1="3.14916875" x2="18.68678125" y2="3.091759375" width="0.001" layer="22" curve="8.08"/>
<wire x1="18.68678125" y1="3.091759375" x2="19.094440625" y2="3.0887" width="0.001" layer="22" curve="7.92"/>
<wire x1="19.094440625" y1="3.0887" x2="19.457040625" y2="3.145709375" width="0.001" layer="22" curve="10.81"/>
<wire x1="19.457040625" y1="3.145709375" x2="19.60906875" y2="3.1778" width="0.001" layer="22" curve="-4.84"/>
<wire x1="19.60906875" y1="3.1778" x2="19.682090625" y2="3.16761875" width="0.001" layer="22" curve="-34.87"/>
<wire x1="19.682090625" y1="3.16761875" x2="19.72833125" y2="3.11861875" width="0.001" layer="22" curve="-42.58"/>
<wire x1="19.72833125" y1="3.11861875" x2="19.767540625" y2="2.998459375" width="0.001" layer="22" curve="-7.96"/>
<wire x1="19.767540625" y1="2.998459375" x2="19.7532" y2="2.56538125" width="0.001" layer="22" curve="-31.97"/>
<wire x1="19.7532" y1="2.56538125" x2="19.51373125" y2="2.10448125" width="0.001" layer="22" curve="-19.15"/>
<wire x1="19.51373125" y1="2.10448125" x2="19.10126875" y2="1.700190625" width="0.001" layer="22" curve="-17.09"/>
<wire x1="19.10126875" y1="1.700190625" x2="18.58618125" y2="1.432409375" width="0.001" layer="22" curve="-16.83"/>
<wire x1="18.58618125" y1="1.432409375" x2="18.16" y2="1.28521875" width="0.001" layer="22"/>
<wire x1="18.16" y1="1.28521875" x2="18.851709375" y2="1.282609375" width="0.001" layer="22"/>
<wire x1="18.851709375" y1="1.282609375" x2="19.302509375" y2="1.286690625" width="0.001" layer="22" curve="1.47"/>
<wire x1="19.302509375" y1="1.286690625" x2="19.486590625" y2="1.31508125" width="0.001" layer="22" curve="15.03"/>
<wire x1="19.486590625" y1="1.31508125" x2="19.61853125" y2="1.387940625" width="0.001" layer="22" curve="25.25"/>
<wire x1="19.61853125" y1="1.387940625" x2="19.78505" y2="1.555190625" width="0.001" layer="22" curve="7.18"/>
<wire x1="19.78505" y1="1.555190625" x2="19.88336875" y2="1.67095" width="0.001" layer="22" curve="1.88"/>
<wire x1="19.88336875" y1="1.67095" x2="19.978990625" y2="1.79118125" width="0.001" layer="22" curve="1.82"/>
<wire x1="19.978990625" y1="1.79118125" x2="20.059809375" y2="1.89965" width="0.001" layer="22" curve="1.8"/>
<wire x1="20.059809375" y1="1.89965" x2="20.10598125" y2="1.972109375" width="0.001" layer="22" curve="6.55"/>
<wire x1="20.10598125" y1="1.972109375" x2="20.16638125" y2="2.02508125" width="0.001" layer="22" curve="-39.03"/>
<wire x1="20.16638125" y1="2.02508125" x2="20.237890625" y2="2.01971875" width="0.001" layer="22" curve="-52.04"/>
<wire x1="20.237890625" y1="2.01971875" x2="20.34745" y2="1.934740625" width="0.001" layer="22" curve="-14.98"/>
<wire x1="20.34745" y1="1.934740625" x2="20.57673125" y2="1.69691875" width="0.001" layer="22" curve="-1.52"/>
<wire x1="20.57673125" y1="1.69691875" x2="20.819790625" y2="1.44996875" width="0.001" layer="22" curve="2.71"/>
<wire x1="20.819790625" y1="1.44996875" x2="20.96663125" y2="1.3424" width="0.001" layer="22" curve="15.75"/>
<wire x1="20.96663125" y1="1.3424" x2="21.11711875" y2="1.29435" width="0.001" layer="22" curve="21.28"/>
<wire x1="21.11711875" y1="1.29435" x2="21.349409375" y2="1.28" width="0.001" layer="22" curve="7.07"/>
<wire x1="21.349409375" y1="1.28" x2="21.730659375" y2="1.28" width="0.001" layer="22"/>
<wire x1="21.730659375" y1="1.28" x2="21.33695" y2="1.663490625" width="0.001" layer="22"/>
<wire x1="21.33695" y1="1.663490625" x2="21.159490625" y2="1.85541875" width="0.001" layer="22" curve="-5.99"/>
<wire x1="21.159490625" y1="1.85541875" x2="20.94901875" y2="2.1213" width="0.001" layer="22" curve="-2.79"/>
<wire x1="20.94901875" y1="2.1213" x2="20.74116875" y2="2.41173125" width="0.001" layer="22" curve="-2.76"/>
<wire x1="20.74116875" y1="2.41173125" x2="20.5692" y2="2.683490625" width="0.001" layer="22" curve="-3.77"/>
<wire x1="20.5692" y1="2.683490625" x2="20.356309375" y2="3.05465" width="0.001" layer="22" curve="-1.2"/>
<wire x1="20.356309375" y1="3.05465" x2="20.27986875" y2="3.22705" width="0.001" layer="22" curve="-10.65"/>
<wire x1="20.27986875" y1="3.22705" x2="20.275509375" y2="3.328240625" width="0.001" layer="22" curve="-32.24"/>
<wire x1="20.275509375" y1="3.328240625" x2="20.32826875" y2="3.4" width="0.001" layer="22" curve="-45.34"/>
<wire x1="20.32826875" y1="3.4" x2="20.65256875" y2="3.6219" width="0.001" layer="22" curve="6.75"/>
<wire x1="20.65256875" y1="3.6219" x2="20.989740625" y2="3.906290625" width="0.001" layer="22" curve="4.78"/>
<wire x1="20.989740625" y1="3.906290625" x2="21.287490625" y2="4.20361875" width="0.001" layer="22" curve="4.84"/>
<wire x1="21.287490625" y1="4.20361875" x2="21.4859" y2="4.462190625" width="0.001" layer="22" curve="10.24"/>
<wire x1="21.4859" y1="4.462190625" x2="21.612990625" y2="4.68718125" width="0.001" layer="22" curve="5.84"/>
<wire x1="21.612990625" y1="4.68718125" x2="21.68" y2="4.871309375" width="0.001" layer="22" curve="13.09"/>
<wire x1="21.68" y1="4.871309375" x2="21.71078125" y2="5.08763125" width="0.001" layer="22" curve="10.71"/>
<wire x1="21.71078125" y1="5.08763125" x2="21.71876875" y2="5.435659375" width="0.001" layer="22" curve="2.86"/>
<wire x1="21.71876875" y1="5.435659375" x2="21.714359375" y2="5.709290625" width="0.001" layer="22" curve="1.62"/>
<wire x1="21.714359375" y1="5.709290625" x2="21.69926875" y2="5.86648125" width="0.001" layer="22" curve="7.51"/>
<wire x1="21.69926875" y1="5.86648125" x2="21.673140625" y2="5.92233125" width="0.001" layer="22" curve="31.67"/>
<wire x1="21.673140625" y1="5.92233125" x2="21.64" y2="5.92" width="0.001" layer="22" curve="106.22"/>
<wire x1="21.64" y1="5.92" x2="21.610209375" y2="5.86528125" width="0.001" layer="22" curve="8.61"/>
<wire x1="21.610209375" y1="5.86528125" x2="21.58485" y2="5.8" width="0.001" layer="22" curve="6.08"/>
<wire x1="21.58485" y1="5.8" x2="21.567209375" y2="5.73461875" width="0.001" layer="22" curve="6.17"/>
<wire x1="21.567209375" y1="5.73461875" x2="21.561159375" y2="5.68" width="0.001" layer="22" curve="11.4"/>
<wire x1="19.11243125" y1="3.957809375" x2="19.32525" y2="3.825890625" width="0.001" layer="22" curve="-8.5"/>
<wire x1="19.32525" y1="3.825890625" x2="19.453659375" y2="3.692209375" width="0.001" layer="22" curve="-20.22"/>
<wire x1="19.453659375" y1="3.692209375" x2="19.48173125" y2="3.577690625" width="0.001" layer="22" curve="-39.93"/>
<wire x1="19.48173125" y1="3.577690625" x2="19.42436875" y2="3.49076875" width="0.001" layer="22" curve="-54.46"/>
<wire x1="19.42436875" y1="3.49076875" x2="19.105490625" y2="3.40596875" width="0.001" layer="22" curve="-28.9"/>
<wire x1="19.105490625" y1="3.40596875" x2="18.6631" y2="3.450540625" width="0.001" layer="22" curve="-12.39"/>
<wire x1="18.6631" y1="3.450540625" x2="18.23533125" y2="3.590540625" width="0.001" layer="22" curve="-12.35"/>
<wire x1="18.23533125" y1="3.590540625" x2="17.95931875" y2="3.80081875" width="0.001" layer="22" curve="-26.02"/>
<wire x1="17.95931875" y1="3.80081875" x2="17.90441875" y2="3.87483125" width="0.001" layer="22" curve="-6.25"/>
<wire x1="17.90441875" y1="3.87483125" x2="17.89111875" y2="3.921490625" width="0.001" layer="22" curve="-35.08"/>
<wire x1="17.89111875" y1="3.921490625" x2="17.908609375" y2="3.96075" width="0.001" layer="22" curve="-44.75"/>
<wire x1="17.908609375" y1="3.96075" x2="17.965140625" y2="4.00486875" width="0.001" layer="22" curve="-11.29"/>
<wire x1="17.965140625" y1="4.00486875" x2="18.16025" y2="4.069040625" width="0.001" layer="22" curve="-28.24"/>
<wire x1="18.16025" y1="4.069040625" x2="18.511340625" y2="4.07436875" width="0.001" layer="22" curve="-6.44"/>
<wire x1="18.511340625" y1="4.07436875" x2="18.87011875" y2="4.0382" width="0.001" layer="22" curve="-6.82"/>
<wire x1="18.87011875" y1="4.0382" x2="19.11243125" y2="3.957809375" width="0.001" layer="22" curve="-18.37"/>
</package>
</packages>
<symbols>
</symbols>
<devicesets>
</devicesets>
</library>
</drawing>
</eagle>
